university/automata-theory/course-work/operating-device-quartus/simulation/qsim/qartus.msim.vcd
$comment
	File created using the following command:
		vcd file qartus.msim.vcd -direction
$end
$date
	Wed Jun 03 13:01:24 2020
$end
$version
	ModelSim Version 10.5b
$end
$timescale
	1ps
$end

$scope module multiply_scheme_vhd_vec_tst $end
$var wire 1 ! a [3] $end
$var wire 1 " a [2] $end
$var wire 1 # a [1] $end
$var wire 1 $ a [0] $end
$var wire 1 % b [3] $end
$var wire 1 & b [2] $end
$var wire 1 ' b [1] $end
$var wire 1 ( b [0] $end
$var wire 1 ) clk $end
$var wire 1 * rc [7] $end
$var wire 1 + rc [6] $end
$var wire 1 , rc [5] $end
$var wire 1 - rc [4] $end
$var wire 1 . rc [3] $end
$var wire 1 / rc [2] $end
$var wire 1 0 rc [1] $end
$var wire 1 1 rc [0] $end
$var wire 1 2 set $end
$var wire 1 3 sko $end
$var wire 1 4 sno $end

$scope module i1 $end
$var wire 1 5 gnd $end
$var wire 1 6 vcc $end
$var wire 1 7 unknown $end
$var wire 1 8 devoe $end
$var wire 1 9 devclrn $end
$var wire 1 : devpor $end
$var wire 1 ; ww_devoe $end
$var wire 1 < ww_devclrn $end
$var wire 1 = ww_devpor $end
$var wire 1 > ww_sko $end
$var wire 1 ? ww_clk $end
$var wire 1 @ ww_set $end
$var wire 1 A ww_sno $end
$var wire 1 B ww_a [3] $end
$var wire 1 C ww_a [2] $end
$var wire 1 D ww_a [1] $end
$var wire 1 E ww_a [0] $end
$var wire 1 F ww_b [3] $end
$var wire 1 G ww_b [2] $end
$var wire 1 H ww_b [1] $end
$var wire 1 I ww_b [0] $end
$var wire 1 J ww_rc [7] $end
$var wire 1 K ww_rc [6] $end
$var wire 1 L ww_rc [5] $end
$var wire 1 M ww_rc [4] $end
$var wire 1 N ww_rc [3] $end
$var wire 1 O ww_rc [2] $end
$var wire 1 P ww_rc [1] $end
$var wire 1 Q ww_rc [0] $end
$var wire 1 R \set~inputclkctrl_INCLK_bus\ [3] $end
$var wire 1 S \set~inputclkctrl_INCLK_bus\ [2] $end
$var wire 1 T \set~inputclkctrl_INCLK_bus\ [1] $end
$var wire 1 U \set~inputclkctrl_INCLK_bus\ [0] $end
$var wire 1 V \clk~inputclkctrl_INCLK_bus\ [3] $end
$var wire 1 W \clk~inputclkctrl_INCLK_bus\ [2] $end
$var wire 1 X \clk~inputclkctrl_INCLK_bus\ [1] $end
$var wire 1 Y \clk~inputclkctrl_INCLK_bus\ [0] $end
$var wire 1 Z \sko~output_o\ $end
$var wire 1 [ \rc[7]~output_o\ $end
$var wire 1 \ \rc[6]~output_o\ $end
$var wire 1 ] \rc[5]~output_o\ $end
$var wire 1 ^ \rc[4]~output_o\ $end
$var wire 1 _ \rc[3]~output_o\ $end
$var wire 1 ` \rc[2]~output_o\ $end
$var wire 1 a \rc[1]~output_o\ $end
$var wire 1 b \rc[0]~output_o\ $end
$var wire 1 c \clk~input_o\ $end
$var wire 1 d \clk~inputclkctrl_outclk\ $end
$var wire 1 e \sno~input_o\ $end
$var wire 1 f \inst|Selector0~0_combout\ $end
$var wire 1 g \set~input_o\ $end
$var wire 1 h \set~inputclkctrl_outclk\ $end
$var wire 1 i \inst|state.s0~q\ $end
$var wire 1 j \inst|Next_state.s1~0_combout\ $end
$var wire 1 k \inst1|i[0]~4_combout\ $end
$var wire 1 l \inst|state.s1~q\ $end
$var wire 1 m \inst1|rb[3]~3_combout\ $end
$var wire 1 n \b[3]~input_o\ $end
$var wire 1 o \b[1]~input_o\ $end
$var wire 1 p \b[0]~input_o\ $end
$var wire 1 q \inst1|rb[0]~6_combout\ $end
$var wire 1 r \inst1|rb~5_combout\ $end
$var wire 1 s \inst1|Add1~1_combout\ $end
$var wire 1 t \b[2]~input_o\ $end
$var wire 1 u \inst1|rb~7_combout\ $end
$var wire 1 v \inst1|Add1~0_combout\ $end
$var wire 1 w \inst1|rb[3]~2_combout\ $end
$var wire 1 x \inst1|rb[3]~4_combout\ $end
$var wire 1 y \inst|y[5]~1_combout\ $end
$var wire 1 z \inst|Selector1~4_combout\ $end
$var wire 1 { \inst|state.s2~q\ $end
$var wire 1 | \inst|Selector2~0_combout\ $end
$var wire 1 } \inst|state.s3~q\ $end
$var wire 1 ~ \inst1|i[1]~5_combout\ $end
$var wire 1 !! \inst|sko~0_combout\ $end
$var wire 1 "! \a[3]~input_o\ $end
$var wire 1 #! \a[2]~input_o\ $end
$var wire 1 $! \a[1]~input_o\ $end
$var wire 1 %! \a[0]~input_o\ $end
$var wire 1 &! \inst1|Add0~18_combout\ $end
$var wire 1 '! \inst1|Add0~19_combout\ $end
$var wire 1 (! \inst1|Add0~3_cout\ $end
$var wire 1 )! \inst1|Add0~4_combout\ $end
$var wire 1 *! \inst1|ra[1]~6_combout\ $end
$var wire 1 +! \inst|y[9]~0_combout\ $end
$var wire 1 ,! \inst1|ra[7]~9_combout\ $end
$var wire 1 -! \inst1|Add0~5\ $end
$var wire 1 .! \inst1|Add0~6_combout\ $end
$var wire 1 /! \inst1|ra[2]~5_combout\ $end
$var wire 1 0! \inst1|Add0~7\ $end
$var wire 1 1! \inst1|Add0~8_combout\ $end
$var wire 1 2! \inst1|ra[3]~4_combout\ $end
$var wire 1 3! \inst1|Add0~9\ $end
$var wire 1 4! \inst1|Add0~10_combout\ $end
$var wire 1 5! \inst1|ra[4]~3_combout\ $end
$var wire 1 6! \inst1|Add0~11\ $end
$var wire 1 7! \inst1|Add0~12_combout\ $end
$var wire 1 8! \inst1|ra[5]~2_combout\ $end
$var wire 1 9! \inst1|Add0~13\ $end
$var wire 1 :! \inst1|Add0~14_combout\ $end
$var wire 1 ;! \inst1|ra[6]~1_combout\ $end
$var wire 1 <! \inst1|Add0~15\ $end
$var wire 1 =! \inst1|Add0~16_combout\ $end
$var wire 1 >! \inst1|ra[7]~0_combout\ $end
$var wire 1 ?! \inst1|rc[0]~10_combout\ $end
$var wire 1 @! \inst1|Mux0~0_combout\ $end
$var wire 1 A! \inst1|Mux0~1_combout\ $end
$var wire 1 B! \inst|Selector4~2_combout\ $end
$var wire 1 C! \inst1|rc[7]~26_combout\ $end
$var wire 1 D! \inst1|rc[0]~11\ $end
$var wire 1 E! \inst1|rc[1]~12_combout\ $end
$var wire 1 F! \inst1|rc[1]~13\ $end
$var wire 1 G! \inst1|rc[2]~14_combout\ $end
$var wire 1 H! \inst1|rc[2]~15\ $end
$var wire 1 I! \inst1|rc[3]~16_combout\ $end
$var wire 1 J! \inst1|rc[3]~17\ $end
$var wire 1 K! \inst1|rc[4]~18_combout\ $end
$var wire 1 L! \inst1|rc[4]~19\ $end
$var wire 1 M! \inst1|rc[5]~20_combout\ $end
$var wire 1 N! \inst1|rc[5]~21\ $end
$var wire 1 O! \inst1|rc[6]~22_combout\ $end
$var wire 1 P! \inst1|rc[6]~23\ $end
$var wire 1 Q! \inst1|rc[7]~24_combout\ $end
$var wire 1 R! \inst1|rc\ [7] $end
$var wire 1 S! \inst1|rc\ [6] $end
$var wire 1 T! \inst1|rc\ [5] $end
$var wire 1 U! \inst1|rc\ [4] $end
$var wire 1 V! \inst1|rc\ [3] $end
$var wire 1 W! \inst1|rc\ [2] $end
$var wire 1 X! \inst1|rc\ [1] $end
$var wire 1 Y! \inst1|rc\ [0] $end
$var wire 1 Z! \inst1|ra\ [7] $end
$var wire 1 [! \inst1|ra\ [6] $end
$var wire 1 \! \inst1|ra\ [5] $end
$var wire 1 ]! \inst1|ra\ [4] $end
$var wire 1 ^! \inst1|ra\ [3] $end
$var wire 1 _! \inst1|ra\ [2] $end
$var wire 1 `! \inst1|ra\ [1] $end
$var wire 1 a! \inst1|ra\ [0] $end
$var wire 1 b! \inst1|i\ [1] $end
$var wire 1 c! \inst1|i\ [0] $end
$var wire 1 d! \inst1|rb\ [3] $end
$var wire 1 e! \inst1|rb\ [2] $end
$var wire 1 f! \inst1|rb\ [1] $end
$var wire 1 g! \inst1|rb\ [0] $end
$var wire 1 h! \ALT_INV_set~inputclkctrl_outclk\ $end
$var wire 1 i! \inst|ALT_INV_sko~0_combout\ $end
$upscope $end
$upscope $end
$enddefinitions $end
#0
$dumpvars
0)
12
03
04
05
16
x7
18
19
1:
1;
1<
1=
0>
0?
1@
0A
0Z
0[
0\
0]
0^
0_
0`
0a
0b
0c
0d
0e
0f
1g
1h
0i
0j
0k
0l
0m
0n
0o
0p
0q
0r
0s
0t
0u
0v
0w
0x
0y
0z
0{
0|
0}
0~
1!!
0"!
0#!
0$!
0%!
0&!
0'!
1(!
0)!
0*!
0+!
0,!
0-!
0.!
0/!
10!
01!
02!
03!
04!
05!
16!
07!
08!
09!
0:!
0;!
1<!
0=!
0>!
0?!
1@!
1A!
1B!
0C!
0D!
0E!
1F!
0G!
0H!
0I!
1J!
0K!
0L!
0M!
1N!
0O!
0P!
0Q!
0h!
0i!
0!
0"
0#
0$
0%
0&
0'
0(
0B
0C
0D
0E
0F
0G
0H
0I
0J
0K
0L
0M
0N
0O
0P
0Q
0R!
0S!
0T!
0U!
0V!
0W!
0X!
0Y!
0Z!
0[!
0\!
0]!
0^!
0_!
0`!
0a!
0b!
0c!
0d!
0e!
0f!
0g!
1V
1W
1X
0Y
1R
1S
1T
1U
0*
0+
0,
0-
0.
0/
00
01
$end
#5000
1)
1?
1c
1Y
1d
#10000
0)
0?
0c
0Y
0d
#15000
1)
1?
1c
1Y
1d
#20000
0)
0?
0c
0Y
0d
#25000
1)
1?
1c
1Y
1d
#30000
0)
1#
1$
1'
1(
02
14
0?
1E
1D
1I
1H
0@
1A
1e
0g
1o
1p
1$!
1%!
0c
0U
0Y
1*!
1r
1f
1j
1m
1q
1C!
1,!
1&!
0d
0h
1'!
1h!
#35000
1)
1?
1c
1Y
1d
1i
1l
1g!
1f!
1a!
1`!
1)!
1-!
1E!
0(!
1?!
1s
1v
0@!
1|
0j
0m
0C!
0,!
0A!
0)!
1.!
00!
11!
13!
0B!
1C!
14!
06!
17!
19!
1:!
0<!
1=!
#40000
0)
0#
0$
0'
0(
04
0?
0E
0D
0I
0H
0A
0e
0o
0p
0$!
0%!
0c
0Y
0*!
0r
0d
#45000
1)
1?
1c
1Y
1d
0l
1}
1Y!
1X!
0E!
0F!
0?!
1D!
1k
1z
0'!
1+!
1,!
0|
1B!
0C!
1E!
1G!
1a
1b
1P
1Q
11
10
#50000
0)
0?
0c
0Y
0d
#55000
1)
1?
1c
1Y
1d
1c!
1{
0}
0a!
1_!
0.!
0G!
1H!
0&!
1(!
1?!
0D!
1|
0B!
0z
1'!
0+!
0,!
1C!
0E!
1)!
0'!
1I!
#60000
0)
0?
0c
0Y
0d
#65000
1)
1?
1c
1Y
1d
0{
1}
0X!
1V!
0I!
0J!
1E!
1F!
0k
1z
1~
1+!
1,!
0|
1B!
0C!
1G!
0H!
1K!
1_
0a
1I!
1J!
1N
0P
00
1.
0K!
#70000
0)
0?
0c
0Y
0d
#75000
1)
1?
1c
1Y
1d
0c!
1{
0}
1b!
0`!
1^!
01!
0I!
0J!
0)!
0-!
0E!
1A!
1|
0B!
0z
0+!
0,!
1B!
1.!
1K!
#80000
0)
0?
0c
0Y
0d
#85000
1)
1?
1c
1Y
1d
0{
1}
1k
1z
1+!
1,!
0|
#90000
0)
0?
0c
0Y
0d
#95000
1)
1?
1c
1Y
1d
1c!
1{
0}
0_!
1]!
04!
0K!
1L!
0.!
10!
0G!
1|
0z
0+!
0,!
1@!
11!
1M!
#100000
0)
0?
0c
0Y
0d
#105000
1)
1?
1c
1Y
1d
0{
1}
0!!
0|
1i!
0f
1Z
1>
13
#110000
0)
0?
0c
0Y
0d
#115000
1)
1?
1c
1Y
1d
0i
0}
1!!
0i!
0Z
0>
03
#120000
0)
1#
1$
1'
1(
14
1%
0?
1E
1D
1I
1H
1F
1A
1e
1n
1o
1p
1$!
1%!
0c
0Y
1*!
1r
1f
1j
1m
1C!
1,!
0k
1w
0~
1&!
0d
1'!
1x
#125000
1)
1?
1c
1Y
1d
1i
0c!
1l
1d!
0b!
1a!
1`!
0^!
0]!
0Y!
0V!
14!
1K!
0L!
01!
03!
1J!
1)!
1-!
1E!
0(!
0v
1u
1y
0@!
0j
0C!
0A!
0r
1z
18!
1;!
1>!
0w
0)!
1.!
00!
0K!
04!
16!
0M!
15!
0_
0b
07!
09!
05!
11!
13!
1/!
0*!
0x
0N
0Q
01
0.
14!
06!
12!
0:!
1<!
08!
0=!
0;!
17!
19!
15!
1:!
0<!
18!
0>!
1=!
1;!
1>!
#130000
0)
0#
0$
0'
0(
04
0%
0?
0E
0D
0I
0H
0F
0A
0e
0n
0o
0p
0$!
0%!
0c
0Y
0d
#135000
1)
1?
1c
1Y
1d
0l
0f!
1e!
0d!
1{
0`!
1_!
1^!
1]!
1\!
1[!
1Z!
0=!
1Q!
0:!
1O!
07!
1M!
04!
1K!
01!
1I!
0.!
1G!
1)!
0E!
1r
0s
1v
0m
0u
0y
1|
0B!
1C!
0r
0z
0,!
0/!
02!
05!
08!
0;!
0>!
#140000
0)
0?
0c
0Y
0d
#145000
1)
1?
1c
1Y
1d
0{
1}
1Y!
1W!
1V!
1U!
1T!
1S!
1R!
0Q!
0O!
1P!
0M!
0N!
0K!
1L!
0I!
0J!
0G!
1H!
0?!
1D!
1k
1z
0'!
1+!
1,!
0|
1B!
0C!
1E!
1I!
1K!
1M!
1O!
1Q!
1[
1\
1]
1^
1_
1`
1b
1J
1K
1L
1M
1N
1O
1Q
11
1/
1.
1-
1,
1+
1*
#150000
0)
0?
0c
0Y
0d
#155000
1)
1?
1c
1Y
1d
1c!
1{
0}
0a!
1`!
0_!
1.!
1G!
0H!
0)!
0E!
0F!
0&!
1(!
1?!
0D!
1|
0B!
0z
1'!
0+!
0,!
1@!
1A!
1C!
1E!
1F!
1)!
0'!
0G!
1H!
0I!
1I!
1G!
0H!
1B!
0C!
0I!
#160000
0)
0?
0c
0Y
0d
#165000
1)
1?
1c
1Y
1d
0{
1}
0k
1z
1~
1+!
1,!
0|
#170000
0)
0?
0c
0Y
0d
#175000
1)
1?
1c
1Y
1d
0c!
1{
0}
1b!
0`!
1_!
0^!
11!
1I!
1J!
0.!
0G!
1H!
0)!
0-!
0E!
1|
0z
0+!
0,!
0@!
0A!
1.!
0I!
0J!
0K!
1K!
0B!
1C!
#180000
0)
0?
0c
0Y
0d
#185000
1)
1?
1c
1Y
1d
0{
1}
0W!
0V!
1I!
1J!
1G!
0H!
1k
1z
1+!
1,!
0|
1B!
0C!
0I!
0K!
0_
0`
0N
0O
0/
0.
#190000
0)
0?
0c
0Y
0d
#195000
1)
1?
1c
1Y
1d
1c!
1{
0}
0_!
1^!
0]!
14!
1K!
0L!
01!
1I!
0.!
10!
0G!
1|
0B!
0z
0+!
0,!
1@!
1A!
1C!
11!
0M!
1B!
0C!
#200000
0)
0?
0c
0Y
0d
#205000
1)
1?
1c
1Y
1d
0{
1}
0!!
0|
1i!
0f
1Z
1>
13
#210000
0)
0?
0c
0Y
0d
#215000
1)
1?
1c
1Y
1d
0i
0}
1!!
0i!
0Z
0>
03
#220000
0)
1#
1$
1'
1(
14
1!
0?
1E
1D
1B
1I
1H
1A
1e
1o
1p
1"!
1$!
1%!
0c
0Y
1*!
12!
15!
18!
1;!
1>!
1r
1f
1j
1m
1C!
1,!
0k
0~
1&!
0d
1'!
#225000
1)
1?
1c
1Y
1d
1i
0c!
1l
1f!
0e!
0b!
1a!
1`!
1]!
0Y!
0U!
0T!
0S!
0R!
0Q!
0O!
1M!
1N!
04!
1)!
1-!
1E!
0(!
1s
1|
0@!
0j
0m
0C!
0,!
0A!
0)!
1.!
00!
1O!
0P!
0[
0\
0]
0^
0b
1Q!
01!
0B!
1C!
0J
0K
0L
0M
0Q
01
0-
0,
0+
0*
#230000
0)
0#
0$
0'
0(
04
0!
0?
0E
0D
0B
0I
0H
0A
0e
0o
0p
0"!
0$!
0%!
0c
0Y
0*!
02!
05!
08!
0;!
0>!
0r
0d
#235000
1)
1?
1c
1Y
1d
0l
1}
1Y!
1X!
1V!
1U!
1T!
1S!
1R!
0Q!
0O!
1P!
0M!
0N!
0K!
1L!
0I!
0J!
0E!
0F!
0?!
1D!
1k
1z
0'!
1+!
1,!
0|
1B!
0C!
1E!
1G!
1K!
1M!
1O!
1Q!
1[
1\
1]
1^
1_
1a
1b
1J
1K
1L
1M
1N
1P
1Q
11
10
1.
1-
1,
1+
1*
#240000
0)
0?
0c
0Y
0d
#245000
1)
1?
1c
1Y
1d
1c!
1{
0}
0a!
1_!
0^!
11!
1I!
1J!
0.!
0G!
1H!
0&!
1(!
1?!
0D!
1|
0B!
0z
1'!
0+!
0,!
1C!
0E!
1)!
0'!
0I!
0J!
0K!
1K!
#250000
0)
0?
0c
0Y
0d
#255000
1)
1?
1c
1Y
1d
0{
1}
0X!
0V!
1I!
1J!
1E!
1F!
0k
1z
1~
1+!
1,!
0|
1B!
0C!
1G!
0H!
0K!
0_
0a
0I!
0N
0P
00
0.
#260000
0)
0?
0c
0Y
0d
#265000
1)
1?
1c
1Y
1d
0c!
1{
0}
1b!
0`!
1^!
0]!
14!
1K!
0L!
01!
1I!
0)!
0-!
0E!
1A!
1|
0B!
0z
0+!
0,!
1B!
1.!
0M!
#270000
0)
0?
0c
0Y
0d
#275000
1)
1?
1c
1Y
1d
0{
1}
1k
1z
1+!
1,!
0|
#280000
0)
0?
0c
0Y
0d
#285000
1)
1?
1c
1Y
1d
1c!
1{
0}
0_!
1]!
0\!
17!
1M!
1N!
04!
0K!
1L!
0.!
10!
0G!
1|
0z
0+!
0,!
1@!
11!
0M!
0N!
0O!
1O!
#290000
0)
0?
0c
0Y
0d
#295000
1)
1?
1c
1Y
1d
0{
1}
0!!
0|
1i!
0f
1Z
1>
13
#300000
0)
0?
0c
0Y
0d
#305000
1)
1?
1c
1Y
1d
0i
0}
1!!
0i!
0Z
0>
03
#310000
0)
1#
1$
1'
1(
14
1!
1%
0?
1E
1D
1B
1I
1H
1F
1A
1e
1n
1o
1p
1"!
1$!
1%!
0c
0Y
1*!
12!
15!
18!
1;!
1>!
1r
1f
1j
1m
1C!
1,!
0k
1w
0~
1&!
0d
1'!
1x
#315000
1)
1?
1c
1Y
1d
1i
0c!
1l
1d!
0b!
1a!
1`!
1\!
0Y!
0U!
0T!
0S!
0R!
0Q!
0O!
1K!
0L!
07!
1)!
1-!
1E!
0(!
0v
1u
1y
0@!
0j
0C!
0A!
0r
1z
05!
0;!
0>!
0w
0)!
1.!
00!
08!
1M!
1N!
0[
0\
0]
0^
0b
1O!
0P!
01!
1/!
0*!
0x
0J
0K
0L
0M
0Q
01
0-
0,
0+
0*
02!
1Q!
#320000
0)
0#
0$
0'
0(
04
0!
0%
0?
0E
0D
0B
0I
0H
0F
0A
0e
0n
0o
0p
0"!
0$!
0%!
0c
0Y
0d
#325000
1)
1?
1c
1Y
1d
0l
0f!
1e!
0d!
1{
0`!
1_!
0^!
0]!
0\!
0[!
0Z!
1=!
0Q!
1:!
0O!
17!
0M!
14!
0K!
11!
0I!
0.!
1G!
1)!
0E!
1r
0s
1v
0m
0u
0y
1|
0B!
1C!
0r
0z
0,!
0/!
#330000
0)
0?
0c
0Y
0d
#335000
1)
1?
1c
1Y
1d
0{
1}
1Y!
1W!
0G!
1H!
0?!
1D!
1k
1z
0'!
1+!
1,!
0|
1B!
0C!
1E!
1I!
1`
1b
1O
1Q
11
1/
#340000
0)
0?
0c
0Y
0d
#345000
1)
1?
1c
1Y
1d
1c!
1{
0}
0a!
1`!
0_!
1^!
01!
0I!
0J!
1.!
1G!
0H!
0)!
0E!
0F!
0&!
1(!
1?!
0D!
1|
0B!
0z
1'!
0+!
0,!
1@!
1A!
1C!
1E!
1F!
1)!
0'!
0G!
1H!
1I!
1J!
1K!
0K!
0I!
0J!
1G!
0H!
1B!
0C!
1I!
1J!
1K!
0K!
#350000
0)
0?
0c
0Y
0d
#355000
1)
1?
1c
1Y
1d
0{
1}
0k
1z
1~
1+!
1,!
0|
#360000
0)
0?
0c
0Y
0d
#365000
1)
1?
1c
1Y
1d
0c!
1{
0}
1b!
0`!
1_!
0^!
1]!
04!
1K!
11!
0I!
0.!
0G!
1H!
0)!
0-!
0E!
1|
0z
0+!
0,!
0@!
0A!
1.!
1I!
0B!
1C!
#370000
0)
0?
0c
0Y
0d
#375000
1)
1?
1c
1Y
1d
0{
1}
0W!
1V!
1U!
0K!
1L!
0I!
0J!
1G!
0H!
1k
1z
1+!
1,!
0|
1B!
0C!
1I!
1J!
1K!
1M!
1^
1_
0`
0K!
1M
1N
0O
0/
1.
1-
#380000
0)
0?
0c
0Y
0d
#385000
1)
1?
1c
1Y
1d
1c!
1{
0}
0_!
1^!
0]!
1\!
07!
0M!
0N!
14!
1K!
0L!
01!
0I!
0J!
0.!
10!
0G!
1|
0B!
0z
0+!
0,!
1@!
1A!
1C!
11!
0K!
1L!
1M!
1N!
1O!
0O!
0M!
0N!
1B!
0C!
1O!
#390000
0)
0?
0c
0Y
0d
#395000
1)
1?
1c
1Y
1d
0{
1}
0!!
0|
1i!
0f
1Z
1>
13
#400000
0)
0?
0c
0Y
0d
#405000
1)
1?
1c
1Y
1d
0i
0}
1!!
0i!
0Z
0>
03
#410000
0)
14
1!
1%
0?
1A
1B
1F
1n
1"!
1e
0c
0Y
1f
1j
1m
0q
1C!
12!
15!
18!
1;!
1>!
1,!
0k
1w
0~
0d
1x
#415000
1)
1?
1c
1Y
1d
1i
0c!
1l
0g!
0e!
1d!
0b!
1]!
1[!
1Z!
0Y!
0V!
0U!
1I!
1J!
0?!
0=!
1Q!
0:!
0O!
1P!
04!
1y
0j
0C!
1z
08!
05!
0Q!
0;!
0>!
1K!
0L!
0^
0_
0b
1M!
1N!
0M
0N
0Q
01
0.
0-
1O!
0P!
1Q!
#420000
0)
04
0!
0%
0?
0A
0B
0F
0n
0"!
0e
0c
0Y
0d
#425000
1)
1?
1c
1Y
1d
0l
1{
0]!
0\!
0[!
0Z!
1=!
0Q!
1:!
0O!
17!
0M!
14!
0K!
0m
0y
1|
0w
0z
02!
0,!
#430000
0)
0?
0c
0Y
0d
#435000
1)
1?
1c
1Y
1d
0{
1}
1k
1z
1+!
1,!
0|
#440000
0)
0?
0c
0Y
0d
#445000
1)
1?
1c
1Y
1d
1c!
1{
0}
0^!
1]!
04!
1K!
01!
03!
0I!
1|
0z
0+!
0,!
14!
#450000
0)
0?
0c
0Y
0d
#455000
1)
1?
1c
1Y
1d
0{
1}
0k
1z
1~
1+!
1,!
0|
#460000
0)
0?
0c
0Y
0d
#465000
1)
1?
1c
1Y
1d
0c!
1{
0}
1b!
0]!
1\!
07!
1M!
04!
16!
0K!
0A!
1|
0z
0+!
0,!
0@!
1A!
0B!
1C!
17!
1B!
0C!
#470000
0)
0?
0c
0Y
0d
#475000
1)
1?
1c
1Y
1d
0{
1}
1k
1z
1+!
1,!
0|
#480000
0)
0?
0c
0Y
0d
#485000
1)
1?
1c
1Y
1d
1c!
1{
0}
0\!
1[!
0:!
1O!
07!
09!
0M!
1|
0z
0+!
0,!
1@!
0A!
1:!
0B!
1C!
#490000
0)
0?
0c
0Y
0d
#495000
1)
1?
1c
1Y
1d
0{
1}
1S!
0O!
1P!
0!!
0|
1B!
1i!
0C!
0f
1Q!
1\
1K
1+
1Z
1>
13
#500000
0)
0?
0c
0Y
0d
#505000
1)
1?
1c
1Y
1d
0i
0}
1!!
0i!
0Z
0>
03
#510000
0)
0?
0c
0Y
0d
#515000
1)
1?
1c
1Y
1d
#520000
0)
0?
0c
0Y
0d
#525000
1)
1?
1c
1Y
1d
#530000
0)
0?
0c
0Y
0d
#535000
1)
1?
1c
1Y
1d
#540000
0)
0?
0c
0Y
0d
#545000
1)
1?
1c
1Y
1d
#550000
0)
0?
0c
0Y
0d
#555000
1)
1?
1c
1Y
1d
#560000
0)
0?
0c
0Y
0d
#565000
1)
1?
1c
1Y
1d
#570000
0)
0?
0c
0Y
0d
#575000
1)
1?
1c
1Y
1d
#580000
0)
0?
0c
0Y
0d
#585000
1)
1?
1c
1Y
1d
#590000
0)
0?
0c
0Y
0d
#595000
1)
1?
1c
1Y
1d
#600000
0)
0?
0c
0Y
0d
#605000
1)
1?
1c
1Y
1d
#610000
0)
0?
0c
0Y
0d
#615000
1)
1?
1c
1Y
1d
#620000
0)
0?
0c
0Y
0d
#625000
1)
1?
1c
1Y
1d
#630000
0)
0?
0c
0Y
0d
#635000
1)
1?
1c
1Y
1d
#640000
0)
0?
0c
0Y
0d
#645000
1)
1?
1c
1Y
1d
#650000
0)
0?
0c
0Y
0d
#655000
1)
1?
1c
1Y
1d
#660000
0)
0?
0c
0Y
0d
#665000
1)
1?
1c
1Y
1d
#670000
0)
0?
0c
0Y
0d
#675000
1)
1?
1c
1Y
1d
#680000
0)
0?
0c
0Y
0d
#685000
1)
1?
1c
1Y
1d
#690000
0)
0?
0c
0Y
0d
#695000
1)
1?
1c
1Y
1d
#700000
0)
0?
0c
0Y
0d
#705000
1)
1?
1c
1Y
1d
#710000
0)
0?
0c
0Y
0d
#715000
1)
1?
1c
1Y
1d
#720000
0)
0?
0c
0Y
0d
#725000
1)
1?
1c
1Y
1d
#730000
0)
0?
0c
0Y
0d
#735000
1)
1?
1c
1Y
1d
#740000
0)
0?
0c
0Y
0d
#745000
1)
1?
1c
1Y
1d
#750000
0)
0?
0c
0Y
0d
#755000
1)
1?
1c
1Y
1d
#760000
0)
0?
0c
0Y
0d
#765000
1)
1?
1c
1Y
1d
#770000
0)
0?
0c
0Y
0d
#775000
1)
1?
1c
1Y
1d
#780000
0)
0?
0c
0Y
0d
#785000
1)
1?
1c
1Y
1d
#790000
0)
0?
0c
0Y
0d
#795000
1)
1?
1c
1Y
1d
#800000
0)
0?
0c
0Y
0d
#805000
1)
1?
1c
1Y
1d
#810000
0)
0?
0c
0Y
0d
#815000
1)
1?
1c
1Y
1d
#820000
0)
0?
0c
0Y
0d
#825000
1)
1?
1c
1Y
1d
#830000
0)
0?
0c
0Y
0d
#835000
1)
1?
1c
1Y
1d
#840000
0)
0?
0c
0Y
0d
#845000
1)
1?
1c
1Y
1d
#850000
0)
0?
0c
0Y
0d
#855000
1)
1?
1c
1Y
1d
#860000
0)
0?
0c
0Y
0d
#865000
1)
1?
1c
1Y
1d
#870000
0)
0?
0c
0Y
0d
#875000
1)
1?
1c
1Y
1d
#880000
0)
0?
0c
0Y
0d
#885000
1)
1?
1c
1Y
1d
#890000
0)
0?
0c
0Y
0d
#895000
1)
1?
1c
1Y
1d
#900000
0)
0?
0c
0Y
0d
#905000
1)
1?
1c
1Y
1d
#910000
0)
0?
0c
0Y
0d
#915000
1)
1?
1c
1Y
1d
#920000
0)
0?
0c
0Y
0d
#925000
1)
1?
1c
1Y
1d
#930000
0)
0?
0c
0Y
0d
#935000
1)
1?
1c
1Y
1d
#940000
0)
0?
0c
0Y
0d
#945000
1)
1?
1c
1Y
1d
#950000
0)
0?
0c
0Y
0d
#955000
1)
1?
1c
1Y
1d
#960000
0)
0?
0c
0Y
0d
#965000
1)
1?
1c
1Y
1d
#970000
0)
0?
0c
0Y
0d
#975000
1)
1?
1c
1Y
1d
#980000
0)
0?
0c
0Y
0d
#985000
1)
1?
1c
1Y
1d
#990000
0)
0?
0c
0Y
0d
#995000
1)
1?
1c
1Y
1d
