university/automata-theory/course-work/operating-device-quartus/simulation/qsim/qartus.msim.vcd
$comment
	File created using the following command:
		vcd file qartus.msim.vcd -direction
$end
$date
	Wed May 06 15:02:22 2020
$end
$version
	ModelSim Version 10.5b
$end
$timescale
	1ps
$end

$scope module multiply_scheme_vhd_vec_tst $end
$var wire 1 ! a [3] $end
$var wire 1 " a [2] $end
$var wire 1 # a [1] $end
$var wire 1 $ a [0] $end
$var wire 1 % b [3] $end
$var wire 1 & b [2] $end
$var wire 1 ' b [1] $end
$var wire 1 ( b [0] $end
$var wire 1 ) c [7] $end
$var wire 1 * c [6] $end
$var wire 1 + c [5] $end
$var wire 1 , c [4] $end
$var wire 1 - c [3] $end
$var wire 1 . c [2] $end
$var wire 1 / c [1] $end
$var wire 1 0 c [0] $end

$scope module i1 $end
$var wire 1 1 gnd $end
$var wire 1 2 vcc $end
$var wire 1 3 unknown $end
$var wire 1 4 devoe $end
$var wire 1 5 devclrn $end
$var wire 1 6 devpor $end
$var wire 1 7 ww_devoe $end
$var wire 1 8 ww_devclrn $end
$var wire 1 9 ww_devpor $end
$var wire 1 : ww_c [7] $end
$var wire 1 ; ww_c [6] $end
$var wire 1 < ww_c [5] $end
$var wire 1 = ww_c [4] $end
$var wire 1 > ww_c [3] $end
$var wire 1 ? ww_c [2] $end
$var wire 1 @ ww_c [1] $end
$var wire 1 A ww_c [0] $end
$var wire 1 B ww_a [3] $end
$var wire 1 C ww_a [2] $end
$var wire 1 D ww_a [1] $end
$var wire 1 E ww_a [0] $end
$var wire 1 F ww_b [3] $end
$var wire 1 G ww_b [2] $end
$var wire 1 H ww_b [1] $end
$var wire 1 I ww_b [0] $end
$var wire 1 J \c[7]~output_o\ $end
$var wire 1 K \c[6]~output_o\ $end
$var wire 1 L \c[5]~output_o\ $end
$var wire 1 M \c[4]~output_o\ $end
$var wire 1 N \c[3]~output_o\ $end
$var wire 1 O \c[2]~output_o\ $end
$var wire 1 P \c[1]~output_o\ $end
$var wire 1 Q \c[0]~output_o\ $end
$var wire 1 R \b[3]~input_o\ $end
$var wire 1 S \b[1]~input_o\ $end
$var wire 1 T \b[0]~input_o\ $end
$var wire 1 U \inst|rb[1]~0_combout\ $end
$var wire 1 V \a[3]~input_o\ $end
$var wire 1 W \a[2]~input_o\ $end
$var wire 1 X \a[0]~input_o\ $end
$var wire 1 Y \a[1]~input_o\ $end
$var wire 1 Z \inst|Add0~0_combout\ $end
$var wire 1 [ \inst|rc~0_combout\ $end
$var wire 1 \ \inst|ra[7]~0_combout\ $end
$var wire 1 ] \inst|ra[6]~1_combout\ $end
$var wire 1 ^ \inst|ra[5]~2_combout\ $end
$var wire 1 _ \inst|rc~1_combout\ $end
$var wire 1 ` \inst|rc~2_combout\ $end
$var wire 1 a \inst|Add2~3\ $end
$var wire 1 b \inst|Add2~5\ $end
$var wire 1 c \inst|Add2~7\ $end
$var wire 1 d \inst|Add2~9\ $end
$var wire 1 e \inst|Add2~10_combout\ $end
$var wire 1 f \inst|Add2~12_combout\ $end
$var wire 1 g \b[2]~input_o\ $end
$var wire 1 h \inst|rb[2]~1_combout\ $end
$var wire 1 i \inst|Add2~8_combout\ $end
$var wire 1 j \inst|Add2~13_combout\ $end
$var wire 1 k \inst|Add2~6_combout\ $end
$var wire 1 l \inst|Add2~14_combout\ $end
$var wire 1 m \inst|Add2~4_combout\ $end
$var wire 1 n \inst|Add2~16_combout\ $end
$var wire 1 o \inst|Add3~1\ $end
$var wire 1 p \inst|Add3~3\ $end
$var wire 1 q \inst|Add3~5\ $end
$var wire 1 r \inst|Add3~7\ $end
$var wire 1 s \inst|Add3~8_combout\ $end
$var wire 1 t \inst|Add3~10_combout\ $end
$var wire 1 u \inst|Add3~6_combout\ $end
$var wire 1 v \inst|Add3~11_combout\ $end
$var wire 1 w \inst|Add3~4_combout\ $end
$var wire 1 x \inst|Add3~12_combout\ $end
$var wire 1 y \inst|Add3~2_combout\ $end
$var wire 1 z \inst|Add3~13_combout\ $end
$var wire 1 { \inst|Add4~1\ $end
$var wire 1 | \inst|Add4~3\ $end
$var wire 1 } \inst|Add4~5\ $end
$var wire 1 ~ \inst|Add4~7\ $end
$var wire 1 !! \inst|Add4~8_combout\ $end
$var wire 1 "! \inst|rb[3]~2_combout\ $end
$var wire 1 #! \inst|Add4~10_combout\ $end
$var wire 1 $! \inst|Add4~6_combout\ $end
$var wire 1 %! \inst|Add4~11_combout\ $end
$var wire 1 &! \inst|Add4~4_combout\ $end
$var wire 1 '! \inst|Add4~12_combout\ $end
$var wire 1 (! \inst|Add4~2_combout\ $end
$var wire 1 )! \inst|Add4~13_combout\ $end
$var wire 1 *! \inst|Add4~0_combout\ $end
$var wire 1 +! \inst|Add4~14_combout\ $end
$var wire 1 ,! \inst|Add3~0_combout\ $end
$var wire 1 -! \inst|Add3~14_combout\ $end
$var wire 1 .! \inst|Add2~2_combout\ $end
$var wire 1 /! \inst|Add2~15_combout\ $end
$var wire 1 0! \inst|c[0]~0_combout\ $end
$upscope $end
$upscope $end
$enddefinitions $end
#0
$dumpvars
01
12
x3
14
15
16
17
18
19
1J
1K
1L
1M
1N
0O
1P
0Q
1R
1S
0T
1U
0V
0W
1X
1Y
1Z
0[
1\
1]
0^
0_
0`
0a
1b
0c
1d
1e
1f
1g
0h
1i
1j
1k
1l
0m
0n
0o
1p
1q
0r
1s
1t
1u
1v
0w
1x
1y
1z
1{
0|
1}
0~
1!!
0"!
1#!
1$!
1%!
1&!
1'!
0(!
1)!
0*!
1+!
1,!
0-!
1.!
1/!
00!
0!
0"
1#
1$
1%
1&
1'
0(
1:
1;
1<
1=
1>
0?
1@
0A
0B
0C
1D
1E
1F
1G
1H
0I
1)
1*
1+
1,
1-
0.
1/
00
$end
#10000
1"
0$
0%
0&
0'
0E
1C
0H
0G
0F
0R
0g
0S
1W
0X
0.!
0,!
1*!
0{
0U
0\
1^
1m
0y
0p
0i
0e
0u
0s
0$!
0!!
0f
0j
0l
0/!
1y
1p
0x
1u
1r
1s
0t
0v
0z
0*!
0+!
0&!
0'!
1$!
1~
1!!
0#!
0%!
0s
1(!
1|
0)!
1w
0q
0P
0u
1&!
0}
0!!
0@
0/
0$!
0M
0K
0J
0L
0N
0=
0;
0:
0<
0>
0-
0,
0+
0*
0)
#20000
0"
1$
1'
0#
1(
1E
0D
0C
1I
1H
1S
1T
0W
0Y
1X
1.!
1,!
1*!
0^
0]
1_
1n
10!
1U
1l
0,!
1o
0_
0k
0w
0&!
0y
0(!
1-!
1/!
0l
0m
0p
1z
1Q
0*!
1{
1+!
1w
0n
1y
1p
0z
1A
1P
1O
10
1*!
0{
0w
1,!
0o
0-!
1(!
0+!
1@
1?
1/
1.
0y
0(!
1N
1>
0N
0O
1-
0>
0?
0.
0-
#30000
0$
0'
0(
1%
0E
0I
0H
1F
1R
0S
0T
0X
0Z
0.!
0,!
0*!
00!
0U
1\
1"!
1i
1e
1u
1s
1$!
1!!
0/!
0\
0i
0e
0u
0s
0$!
0!!
1#!
1%!
0Q
0#!
0%!
0A
0P
00
0@
1K
1J
0/
1;
1:
0K
0J
1*
1)
0;
0:
0*
0)
#40000
1$
1'
1(
0%
1"
1#
1E
1D
1C
1I
1H
0F
0R
1S
1T
1W
1Y
1X
1.!
1,!
1*!
1Z
10!
1U
1]
1^
1`
0"!
0.!
1a
1m
1y
1(!
1_
1k
1w
1&!
1/!
1l
1n
0b
0/!
1Q
0k
1c
0,!
1o
1-!
0y
0p
1z
1A
1P
10
0*!
1{
1+!
0w
1q
1y
1i
0l
1@
0P
1/
0y
1j
0z
1u
0(!
0|
0@
1O
0/
0&!
1}
1*!
0{
0+!
1w
1x
1?
1N
1.
1)!
1$!
1>
1-
0N
0>
1M
0-
1=
1,
#50000
0$
0(
0"
0E
0C
0I
0T
0W
0X
1.!
0a
1,!
0o
0*!
0]
0_
0`
00!
0.!
1k
0c
0w
1&!
0}
1y
1p
1b
1/!
0k
1w
0q
0$!
0i
1l
0/!
0Q
0y
0p
1z
0j
0u
0l
0A
1P
00
1y
1p
0x
1*!
1+!
0z
1@
0P
1/
0*!
0+!
1(!
1|
0)!
0w
0@
0/
0&!
1N
1>
0M
0N
1-
0=
0>
0-
0,
#60000
0'
1%
1!
0H
1F
1B
1V
1R
0S
0U
1]
1"!
0Z
1\
1i
1e
1u
1s
1$!
1!!
0\
1)!
1k
1w
1&!
0n
0,!
0-!
1'!
0i
0e
0u
0s
0$!
0!!
1#!
1%!
0#!
0%!
1M
1=
1K
1J
1L
0O
1,
1;
1:
1<
0?
0K
0J
0.
1+
1*
1)
0;
0:
0*
0)
#70000
1$
1"
0#
1E
0D
1C
1W
0Y
1X
1.!
1,!
1*!
0]
0k
0w
0&!
1+!
0'!
1N
1>
0L
1-
0<
0+
#80000
1#
0%
0!
1&
1D
0B
1G
0F
0R
1g
0V
1Y
1Z
1]
1h
0"!
0)!
0+!
1z
1-!
1k
1w
1&!
1x
0*!
1{
1+!
0|
1)!
1O
0N
0M
0&!
1}
1?
0>
0=
1N
1.
0-
0,
1$!
1>
1M
1-
1=
1,
#90000
0#
1%
1!
0&
0"
1'
1(
0D
0C
1B
1I
1H
0G
1F
1R
0g
1S
1T
1V
0W
0Y
0Z
1_
1n
10!
1[
1\
1`
0.!
1a
1/!
1u
1s
0$!
0~
1!!
0k
1c
0d
1f
1j
1l
0,!
1o
0m
0b
0[
0\
1$!
1~
0f
0j
0-!
0p
0w
1q
1e
1i
1d
0l
1t
1v
1m
1Q
1&!
1'!
0$!
0~
1#!
0y
0e
0x
0s
1%!
1A
1P
10
0t
0(!
0)!
0z
0!!
1@
0O
1/
1*!
0{
0+!
1$!
1~
1!!
0#!
0%!
0?
1K
1J
1L
0.
0!!
1(!
1|
1;
1:
1<
0M
1+
1*
1)
0&!
0=
0K
0J
0N
0,
0;
0:
0>
0-
0*
0)
#100000
0%
1"
0'
0H
0F
1C
1W
0R
0S
1[
1\
0^
0`
0h
0v
1-!
1.!
0a
0/!
0m
1y
1p
0(!
0u
0r
1s
0$!
0~
1!!
1k
0d
1f
1j
1l
0y
0p
1x
1u
1e
0!!
1t
1v
1z
1m
1b
1&!
0}
0'!
0k
0*!
1{
1+!
0&!
1}
1'!
1!!
1%!
1#!
1(!
1)!
1w
0P
1O
1$!
0(!
0|
0@
1?
0L
0/
1.
1&!
0<
1M
1J
1K
1L
1N
0+
1=
1:
1;
1<
1>
1-
1,
1+
1*
1)
#110000
0"
1'
1#
0!
1D
0C
0B
1H
1S
0V
0W
1Y
1^
1`
0]
1Z
0[
0\
1U
0u
0s
0$!
0!!
1d
0l
0_
0c
0w
0&!
0.!
1a
1/!
0m
0b
1y
1(!
1k
0n
0/!
0i
0y
0z
0e
0f
1*!
0{
0+!
0j
1,!
0o
0-!
1l
1P
1z
1w
0q
0x
0(!
1u
1r
1s
0t
0v
1@
0P
1/
1&!
0}
0'!
1$!
1~
1!!
0#!
0%!
0s
1(!
1|
0)!
0u
0*!
1{
1+!
0@
0O
0N
0/
0(!
0|
0&!
0!!
0$!
0?
0>
0.
0-
1&!
1N
0M
0K
0J
0L
1>
0=
0;
0:
0<
1-
0,
0+
0*
0)
#120000
0'
1!
1&
0(
0$
0I
0H
1G
0E
1B
1V
0X
1g
0S
0T
0U
1h
0`
1.!
0a
0,!
1*!
0{
00!
0Z
1\
1i
1e
1u
1s
1$!
1!!
1(!
1|
1m
1b
0.!
1x
0z
0l
1y
1p
0*!
0+!
0(!
0|
0k
0&!
1)!
1t
1v
0Q
0$!
0~
0!!
1#!
1%!
1'!
1}
0w
1z
0A
00
1*!
1+!
0x
1$!
1!!
1M
0N
1(!
1|
0)!
1=
0>
1L
1K
1J
0-
1,
1&!
0}
1<
1;
1:
1N
1+
1*
1)
0$!
1>
0M
1-
0=
0,
#130000
1'
0&
1"
1%
1H
0G
1F
1C
1W
1R
0g
1S
1U
0\
0i
0e
0u
0s
1$!
1~
0!!
1f
1j
1n
1,!
1w
1u
1s
1!!
0t
0v
0f
0j
0w
0u
0s
0&!
0'!
0$!
0!!
0%!
0#!
1t
1v
1x
1-!
0(!
0|
1)!
1&!
1$!
1!!
1#!
1%!
1'!
0t
0v
0x
1(!
1|
0$!
0!!
0#!
0%!
0'!
0)!
1O
0J
0K
0L
0&!
1?
0:
0;
0<
1L
1K
1J
1M
1.
0+
0*
0)
1<
1;
1:
1=
0M
0L
0K
0J
1,
1+
1*
1)
0=
0<
0;
0:
0,
0+
0*
0)
#140000
1&
0%
1(
1I
1G
0F
0R
1g
1T
1[
1\
1]
1`
1.!
1_
1w
1&!
1u
1s
1$!
1!!
1c
0d
1e
1i
1t
1v
1x
0m
0b
1/!
1k
0n
0(!
0|
1)!
0&!
1}
1'!
0$!
0~
0!!
1#!
1%!
1j
1f
0u
0r
0s
0w
1q
1!!
1$!
1&!
0,!
1l
1P
0y
0p
0-!
1u
0x
0t
1s
0v
1@
1K
1J
1L
1M
1/
0&!
0'!
1t
0$!
0!!
0#!
0%!
1(!
1|
0)!
1v
1w
0z
1;
1:
1<
1=
1,
1+
1*
1)
0*!
0+!
1x
1$!
1!!
1#!
1%!
1'!
0O
0(!
0|
1)!
0?
0M
0K
0J
0L
0.
1&!
0=
0;
0:
0<
1L
1K
1J
0N
0,
0+
0*
0)
1<
1;
1:
0>
1M
0-
1+
1*
1)
1=
1,
#150000
1%
0'
0!
0H
1F
0B
0V
1R
0S
0]
0h
1Z
0[
0\
0u
0s
0$!
0!!
1d
1[
1\
1z
0_
0c
0w
0&!
1m
1b
1*!
1+!
1u
1s
1$!
1!!
0k
1c
0i
0d
0e
0f
1e
0j
1i
0l
1k
0c
1n
1,!
1-!
0i
1l
1y
1p
0z
1j
1w
0q
0x
1f
0u
0s
0t
0v
1N
1&!
0}
0'!
0$!
0!!
0#!
0%!
1s
1t
1v
1(!
1|
0)!
1x
0*!
0+!
0y
0p
1z
0j
1>
1-
0x
1*!
1+!
0(!
0|
1)!
1!!
1#!
1%!
1'!
1O
0&!
1}
1(!
1|
0)!
1?
0N
0M
0K
0J
0L
1.
1&!
0}
1$!
0>
0=
0;
0:
0<
1L
1K
1J
1M
1N
0-
0,
0+
0*
0)
0$!
1<
1;
1:
1=
1>
0M
1-
1,
1+
1*
1)
0=
0,
#160000
1'
0&
0(
0"
0I
1H
0G
0C
0W
0g
1S
0T
0[
0`
1h
1]
0w
1q
0&!
1}
0v
1x
0z
0.!
1i
1d
0e
0f
1e
1j
0/!
0*!
0+!
0(!
0|
1)!
1&!
0}
1$!
0'!
1u
0x
1(!
1|
0$!
0&!
1}
0)!
1w
1f
0u
0s
1v
1u
1s
0t
0v
1x
1$!
1'!
0L
1M
0N
0P
0(!
0|
1)!
1&!
0}
0'!
0$!
0!!
0#!
0%!
1t
1v
0<
1=
0>
0@
0M
0/
0-
1,
0+
1!!
1#!
1%!
1'!
1}
0=
1L
0,
1$!
1<
0K
0J
0L
1M
1+
0;
0:
0<
1=
1L
1K
1J
1,
0+
0*
0)
1<
1;
1:
1+
1*
1)
#170000
0'
1&
1(
1"
0%
1!
1I
0H
1G
0F
1C
1B
1V
1W
0R
1g
0S
1T
1_
0U
1`
0Z
1[
0k
1c
0i
0d
0e
1.!
1/!
0m
0b
1k
1e
1i
1P
1@
1/
#180000
1'
0&
0(
0"
1%
1$
0#
0I
1H
0G
1F
1E
0D
0C
0W
0Y
1X
1R
0g
1S
0T
0_
0n
1U
0[
0\
0.!
1a
0,!
1o
1*!
0`
1.!
0a
1y
0u
0s
0$!
0!!
0k
1d
0/!
1,!
0o
0-!
0y
1-!
0e
0l
0t
0v
1z
1m
1b
1/!
1k
0c
1n
0*!
1{
1+!
0&!
0'!
1$!
1~
1!!
0#!
0%!
1y
1p
0f
0z
0O
0P
1*!
0{
1u
1r
1s
0w
1z
0!!
1(!
0+!
0,!
1o
0i
1l
0?
0@
1P
1O
0/
0.
0j
0p
0-!
0*!
1{
0x
1t
0s
1v
0(!
1+!
1@
1?
0K
0J
0L
1N
1/
1.
1&!
1'!
0t
0$!
0~
1!!
1#!
1%!
0)!
0;
0:
0<
1>
0N
1-
0+
0*
0)
1$!
1~
0#!
0%!
0>
1N
0O
0-
0!!
1>
0?
0M
1K
1J
1L
0.
1-
0=
1;
1:
1<
0K
0J
0,
1+
1*
1)
0;
0:
0*
0)
#190000
1&
0$
1#
1G
0E
1D
1Y
0X
1g
0h
0.!
1,!
0o
1*!
0{
1(!
1|
0y
0/!
0v
1-!
0'!
0}
0$!
1O
0P
1?
0@
0L
0/
1.
0<
0+
#200000
0'
1(
0!
1I
0H
0B
0V
0S
1T
1_
1`
1Z
1[
1\
1.!
0m
0b
0n
1/!
0u
0r
1s
1$!
1!!
1c
0d
1e
1i
0s
0,!
0-!
1j
1f
1P
1u
1s
1t
1v
1w
1x
1@
0O
1/
0(!
0|
1)!
0&!
1}
1'!
0$!
0~
0!!
1#!
1%!
0?
0.
1!!
1$!
1&!
1K
1J
1L
1M
1;
1:
1<
1=
1,
1+
1*
1)
#210000
0(
1!
0&
1$
0#
0%
0I
0G
0F
1E
0D
1B
1V
0Y
1X
0R
0g
0T
0_
0U
0.!
1a
1,!
0*!
1{
0]
0^
0`
0Z
0[
0i
0e
1.!
0a
1y
1p
0c
0w
0&!
0f
0j
0l
0/!
1m
1b
0k
0y
0u
0s
0t
0v
0x
1i
1d
0q
0z
0m
1*!
0{
0+!
1u
1r
1e
1(!
1|
0)!
1&!
0}
0'!
0$!
0!!
0#!
0%!
0P
1$!
1~
0&!
1s
0(!
0@
0/
1!!
0K
0J
0L
0M
0N
0;
0:
0<
0=
0>
0-
0,
0+
0*
0)
#220000
0!
1&
0$
1'
1"
0E
1C
0B
1H
1G
1g
1S
0V
1W
0X
0.!
0,!
0*!
1]
1Z
0\
1U
1h
1t
1v
1f
1j
0i
0e
0u
0s
0$!
0!!
1k
1w
1&!
1l
0f
0j
0w
1q
1x
1u
1s
0t
0v
0&!
1}
1'!
1$!
1!!
1#!
1%!
1&!
0}
0'!
0!!
0#!
0%!
1(!
1)!
1w
0q
0x
0s
1t
1v
1y
1z
0&!
1}
1!!
1%!
0t
0(!
0u
1x
0)!
1#!
1'!
1K
1J
1L
1(!
0v
1)!
0!!
0%!
0#!
1*!
1+!
1;
1:
1<
1M
0K
0J
0L
1+
1*
1)
1&!
0}
0'!
1=
0;
0:
0<
1L
1J
0M
1K
1,
0+
0*
0)
0$!
1<
1:
0=
1;
1N
0J
0K
1M
0,
1+
1*
1)
1>
0:
0;
1=
0L
1-
1,
0*
0)
0<
0+
#230000
1!
0&
0"
1#
1D
0C
1B
0G
0g
1V
0W
1Y
1^
0]
0Z
1\
0h
0x
1i
1e
1u
1s
1$!
1!!
0k
0w
0&!
1m
0y
0p
0(!
0|
1&!
1w
1n
0l
1f
1j
1(!
1|
0)!
0&!
0w
1q
0u
0r
0s
1t
1v
1y
1p
0z
1,!
1-!
1x
0(!
0|
1)!
0*!
0+!
1w
0q
1&!
0$!
0~
0!!
1#!
1%!
1s
1u
1'!
0M
1!!
0u
0&!
1}
0=
1O
0,
1$!
1?
1L
1K
1J
0N
1M
1.
1<
1;
1:
0>
1=
0-
1,
1+
1*
1)
#240000
0!
1&
1$
1(
1%
1E
0B
1I
1G
1F
1R
1g
1T
0V
1X
1.!
0,!
1o
1*!
1Z
10!
0U
0\
1]
0^
0m
1(!
1|
1_
1k
0w
1q
1&!
0i
0e
1u
1r
0s
0$!
0!!
0f
0j
1[
1\
1$!
1!!
0k
1c
0d
1w
0q
0t
1s
0v
1f
1j
0u
0r
0x
1l
1m
0&!
1Q
0y
0p
1z
0(!
0)!
0w
1q
1v
1&!
0}
0'!
1t
0$!
0!!
1x
1e
1i
0#!
0%!
1A
10
1(!
1!!
1#!
1%!
0&!
1}
1'!
1u
1)!
0*!
1{
1+!
1w
0(!
0|
1$!
0K
0J
0L
0M
1&!
0;
0:
0<
0=
1N
1M
1L
1K
1J
0,
0+
0*
0)
1>
1=
1<
1;
1:
1-
1,
1+
1*
1)
#250000
0&
0G
0g
1h
0z
0-!
1*!
0{
0+!
1(!
1|
0O
0&!
0?
0N
0.
0>
0-
#260000
1!
0$
0(
0%
1"
0#
0E
0D
1C
1B
0I
0F
0R
0T
1V
1W
0Y
0X
0.!
1,!
0o
0*!
0Z
0_
0n
00!
1U
0[
0h
1z
1k
0c
0i
0e
0l
1n
0,!
0m
1y
1p
0w
0n
1,!
1-!
0y
0z
0f
0j
1i
1d
1l
1*!
1+!
0Q
1y
1e
1j
1w
0q
0u
0s
0t
0v
0*!
0+!
1z
0,!
0-!
0x
0A
00
0(!
0)!
1*!
1+!
1&!
0}
0'!
0$!
0!!
0#!
0%!
1u
1r
0w
1q
1x
1f
1N
1O
1t
1(!
0r
1v
1$!
1~
1)!
1>
1?
0O
0N
1.
1-
0&!
1}
1'!
1s
0$!
0~
1#!
1%!
0?
0>
0K
0J
0L
1N
0M
0.
0-
1!!
1$!
0;
0:
0<
1>
0=
1M
1-
0,
0+
0*
0)
1=
1K
1J
1L
1,
1;
1:
1<
1+
1*
1)
#270000
1#
1&
0'
1D
0H
1G
1g
0S
1Y
1^
0U
1h
0x
0f
0j
0l
1m
0y
0p
0(!
0|
1&!
1y
1p
0z
0u
0s
1(!
1|
0)!
0&!
0t
0v
0*!
0+!
1w
0q
1z
1*!
1u
1r
1x
1+!
1&!
0}
0$!
0!!
0#!
0%!
0'!
0M
1$!
1~
0(!
0|
1)!
1s
1v
0=
0N
0,
1'!
1t
1}
1!!
0>
0L
0K
0J
1N
0-
0~
0!!
1#!
1%!
0<
0;
0:
1>
1M
1-
0+
0*
0)
1!!
1=
1L
1,
1<
1K
1J
1+
1;
1:
1*
1)
#280000
0#
0&
1'
0!
1%
0"
0D
0C
0B
1H
0G
1F
1R
0g
1S
0V
0W
0Y
1U
0\
0]
0^
0m
0y
1(!
1|
0k
0w
0&!
0i
0e
0u
0s
0$!
0!!
1f
1j
1l
1n
1,!
1y
1w
1u
1s
0t
0v
0f
0j
0x
0l
1&!
0}
0z
0n
0,!
0*!
0+!
0y
0(!
0)!
0w
0u
0s
0&!
0'!
1~
1!!
0#!
0%!
1t
1v
1x
1z
1-!
1*!
1(!
1&!
1$!
1%!
1#!
1'!
0t
0v
0x
1)!
0z
1+!
0-!
0*!
0(!
0&!
0$!
0!!
0#!
0%!
0'!
0)!
0+!
1O
0K
0J
0L
0M
0N
1?
0;
0:
0<
0=
0>
0O
1N
1M
1L
1J
1K
1.
0-
0,
0+
0*
0)
0?
1>
1=
1<
1:
1;
0N
0M
0L
0K
0J
0.
1-
1,
1+
1*
1)
0>
0=
0<
0;
0:
0-
0,
0+
0*
0)
#290000
1#
1"
1D
1C
1W
1Y
1^
1Z
1\
1m
1y
1(!
1z
1n
1i
1e
1u
1s
1$!
1!!
1t
1v
1f
1j
1,!
1*!
1+!
1-!
1w
0u
0r
0s
1&!
1'!
0$!
0~
0!!
1#!
1%!
1!!
0t
1s
0v
1x
1N
0(!
0|
1)!
0&!
0'!
1t
1$!
1~
0!!
0%!
0#!
1>
1K
1J
1L
1O
1-
0$!
0~
1#!
1%!
1&!
1;
1:
1<
1?
1.
1+
1*
1)
1!!
0J
0K
0L
1M
0:
0;
0<
1=
1K
1J
1,
0+
0*
0)
1;
1:
1*
1)
#300000
0#
1!
1$
1(
1E
0D
1B
1I
1T
1V
0Y
1X
1.!
0,!
1o
0*!
1{
0Z
0U
1[
1`
10!
0.!
1a
1k
0i
0d
0e
1l
0n
0[
0\
1(!
0y
0p
0-!
1/!
0w
1q
1u
1r
0s
1$!
1~
0!!
0k
1d
1,!
0o
1y
0z
0f
1e
0j
0l
0m
0b
1Q
1k
1w
0q
1*!
0{
0+!
1z
1p
1-!
0e
1!!
0t
1v
0x
1A
1P
0O
10
0)!
0&!
1}
1'!
0$!
0!!
0%!
0#!
0w
0*!
1{
1|
1+!
0u
1x
1@
0?
1/
0.
1)!
0v
1&!
0}
0|
0x
1$!
1O
0N
0(!
0)!
0$!
0'!
1?
0>
1N
0J
0K
1L
0M
1.
0-
1>
0:
0;
1<
0=
1M
1-
0,
1+
0*
0)
1=
0L
0M
1,
0<
0=
0,
0+
#310000
1#
0$
0'
0%
0E
1D
0H
0F
0R
0S
1Y
0X
1.!
0a
0,!
1*!
0{
00!
1[
1\
1]
0h
0z
1_
1n
1w
0&!
1}
1u
1s
1$!
1!!
1c
0d
1f
1j
1l
1(!
1|
0-!
1m
1b
0k
1&!
0}
0y
0p
1z
0w
1q
0u
0r
0s
1e
1i
1t
1v
0$!
0~
1x
1,!
1-!
0m
0b
0*!
0+!
0Q
1k
0(!
0|
1)!
0&!
1}
1#!
1%!
1s
1u
1*!
1+!
1w
1'!
0A
0O
00
1$!
1&!
0?
0N
1O
0.
0>
1?
1L
1N
1K
1J
1M
1.
0-
1<
1>
1;
1:
1=
1-
1,
1+
1*
1)
#320000
0#
1$
0!
0"
1&
1E
0D
0C
0B
1G
1g
0V
0W
0Y
1X
0.!
1a
0,!
1o
0*!
1{
10!
0^
0`
0]
1Z
0[
0\
1h
0z
0u
0s
0$!
0!!
1d
0f
0j
0l
0_
0c
0n
0w
0&!
1.!
0a
0-!
0/!
1,!
0o
0i
1b
1y
1p
1w
0q
0x
1u
1r
1s
0e
0t
0v
1*!
0{
0+!
1Q
1&!
0}
0'!
1$!
1~
1!!
0#!
0%!
1t
0s
1v
1|
0)!
0u
1x
0w
1z
0k
0y
1-!
1A
0P
0O
10
0z
0*!
1{
1+!
0x
1(!
1)!
0v
0t
1#!
1%!
1'!
0@
0?
0N
0/
0.
0$!
0!!
0#!
0%!
0&!
0'!
0)!
1*!
0{
0+!
0>
1O
0M
0K
0J
0L
0-
0(!
1?
0=
0;
0:
0<
1L
1K
1J
1M
1N
1.
0,
0+
0*
0)
1<
1;
1:
1=
1>
0N
0M
0L
0K
0J
1-
1,
1+
1*
1)
0>
0=
0<
0;
0:
0-
0,
0+
0*
0)
#330000
0$
1"
0&
0(
0E
1C
0I
0G
0g
0T
1W
0X
0.!
0,!
0*!
1]
00!
0h
1k
1w
1&!
0-!
0Q
0A
0O
00
0?
0.
#340000
1$
0"
1#
1!
1E
1D
0C
1B
1V
0W
1Y
1X
1.!
1,!
1*!
1^
0]
0Z
1\
1i
1e
1u
1s
1$!
1!!
0k
0w
0&!
1m
1y
1(!
#350000
0#
0!
1&
1(
1%
0D
0B
1I
1G
1F
1R
1g
1T
0V
0Y
1Z
10!
1U
0\
1]
1`
0.!
1a
1_
1k
1w
1&!
0i
0e
0u
0s
0$!
0!!
1f
1j
1n
1/!
1[
1\
1$!
1!!
0k
1c
0d
0,!
1o
1-!
0w
1q
0r
1t
1v
0f
0j
1x
1l
0b
0/!
1Q
1k
1z
0(!
0|
1)!
1w
0q
0t
0v
0&!
1}
1'!
0$!
0~
0!!
0x
0p
1e
1i
0l
1#!
1%!
1A
1P
10
0y
0z
1j
1f
0w
1q
1(!
1|
0'!
0#!
0%!
1u
1r
0)!
0*!
1{
1+!
1l
1@
0P
1O
1/
1y
0(!
0|
1&!
0}
0r
1t
1v
1w
1x
1*!
0{
0+!
1z
0@
1?
1K
1J
1L
1M
0/
1.
0*!
1{
1+!
1!!
1#!
1%!
1s
1'!
1}
1)!
1;
1:
1<
1=
1N
0M
0K
0J
0L
1,
1+
1*
1)
1$!
1(!
1>
0=
0;
0:
0<
0N
1-
0,
0+
0*
0)
0>
1M
1L
1K
1J
1N
0-
1=
1<
1;
1:
1>
1-
1,
1+
1*
1)
#360000
1!
0&
0$
0E
1B
0G
0g
1V
0X
0]
0^
0`
1.!
0a
1,!
0o
1*!
0{
00!
1h
0.!
1/!
1b
1p
1|
0_
0k
0w
0&!
0x
0l
0m
1&!
0}
1w
0q
1k
0c
0/!
0Q
0i
1l
0u
1x
0$!
0n
0y
0(!
0)!
0A
1P
00
0,!
1(!
1)!
0v
1y
0z
0j
1@
0P
1/
0w
0*!
0+!
1z
0&!
0'!
0-!
0@
0M
0/
1*!
1+!
0x
0=
1M
0,
0(!
0)!
1=
0O
0L
0N
1,
0?
0<
0>
1N
0.
0-
0+
1>
0M
1-
0=
0,
#370000
0!
1&
1$
1#
0%
1"
1E
1D
1C
0B
1G
0F
0R
1g
0V
1W
1Y
1X
1.!
1,!
0*!
1{
10!
0U
0[
0\
1]
1^
1`
0.!
1a
1m
0y
0p
1_
1w
1&!
1u
1r
0s
1$!
1~
0!!
1d
0f
0l
1n
0|
1-!
1/!
0&!
1}
0,!
1o
1y
1p
0u
0e
1!!
0t
1v
1x
0w
1q
0z
0b
1Q
0k
1c
1*!
0{
0+!
1u
0x
1(!
1)!
1&!
0!!
0%!
0#!
0v
1w
0q
1z
0y
0p
0-!
1'!
1A
1P
1O
10
0w
1q
0z
0*!
1{
0u
1x
0&!
0'!
0)!
1v
1|
1+!
1i
1@
1?
1/
1.
1'!
1)!
0v
0|
1*!
0{
0+!
1u
0x
1L
0O
0J
0K
1M
0N
0)!
1v
1|
0'!
1<
0?
0:
0;
1=
0>
1N
0M
0L
0.
0-
1,
1+
0*
0)
1'!
1>
0=
0<
0N
1M
1L
1-
0,
0+
0>
1=
1<
0L
0M
0-
1,
1+
0<
0=
1L
0,
0+
1<
1+
