university/automata-theory/course-work/operating-device-quartus/simulation/qsim/qartus.msim.vcd
$comment
	File created using the following command:
		vcd file qartus.msim.vcd -direction
$end
$date
	Wed Jun 24 11:41:41 2020
$end
$version
	ModelSim Version 10.5b
$end
$timescale
	1ps
$end

$scope module oy_vhd_vec_tst $end
$var wire 1 ! a [3] $end
$var wire 1 " a [2] $end
$var wire 1 # a [1] $end
$var wire 1 $ a [0] $end
$var wire 1 % b [3] $end
$var wire 1 & b [2] $end
$var wire 1 ' b [1] $end
$var wire 1 ( b [0] $end
$var wire 1 ) clk $end
$var wire 1 * rc [7] $end
$var wire 1 + rc [6] $end
$var wire 1 , rc [5] $end
$var wire 1 - rc [4] $end
$var wire 1 . rc [3] $end
$var wire 1 / rc [2] $end
$var wire 1 0 rc [1] $end
$var wire 1 1 rc [0] $end
$var wire 1 2 set $end
$var wire 1 3 sko $end
$var wire 1 4 sno $end

$scope module i1 $end
$var wire 1 5 gnd $end
$var wire 1 6 vcc $end
$var wire 1 7 unknown $end
$var wire 1 8 devoe $end
$var wire 1 9 devclrn $end
$var wire 1 : devpor $end
$var wire 1 ; ww_devoe $end
$var wire 1 < ww_devclrn $end
$var wire 1 = ww_devpor $end
$var wire 1 > ww_a [3] $end
$var wire 1 ? ww_a [2] $end
$var wire 1 @ ww_a [1] $end
$var wire 1 A ww_a [0] $end
$var wire 1 B ww_b [3] $end
$var wire 1 C ww_b [2] $end
$var wire 1 D ww_b [1] $end
$var wire 1 E ww_b [0] $end
$var wire 1 F ww_clk $end
$var wire 1 G ww_set $end
$var wire 1 H ww_sno $end
$var wire 1 I ww_sko $end
$var wire 1 J ww_rc [7] $end
$var wire 1 K ww_rc [6] $end
$var wire 1 L ww_rc [5] $end
$var wire 1 M ww_rc [4] $end
$var wire 1 N ww_rc [3] $end
$var wire 1 O ww_rc [2] $end
$var wire 1 P ww_rc [1] $end
$var wire 1 Q ww_rc [0] $end
$var wire 1 R \set~inputclkctrl_INCLK_bus\ [3] $end
$var wire 1 S \set~inputclkctrl_INCLK_bus\ [2] $end
$var wire 1 T \set~inputclkctrl_INCLK_bus\ [1] $end
$var wire 1 U \set~inputclkctrl_INCLK_bus\ [0] $end
$var wire 1 V \clk~inputclkctrl_INCLK_bus\ [3] $end
$var wire 1 W \clk~inputclkctrl_INCLK_bus\ [2] $end
$var wire 1 X \clk~inputclkctrl_INCLK_bus\ [1] $end
$var wire 1 Y \clk~inputclkctrl_INCLK_bus\ [0] $end
$var wire 1 Z \sko~output_o\ $end
$var wire 1 [ \rc[0]~output_o\ $end
$var wire 1 \ \rc[1]~output_o\ $end
$var wire 1 ] \rc[2]~output_o\ $end
$var wire 1 ^ \rc[3]~output_o\ $end
$var wire 1 _ \rc[4]~output_o\ $end
$var wire 1 ` \rc[5]~output_o\ $end
$var wire 1 a \rc[6]~output_o\ $end
$var wire 1 b \rc[7]~output_o\ $end
$var wire 1 c \clk~input_o\ $end
$var wire 1 d \clk~inputclkctrl_outclk\ $end
$var wire 1 e \sno~input_o\ $end
$var wire 1 f \unit_YA|Selector0~0_combout\ $end
$var wire 1 g \set~input_o\ $end
$var wire 1 h \set~inputclkctrl_outclk\ $end
$var wire 1 i \unit_YA|state.s0~q\ $end
$var wire 1 j \unit_YA|Next_state.s1~0_combout\ $end
$var wire 1 k \unit_YA|state.s1~q\ $end
$var wire 1 l \b[0]~input_o\ $end
$var wire 1 m \unit_OA|rb[0]~4_combout\ $end
$var wire 1 n \b[1]~input_o\ $end
$var wire 1 o \unit_YA|Next_state.s2~0_combout\ $end
$var wire 1 p \unit_YA|state.s2~q\ $end
$var wire 1 q \unit_OA|rb~3_combout\ $end
$var wire 1 r \unit_OA|ra~10_combout\ $end
$var wire 1 s \b[2]~input_o\ $end
$var wire 1 t \unit_OA|rb~1_combout\ $end
$var wire 1 u \unit_OA|rb~2_combout\ $end
$var wire 1 v \unit_OA|Add1~0_combout\ $end
$var wire 1 w \b[3]~input_o\ $end
$var wire 1 x \unit_OA|rb~0_combout\ $end
$var wire 1 y \unit_YA|Selector2~0_combout\ $end
$var wire 1 z \unit_OA|Mux0~0_combout\ $end
$var wire 1 { \unit_OA|Mux0~1_combout\ $end
$var wire 1 | \unit_YA|Selector2~1_combout\ $end
$var wire 1 } \unit_YA|state.s4~q\ $end
$var wire 1 ~ \unit_YA|Selector1~0_combout\ $end
$var wire 1 !! \unit_YA|state.s3~q\ $end
$var wire 1 "! \unit_YA|Selector3~0_combout\ $end
$var wire 1 #! \unit_YA|state.s5~q\ $end
$var wire 1 $! \unit_OA|i~0_combout\ $end
$var wire 1 %! \unit_OA|i~1_combout\ $end
$var wire 1 &! \unit_OA|i~2_combout\ $end
$var wire 1 '! \unit_YA|Next_state.s6~0_combout\ $end
$var wire 1 (! \unit_YA|state.s6~q\ $end
$var wire 1 )! \unit_OA|ra~8_combout\ $end
$var wire 1 *! \a[0]~input_o\ $end
$var wire 1 +! \unit_OA|ra~7_combout\ $end
$var wire 1 ,! \unit_OA|ra~9_combout\ $end
$var wire 1 -! \unit_OA|rc[0]~8_combout\ $end
$var wire 1 .! \unit_OA|rc[0]~10_combout\ $end
$var wire 1 /! \unit_OA|Add0~1_cout\ $end
$var wire 1 0! \unit_OA|Add0~2_combout\ $end
$var wire 1 1! \a[1]~input_o\ $end
$var wire 1 2! \unit_OA|ra[1]~0_combout\ $end
$var wire 1 3! \unit_OA|rc[0]~9\ $end
$var wire 1 4! \unit_OA|rc[1]~11_combout\ $end
$var wire 1 5! \a[2]~input_o\ $end
$var wire 1 6! \unit_OA|Add0~3\ $end
$var wire 1 7! \unit_OA|Add0~4_combout\ $end
$var wire 1 8! \unit_OA|ra[2]~1_combout\ $end
$var wire 1 9! \unit_OA|rc[1]~12\ $end
$var wire 1 :! \unit_OA|rc[2]~13_combout\ $end
$var wire 1 ;! \a[3]~input_o\ $end
$var wire 1 <! \unit_OA|Add0~5\ $end
$var wire 1 =! \unit_OA|Add0~6_combout\ $end
$var wire 1 >! \unit_OA|ra[3]~2_combout\ $end
$var wire 1 ?! \unit_OA|rc[2]~14\ $end
$var wire 1 @! \unit_OA|rc[3]~15_combout\ $end
$var wire 1 A! \unit_OA|Add0~7\ $end
$var wire 1 B! \unit_OA|Add0~8_combout\ $end
$var wire 1 C! \unit_OA|ra[4]~3_combout\ $end
$var wire 1 D! \unit_OA|rc[3]~16\ $end
$var wire 1 E! \unit_OA|rc[4]~17_combout\ $end
$var wire 1 F! \unit_OA|Add0~9\ $end
$var wire 1 G! \unit_OA|Add0~10_combout\ $end
$var wire 1 H! \unit_OA|ra[5]~4_combout\ $end
$var wire 1 I! \unit_OA|rc[4]~18\ $end
$var wire 1 J! \unit_OA|rc[5]~19_combout\ $end
$var wire 1 K! \unit_OA|Add0~11\ $end
$var wire 1 L! \unit_OA|Add0~12_combout\ $end
$var wire 1 M! \unit_OA|ra[6]~5_combout\ $end
$var wire 1 N! \unit_OA|rc[5]~20\ $end
$var wire 1 O! \unit_OA|rc[6]~21_combout\ $end
$var wire 1 P! \unit_OA|Add0~13\ $end
$var wire 1 Q! \unit_OA|Add0~14_combout\ $end
$var wire 1 R! \unit_OA|ra[7]~6_combout\ $end
$var wire 1 S! \unit_OA|rc[6]~22\ $end
$var wire 1 T! \unit_OA|rc[7]~23_combout\ $end
$var wire 1 U! \unit_OA|rc\ [7] $end
$var wire 1 V! \unit_OA|rc\ [6] $end
$var wire 1 W! \unit_OA|rc\ [5] $end
$var wire 1 X! \unit_OA|rc\ [4] $end
$var wire 1 Y! \unit_OA|rc\ [3] $end
$var wire 1 Z! \unit_OA|rc\ [2] $end
$var wire 1 [! \unit_OA|rc\ [1] $end
$var wire 1 \! \unit_OA|rc\ [0] $end
$var wire 1 ]! \unit_OA|ra\ [7] $end
$var wire 1 ^! \unit_OA|ra\ [6] $end
$var wire 1 _! \unit_OA|ra\ [5] $end
$var wire 1 `! \unit_OA|ra\ [4] $end
$var wire 1 a! \unit_OA|ra\ [3] $end
$var wire 1 b! \unit_OA|ra\ [2] $end
$var wire 1 c! \unit_OA|ra\ [1] $end
$var wire 1 d! \unit_OA|ra\ [0] $end
$var wire 1 e! \unit_OA|i\ [1] $end
$var wire 1 f! \unit_OA|i\ [0] $end
$var wire 1 g! \unit_OA|rb\ [3] $end
$var wire 1 h! \unit_OA|rb\ [2] $end
$var wire 1 i! \unit_OA|rb\ [1] $end
$var wire 1 j! \unit_OA|rb\ [0] $end
$var wire 1 k! \ALT_INV_clk~inputclkctrl_outclk\ $end
$var wire 1 l! \ALT_INV_set~inputclkctrl_outclk\ $end
$var wire 1 m! \unit_YA|ALT_INV_state.s3~q\ $end
$upscope $end
$upscope $end
$enddefinitions $end
#0
$dumpvars
0)
12
03
04
05
16
x7
18
19
1:
1;
1<
1=
0F
1G
0H
0I
0Z
0[
0\
0]
0^
0_
0`
0a
0b
0c
0d
0e
0f
1g
1h
0i
0j
0k
0l
0m
0n
0o
0p
0q
0r
0s
0t
0u
0v
0w
0x
0y
1z
1{
0|
0}
0~
0!!
0"!
0#!
0$!
0%!
0&!
0'!
0(!
0)!
0*!
0+!
0,!
0-!
0.!
1/!
00!
01!
02!
03!
04!
05!
06!
07!
08!
19!
0:!
0;!
1<!
0=!
0>!
0?!
0@!
0A!
0B!
0C!
1D!
0E!
1F!
0G!
0H!
0I!
0J!
0K!
0L!
0M!
1N!
0O!
1P!
0Q!
0R!
0S!
0T!
1k!
0l!
1m!
0!
0"
0#
0$
0%
0&
0'
0(
0*
0+
0,
0-
0.
0/
00
01
0>
0?
0@
0A
0B
0C
0D
0E
0J
0K
0L
0M
0N
0O
0P
0Q
0U!
0V!
0W!
0X!
0Y!
0Z!
0[!
0\!
0]!
0^!
0_!
0`!
0a!
0b!
0c!
0d!
0e!
0f!
0g!
0h!
0i!
0j!
1V
1W
1X
0Y
1R
1S
1T
1U
$end
#2500
1)
1F
1c
1Y
1d
0k!
#5000
0)
0F
0c
0Y
0d
1k!
#7500
1)
1F
1c
1Y
1d
0k!
#10000
0)
0F
0c
0Y
0d
1k!
#12500
1)
1F
1c
1Y
1d
0k!
#15000
0)
0F
0c
0Y
0d
1k!
#17500
1)
1F
1c
1Y
1d
0k!
#20000
0)
0F
0c
0Y
0d
1k!
#22500
1)
1F
1c
1Y
1d
0k!
#25000
0)
1#
1$
1'
1(
02
14
0F
1A
1@
1E
1D
0G
1H
1e
0g
1n
1l
11!
1*!
0c
0U
0Y
12!
1q
1f
1j
0d
0h
1l!
1k!
1i
1k
1m
1r
1y
1%!
1)!
1+!
1.!
0j
1,!
1|
#27500
1)
1F
1c
1Y
1d
0k!
1j!
1i!
1d!
1c!
10!
16!
14!
1-!
0/!
1v
0z
0{
00!
17!
0<!
1=!
1A!
0|
1~
1B!
0F!
1G!
1K!
1L!
0P!
1Q!
#30000
0)
04
0F
0H
0e
0c
0Y
0d
1k!
0k
1!!
0m!
1"!
0r
0y
0%!
0)!
0+!
0~
#32500
1)
1F
1c
1Y
1d
0k!
1\!
1[!
04!
09!
0-!
13!
14!
1:!
1\
1[
1P
1Q
11
10
#35000
0)
0#
0$
0'
0(
0F
0A
0@
0E
0D
0n
0l
01!
0*!
0c
0Y
02!
0q
0d
1k!
0!!
1#!
1m!
1y
1$!
1%!
1)!
0"!
0.!
0,!
1~
#37500
1)
1F
1c
1Y
1d
0k!
1f!
0d!
1b!
07!
0:!
1?!
1-!
03!
1/!
0$!
1&!
10!
04!
1@!
#40000
0)
0F
0c
0Y
0d
1k!
1!!
0#!
0m!
0y
0%!
0&!
0)!
1"!
1.!
0~
#42500
1)
1F
1c
1Y
1d
0k!
0[!
1Y!
0@!
0D!
14!
19!
1:!
0?!
1E!
1^
0\
1@!
1D!
1N
0P
00
1.
0E!
#45000
0)
0F
0c
0Y
0d
1k!
0!!
1#!
1m!
1y
1%!
1&!
1)!
0"!
0.!
1~
#47500
1)
1F
1c
1Y
1d
0k!
0f!
1e!
0c!
1a!
0=!
0@!
0D!
00!
06!
04!
1{
1$!
1|
0~
17!
1E!
#50000
0)
0F
0c
0Y
0d
1k!
1}
0#!
0y
0$!
0%!
0&!
0)!
1"!
0|
#52500
1)
1F
1c
1Y
1d
0k!
#55000
0)
0F
0c
0Y
0d
1k!
0}
1#!
1y
1$!
1%!
1&!
1)!
0"!
1|
#57500
1)
1F
1c
1Y
1d
0k!
1f!
0b!
1`!
0B!
0E!
1I!
07!
1<!
0:!
1z
0$!
0&!
1=!
1J!
#60000
0)
0F
0c
0Y
0d
1k!
1}
0#!
0y
0%!
0)!
1'!
0|
#62500
1)
1F
1c
1Y
1d
0k!
#65000
0)
0F
0c
0Y
0d
1k!
0}
1(!
0f
0'!
1Z
1I
13
#67500
1)
1F
1c
1Y
1d
0k!
#70000
0)
0F
0c
0Y
0d
1k!
0i
0(!
0Z
0I
03
#72500
1)
1F
1c
1Y
1d
0k!
#75000
0)
1#
1$
1'
1(
14
1%
0F
1A
1@
1E
1D
1B
1H
1e
1w
1n
1l
11!
1*!
0c
0Y
12!
1q
1x
1f
1j
0d
1k!
1i
1k
1r
1y
1%!
1)!
1+!
1.!
0j
1,!
1|
#77500
1)
1F
1c
1Y
1d
0k!
1g!
0f!
0e!
1d!
0\!
1c!
0a!
0Y!
0`!
1B!
1E!
0I!
0=!
0A!
1D!
10!
16!
14!
0/!
0z
1o
0v
0y
0|
0{
00!
17!
0<!
0E!
0B!
1F!
0J!
0^
0[
0G!
0K!
1=!
1A!
0N
0Q
01
0.
1B!
0F!
0L!
1P!
0Q!
1G!
1K!
1L!
0P!
1Q!
#80000
0)
04
0F
0H
0e
0c
0Y
0d
1k!
0k
1p
0q
1t
0x
02!
18!
1>!
1C!
1H!
1M!
1R!
0o
1y
0%!
0+!
0.!
1~
1u
#82500
1)
1F
1c
1Y
1d
0k!
0i!
1h!
0g!
0c!
1b!
1a!
1`!
1_!
1^!
1]!
0Q!
1T!
0L!
1O!
0G!
1J!
0B!
1E!
0=!
1@!
07!
1:!
10!
04!
1q
0t
1v
1x
0u
12!
08!
0>!
0C!
0H!
0M!
0R!
#85000
0)
0#
0$
0'
0(
0%
0F
0A
0@
0E
0D
0B
0w
0n
0l
01!
0*!
0c
0Y
0d
1k!
0p
1!!
0m!
1"!
1.!
0q
0r
0x
0y
0)!
0,!
02!
1,!
0~
#87500
1)
1F
1c
1Y
1d
0k!
1\!
1Z!
1Y!
1X!
1W!
1V!
1U!
0T!
0O!
1S!
0J!
0N!
0E!
1I!
0@!
0D!
0:!
1?!
0-!
13!
14!
1@!
1E!
1J!
1O!
1T!
1b
1a
1`
1_
1^
1]
1[
1J
1K
1L
1M
1N
1O
1Q
11
1/
1.
1-
1,
1+
1*
#90000
0)
0F
0c
0Y
0d
1k!
0!!
1#!
1m!
1y
1$!
1%!
1)!
0"!
0.!
0,!
1~
#92500
1)
1F
1c
1Y
1d
0k!
1f!
0d!
1c!
0b!
17!
1:!
0?!
00!
04!
09!
1-!
03!
1/!
1z
0$!
1&!
1{
10!
14!
19!
0:!
1?!
0@!
1@!
1:!
0?!
1|
0~
0@!
#95000
0)
0F
0c
0Y
0d
1k!
1}
0#!
0y
0%!
0&!
0)!
1"!
0|
#97500
1)
1F
1c
1Y
1d
0k!
#100000
0)
0F
0c
0Y
0d
1k!
0}
1#!
1y
1%!
1&!
1)!
0"!
1|
#102500
1)
1F
1c
1Y
1d
0k!
0f!
1e!
0c!
1b!
0a!
1=!
1@!
1D!
07!
0:!
1?!
00!
06!
04!
0z
1$!
0{
17!
0@!
0D!
0E!
1E!
0|
1~
#105000
0)
0F
0c
0Y
0d
1k!
1!!
0#!
0m!
0y
0$!
0%!
0&!
0)!
1"!
1.!
0~
#107500
1)
1F
1c
1Y
1d
0k!
0Z!
0Y!
1@!
1D!
1:!
0?!
0@!
0E!
0^
0]
0N
0O
0/
0.
#110000
0)
0F
0c
0Y
0d
1k!
0!!
1#!
1m!
1y
1$!
1%!
1&!
1)!
0"!
0.!
1~
#112500
1)
1F
1c
1Y
1d
0k!
1f!
0b!
1a!
0`!
1B!
1E!
0I!
0=!
1@!
07!
1<!
0:!
1z
0$!
0&!
1{
1=!
0J!
1|
0~
#115000
0)
0F
0c
0Y
0d
1k!
1}
0#!
0y
0%!
0)!
1'!
0|
#117500
1)
1F
1c
1Y
1d
0k!
#120000
0)
0F
0c
0Y
0d
1k!
0}
1(!
0f
0'!
1Z
1I
13
#122500
1)
1F
1c
1Y
1d
0k!
#125000
0)
0F
0c
0Y
0d
1k!
0i
0(!
0Z
0I
03
#127500
1)
1F
1c
1Y
1d
0k!
#130000
0)
0F
0c
0Y
0d
1k!
#132500
1)
1F
1c
1Y
1d
0k!
#135000
0)
0F
0c
0Y
0d
1k!
#137500
1)
1F
1c
1Y
1d
0k!
#140000
0)
0F
0c
0Y
0d
1k!
#142500
1)
1F
1c
1Y
1d
0k!
#145000
0)
0F
0c
0Y
0d
1k!
#147500
1)
1F
1c
1Y
1d
0k!
#150000
0)
0F
0c
0Y
0d
1k!
#152500
1)
1F
1c
1Y
1d
0k!
#155000
0)
0F
0c
0Y
0d
1k!
#157500
1)
1F
1c
1Y
1d
0k!
#160000
0)
0F
0c
0Y
0d
1k!
#162500
1)
1F
1c
1Y
1d
0k!
#165000
0)
0F
0c
0Y
0d
1k!
#167500
1)
1F
1c
1Y
1d
0k!
#170000
0)
0F
0c
0Y
0d
1k!
#172500
1)
1F
1c
1Y
1d
0k!
#175000
0)
0F
0c
0Y
0d
1k!
#177500
1)
1F
1c
1Y
1d
0k!
#180000
0)
0F
0c
0Y
0d
1k!
#182500
1)
1F
1c
1Y
1d
0k!
#185000
0)
0F
0c
0Y
0d
1k!
#187500
1)
1F
1c
1Y
1d
0k!
#190000
0)
0F
0c
0Y
0d
1k!
#192500
1)
1F
1c
1Y
1d
0k!
#195000
0)
0F
0c
0Y
0d
1k!
#197500
1)
1F
1c
1Y
1d
0k!
#200000
0)
0F
0c
0Y
0d
1k!
#202500
1)
1F
1c
1Y
1d
0k!
#205000
0)
0F
0c
0Y
0d
1k!
#207500
1)
1F
1c
1Y
1d
0k!
#210000
0)
0F
0c
0Y
0d
1k!
#212500
1)
1F
1c
1Y
1d
0k!
#215000
0)
0F
0c
0Y
0d
1k!
#217500
1)
1F
1c
1Y
1d
0k!
#220000
0)
0F
0c
0Y
0d
1k!
#222500
1)
1F
1c
1Y
1d
0k!
#225000
0)
0F
0c
0Y
0d
1k!
#227500
1)
1F
1c
1Y
1d
0k!
#230000
0)
0F
0c
0Y
0d
1k!
#232500
1)
1F
1c
1Y
1d
0k!
#235000
0)
0F
0c
0Y
0d
1k!
#237500
1)
1F
1c
1Y
1d
0k!
#240000
0)
0F
0c
0Y
0d
1k!
#242500
1)
1F
1c
1Y
1d
0k!
#245000
0)
0F
0c
0Y
0d
1k!
#247500
1)
1F
1c
1Y
1d
0k!
#250000
0)
0F
0c
0Y
0d
1k!
#252500
1)
1F
1c
1Y
1d
0k!
#255000
0)
0F
0c
0Y
0d
1k!
#257500
1)
1F
1c
1Y
1d
0k!
#260000
0)
0F
0c
0Y
0d
1k!
#262500
1)
1F
1c
1Y
1d
0k!
#265000
0)
0F
0c
0Y
0d
1k!
#267500
1)
1F
1c
1Y
1d
0k!
#270000
0)
0F
0c
0Y
0d
1k!
#272500
1)
1F
1c
1Y
1d
0k!
#275000
0)
0F
0c
0Y
0d
1k!
#277500
1)
1F
1c
1Y
1d
0k!
#280000
0)
0F
0c
0Y
0d
1k!
#282500
1)
1F
1c
1Y
1d
0k!
#285000
0)
0F
0c
0Y
0d
1k!
#287500
1)
1F
1c
1Y
1d
0k!
#290000
0)
0F
0c
0Y
0d
1k!
#292500
1)
1F
1c
1Y
1d
0k!
#295000
0)
0F
0c
0Y
0d
1k!
#297500
1)
1F
1c
1Y
1d
0k!
#300000
0)
0F
0c
0Y
0d
1k!
#302500
1)
1F
1c
1Y
1d
0k!
#305000
0)
0F
0c
0Y
0d
1k!
#307500
1)
1F
1c
1Y
1d
0k!
#310000
0)
0F
0c
0Y
0d
1k!
#312500
1)
1F
1c
1Y
1d
0k!
#315000
0)
0F
0c
0Y
0d
1k!
#317500
1)
1F
1c
1Y
1d
0k!
#320000
0)
0F
0c
0Y
0d
1k!
#322500
1)
1F
1c
1Y
1d
0k!
#325000
0)
0F
0c
0Y
0d
1k!
#327500
1)
1F
1c
1Y
1d
0k!
#330000
0)
0F
0c
0Y
0d
1k!
#332500
1)
1F
1c
1Y
1d
0k!
#335000
0)
0F
0c
0Y
0d
1k!
#337500
1)
1F
1c
1Y
1d
0k!
#340000
0)
0F
0c
0Y
0d
1k!
#342500
1)
1F
1c
1Y
1d
0k!
#345000
0)
0F
0c
0Y
0d
1k!
#347500
1)
1F
1c
1Y
1d
0k!
#350000
0)
0F
0c
0Y
0d
1k!
#352500
1)
1F
1c
1Y
1d
0k!
#355000
0)
0F
0c
0Y
0d
1k!
#357500
1)
1F
1c
1Y
1d
0k!
#360000
0)
0F
0c
0Y
0d
1k!
#362500
1)
1F
1c
1Y
1d
0k!
#365000
0)
0F
0c
0Y
0d
1k!
#367500
1)
1F
1c
1Y
1d
0k!
#370000
0)
0F
0c
0Y
0d
1k!
#372500
1)
1F
1c
1Y
1d
0k!
#375000
0)
0F
0c
0Y
0d
1k!
#377500
1)
1F
1c
1Y
1d
0k!
#380000
0)
0F
0c
0Y
0d
1k!
#382500
1)
1F
1c
1Y
1d
0k!
#385000
0)
0F
0c
0Y
0d
1k!
#387500
1)
1F
1c
1Y
1d
0k!
#390000
0)
0F
0c
0Y
0d
1k!
#392500
1)
1F
1c
1Y
1d
0k!
#395000
0)
0F
0c
0Y
0d
1k!
#397500
1)
1F
1c
1Y
1d
0k!
#400000
0)
0F
0c
0Y
0d
1k!
#402500
1)
1F
1c
1Y
1d
0k!
#405000
0)
0F
0c
0Y
0d
1k!
#407500
1)
1F
1c
1Y
1d
0k!
#410000
0)
0F
0c
0Y
0d
1k!
#412500
1)
1F
1c
1Y
1d
0k!
#415000
0)
0F
0c
0Y
0d
1k!
#417500
1)
1F
1c
1Y
1d
0k!
#420000
0)
0F
0c
0Y
0d
1k!
#422500
1)
1F
1c
1Y
1d
0k!
#425000
0)
0F
0c
0Y
0d
1k!
#427500
1)
1F
1c
1Y
1d
0k!
#430000
0)
0F
0c
0Y
0d
1k!
#432500
1)
1F
1c
1Y
1d
0k!
#435000
0)
0F
0c
0Y
0d
1k!
#437500
1)
1F
1c
1Y
1d
0k!
#440000
0)
0F
0c
0Y
0d
1k!
#442500
1)
1F
1c
1Y
1d
0k!
#445000
0)
0F
0c
0Y
0d
1k!
#447500
1)
1F
1c
1Y
1d
0k!
#450000
0)
0F
0c
0Y
0d
1k!
#452500
1)
1F
1c
1Y
1d
0k!
#455000
0)
0F
0c
0Y
0d
1k!
#457500
1)
1F
1c
1Y
1d
0k!
#460000
0)
0F
0c
0Y
0d
1k!
#462500
1)
1F
1c
1Y
1d
0k!
#465000
0)
0F
0c
0Y
0d
1k!
#467500
1)
1F
1c
1Y
1d
0k!
#470000
0)
0F
0c
0Y
0d
1k!
#472500
1)
1F
1c
1Y
1d
0k!
#475000
0)
0F
0c
0Y
0d
1k!
#477500
1)
1F
1c
1Y
1d
0k!
#480000
0)
0F
0c
0Y
0d
1k!
#482500
1)
1F
1c
1Y
1d
0k!
#485000
0)
0F
0c
0Y
0d
1k!
#487500
1)
1F
1c
1Y
1d
0k!
#490000
0)
0F
0c
0Y
0d
1k!
#492500
1)
1F
1c
1Y
1d
0k!
#495000
0)
0F
0c
0Y
0d
1k!
#497500
1)
1F
1c
1Y
1d
0k!
#500000
0)
0F
0c
0Y
0d
1k!
#502500
1)
1F
1c
1Y
1d
0k!
#505000
0)
0F
0c
0Y
0d
1k!
#507500
1)
1F
1c
1Y
1d
0k!
#510000
0)
0F
0c
0Y
0d
1k!
#512500
1)
1F
1c
1Y
1d
0k!
#515000
0)
0F
0c
0Y
0d
1k!
#517500
1)
1F
1c
1Y
1d
0k!
#520000
0)
0F
0c
0Y
0d
1k!
#522500
1)
1F
1c
1Y
1d
0k!
#525000
0)
0F
0c
0Y
0d
1k!
#527500
1)
1F
1c
1Y
1d
0k!
#530000
0)
0F
0c
0Y
0d
1k!
#532500
1)
1F
1c
1Y
1d
0k!
#535000
0)
0F
0c
0Y
0d
1k!
#537500
1)
1F
1c
1Y
1d
0k!
#540000
0)
0F
0c
0Y
0d
1k!
#542500
1)
1F
1c
1Y
1d
0k!
#545000
0)
0F
0c
0Y
0d
1k!
#547500
1)
1F
1c
1Y
1d
0k!
#550000
0)
0F
0c
0Y
0d
1k!
#552500
1)
1F
1c
1Y
1d
0k!
#555000
0)
0F
0c
0Y
0d
1k!
#557500
1)
1F
1c
1Y
1d
0k!
#560000
0)
0F
0c
0Y
0d
1k!
#562500
1)
1F
1c
1Y
1d
0k!
#565000
0)
0F
0c
0Y
0d
1k!
#567500
1)
1F
1c
1Y
1d
0k!
#570000
0)
0F
0c
0Y
0d
1k!
#572500
1)
1F
1c
1Y
1d
0k!
#575000
0)
0F
0c
0Y
0d
1k!
#577500
1)
1F
1c
1Y
1d
0k!
#580000
0)
0F
0c
0Y
0d
1k!
#582500
1)
1F
1c
1Y
1d
0k!
#585000
0)
0F
0c
0Y
0d
1k!
#587500
1)
1F
1c
1Y
1d
0k!
#590000
0)
0F
0c
0Y
0d
1k!
#592500
1)
1F
1c
1Y
1d
0k!
#595000
0)
0F
0c
0Y
0d
1k!
#597500
1)
1F
1c
1Y
1d
0k!
#600000
0)
0F
0c
0Y
0d
1k!
#602500
1)
1F
1c
1Y
1d
0k!
#605000
0)
0F
0c
0Y
0d
1k!
#607500
1)
1F
1c
1Y
1d
0k!
#610000
0)
0F
0c
0Y
0d
1k!
#612500
1)
1F
1c
1Y
1d
0k!
#615000
0)
0F
0c
0Y
0d
1k!
#617500
1)
1F
1c
1Y
1d
0k!
#620000
0)
0F
0c
0Y
0d
1k!
#622500
1)
1F
1c
1Y
1d
0k!
#625000
0)
0F
0c
0Y
0d
1k!
#627500
1)
1F
1c
1Y
1d
0k!
#630000
0)
0F
0c
0Y
0d
1k!
#632500
1)
1F
1c
1Y
1d
0k!
#635000
0)
0F
0c
0Y
0d
1k!
#637500
1)
1F
1c
1Y
1d
0k!
#640000
0)
0F
0c
0Y
0d
1k!
#642500
1)
1F
1c
1Y
1d
0k!
#645000
0)
0F
0c
0Y
0d
1k!
#647500
1)
1F
1c
1Y
1d
0k!
#650000
0)
0F
0c
0Y
0d
1k!
#652500
1)
1F
1c
1Y
1d
0k!
#655000
0)
0F
0c
0Y
0d
1k!
#657500
1)
1F
1c
1Y
1d
0k!
#660000
0)
0F
0c
0Y
0d
1k!
#662500
1)
1F
1c
1Y
1d
0k!
#665000
0)
0F
0c
0Y
0d
1k!
#667500
1)
1F
1c
1Y
1d
0k!
#670000
0)
0F
0c
0Y
0d
1k!
#672500
1)
1F
1c
1Y
1d
0k!
#675000
0)
0F
0c
0Y
0d
1k!
#677500
1)
1F
1c
1Y
1d
0k!
#680000
0)
0F
0c
0Y
0d
1k!
#682500
1)
1F
1c
1Y
1d
0k!
#685000
0)
0F
0c
0Y
0d
1k!
#687500
1)
1F
1c
1Y
1d
0k!
#690000
0)
0F
0c
0Y
0d
1k!
#692500
1)
1F
1c
1Y
1d
0k!
#695000
0)
0F
0c
0Y
0d
1k!
#697500
1)
1F
1c
1Y
1d
0k!
#700000
0)
0F
0c
0Y
0d
1k!
#702500
1)
1F
1c
1Y
1d
0k!
#705000
0)
0F
0c
0Y
0d
1k!
#707500
1)
1F
1c
1Y
1d
0k!
#710000
0)
0F
0c
0Y
0d
1k!
#712500
1)
1F
1c
1Y
1d
0k!
#715000
0)
0F
0c
0Y
0d
1k!
#717500
1)
1F
1c
1Y
1d
0k!
#720000
0)
0F
0c
0Y
0d
1k!
#722500
1)
1F
1c
1Y
1d
0k!
#725000
0)
0F
0c
0Y
0d
1k!
#727500
1)
1F
1c
1Y
1d
0k!
#730000
0)
0F
0c
0Y
0d
1k!
#732500
1)
1F
1c
1Y
1d
0k!
#735000
0)
0F
0c
0Y
0d
1k!
#737500
1)
1F
1c
1Y
1d
0k!
#740000
0)
0F
0c
0Y
0d
1k!
#742500
1)
1F
1c
1Y
1d
0k!
#745000
0)
0F
0c
0Y
0d
1k!
#747500
1)
1F
1c
1Y
1d
0k!
#750000
0)
0F
0c
0Y
0d
1k!
#752500
1)
1F
1c
1Y
1d
0k!
#755000
0)
0F
0c
0Y
0d
1k!
#757500
1)
1F
1c
1Y
1d
0k!
#760000
0)
0F
0c
0Y
0d
1k!
#762500
1)
1F
1c
1Y
1d
0k!
#765000
0)
0F
0c
0Y
0d
1k!
#767500
1)
1F
1c
1Y
1d
0k!
#770000
0)
0F
0c
0Y
0d
1k!
#772500
1)
1F
1c
1Y
1d
0k!
#775000
0)
0F
0c
0Y
0d
1k!
#777500
1)
1F
1c
1Y
1d
0k!
#780000
0)
0F
0c
0Y
0d
1k!
#782500
1)
1F
1c
1Y
1d
0k!
#785000
0)
0F
0c
0Y
0d
1k!
#787500
1)
1F
1c
1Y
1d
0k!
#790000
0)
0F
0c
0Y
0d
1k!
#792500
1)
1F
1c
1Y
1d
0k!
#795000
0)
0F
0c
0Y
0d
1k!
#797500
1)
1F
1c
1Y
1d
0k!
#800000
0)
0F
0c
0Y
0d
1k!
#802500
1)
1F
1c
1Y
1d
0k!
#805000
0)
0F
0c
0Y
0d
1k!
#807500
1)
1F
1c
1Y
1d
0k!
#810000
0)
0F
0c
0Y
0d
1k!
#812500
1)
1F
1c
1Y
1d
0k!
#815000
0)
0F
0c
0Y
0d
1k!
#817500
1)
1F
1c
1Y
1d
0k!
