university/automata-theory/course-work/structure-automata-quartus/simulation/qsim/kursovaya.msim.vcd
$comment
	File created using the following command:
		vcd file kursovaya.msim.vcd -direction
$end
$date
	Fri May 01 18:57:29 2020
$end
$version
	ModelSim Version 10.5b
$end
$timescale
	1ps
$end

$scope module mealy_full_decompose_vhd_vec_tst $end
$var wire 1 ! clock $end
$var wire 1 " enable $end
$var wire 1 # resetn $end
$var wire 1 $ t1 $end
$var wire 1 % t2 $end
$var wire 1 & x1 $end
$var wire 1 ' x2 $end
$var wire 1 ( y1 $end
$var wire 1 ) y2 $end
$var wire 1 * y3 $end

$scope module i1 $end
$var wire 1 + gnd $end
$var wire 1 , vcc $end
$var wire 1 - unknown $end
$var wire 1 . devoe $end
$var wire 1 / devclrn $end
$var wire 1 0 devpor $end
$var wire 1 1 ww_devoe $end
$var wire 1 2 ww_devclrn $end
$var wire 1 3 ww_devpor $end
$var wire 1 4 ww_t1 $end
$var wire 1 5 ww_x1 $end
$var wire 1 6 ww_x2 $end
$var wire 1 7 ww_clock $end
$var wire 1 8 ww_resetn $end
$var wire 1 9 ww_enable $end
$var wire 1 : ww_t2 $end
$var wire 1 ; ww_y1 $end
$var wire 1 < ww_y2 $end
$var wire 1 = ww_y3 $end
$var wire 1 > \clock~inputclkctrl_INCLK_bus\ [3] $end
$var wire 1 ? \clock~inputclkctrl_INCLK_bus\ [2] $end
$var wire 1 @ \clock~inputclkctrl_INCLK_bus\ [1] $end
$var wire 1 A \clock~inputclkctrl_INCLK_bus\ [0] $end
$var wire 1 B \t1~output_o\ $end
$var wire 1 C \t2~output_o\ $end
$var wire 1 D \y1~output_o\ $end
$var wire 1 E \y2~output_o\ $end
$var wire 1 F \y3~output_o\ $end
$var wire 1 G \clock~input_o\ $end
$var wire 1 H \clock~inputclkctrl_outclk\ $end
$var wire 1 I \enable~input_o\ $end
$var wire 1 J \x1~input_o\ $end
$var wire 1 K \x2~input_o\ $end
$var wire 1 L \resetn~input_o\ $end
$var wire 1 M \inst|circ1|t2~0_combout\ $end
$var wire 1 N \inst|circ1|t2~1_combout\ $end
$var wire 1 O \inst|circ1|t2~q\ $end
$var wire 1 P \inst|circ1|t1~0_combout\ $end
$var wire 1 Q \inst|circ1|t1~1_combout\ $end
$var wire 1 R \inst|circ1|t1~q\ $end
$var wire 1 S \inst|circ3|y1~0_combout\ $end
$var wire 1 T \inst|circ3|y2~combout\ $end
$var wire 1 U \inst|circ3|y3~0_combout\ $end
$upscope $end
$upscope $end
$enddefinitions $end
#0
$dumpvars
1!
0"
0#
0$
0%
0&
0'
0(
1)
1*
0+
1,
x-
1.
1/
10
11
12
13
04
05
06
17
08
09
0:
0;
1<
1=
0B
0C
0D
1E
1F
1G
1H
0I
0J
0K
0L
0M
0N
0O
0P
0Q
0R
0S
1T
1U
1>
1?
1@
1A
$end
#5000
0!
07
0G
0A
0H
#10000
1!
1"
1#
1'
17
19
18
16
1K
1L
1I
1G
1A
1Q
1N
0U
1H
0F
1O
1R
0=
0Q
1M
0N
1S
0T
1U
0*
1N
1B
1C
14
1:
1F
0E
1D
1$
1%
1=
0<
1;
1*
0)
1(
#15000
0!
07
0G
0A
0H
#20000
1!
0'
17
06
0K
1G
1A
0M
1P
0S
0U
1Q
0N
1H
0F
0D
0O
0=
0;
1M
1N
0P
1U
0*
0(
0Q
0N
0C
0:
1F
0%
1=
1*
#25000
0!
07
0G
0A
0H
#30000
1!
17
1G
1A
1H
0R
0M
1Q
1T
1N
0B
04
1E
0$
1<
1)
#35000
0!
07
0G
0A
0H
#40000
1!
1&
17
15
1J
1G
1A
1P
1S
0T
0Q
1H
0E
1D
1O
0<
1;
0N
0P
0S
0)
1(
1Q
1C
1:
0D
1%
0;
0(
#45000
0!
07
0G
0A
0H
#50000
1!
0&
1'
17
05
16
1K
0J
1G
1A
1M
1S
0U
1N
1H
0F
1D
1R
0=
1;
0Q
1U
0*
1(
1B
14
1F
1$
1=
1*
#55000
0!
07
0G
0A
0H
#60000
1!
17
1G
1A
1H
0R
1Q
0U
0B
04
0F
0$
0=
0*
#65000
0!
07
0G
0A
0H
#70000
1!
0'
17
06
0K
1G
1A
0M
0S
0N
1H
0D
0O
1R
0;
0Q
1M
1N
1U
0(
0N
1B
0C
14
0:
1F
1$
0%
1=
1*
#75000
0!
07
0G
0A
0H
#80000
1!
17
1G
1A
1H
0R
0M
1Q
1T
1N
0B
04
1E
0$
1<
1)
#85000
0!
07
0G
0A
0H
#90000
1!
17
1G
1A
1H
1O
1R
0Q
0N
1P
0T
0U
1Q
1B
1C
14
1:
0F
0E
1$
1%
0=
0<
0*
0)
#95000
0!
07
0G
0A
0H
#100000
1!
17
1G
1A
1H
0O
1M
1N
0P
1U
0Q
0N
0C
0:
1F
0%
1=
1*
#105000
0!
07
0G
0A
0H
#110000
1!
17
1G
1A
1H
0R
0M
1Q
1T
1N
0B
04
1E
0$
1<
1)
#115000
0!
07
0G
0A
0H
#120000
1!
17
1G
1A
1H
1O
1R
0Q
0N
1P
0T
0U
1Q
1B
1C
14
1:
0F
0E
1$
1%
0=
0<
0*
0)
#125000
0!
07
0G
0A
0H
#130000
1!
17
1G
1A
1H
0O
1M
1N
0P
1U
0Q
0N
0C
0:
1F
0%
1=
1*
#135000
0!
07
0G
0A
0H
#140000
1!
17
1G
1A
1H
0R
0M
1Q
1T
1N
0B
04
1E
0$
1<
1)
#145000
0!
07
0G
0A
0H
#150000
1!
17
1G
1A
1H
1O
1R
0Q
0N
1P
0T
0U
1Q
1B
1C
14
1:
0F
0E
1$
1%
0=
0<
0*
0)
#155000
0!
07
0G
0A
0H
#160000
1!
17
1G
1A
1H
0O
1M
1N
0P
1U
0Q
0N
0C
0:
1F
0%
1=
1*
#165000
0!
07
0G
0A
0H
#170000
1!
17
1G
1A
1H
0R
0M
1Q
1T
1N
0B
04
1E
0$
1<
1)
#175000
0!
07
0G
0A
0H
#180000
1!
17
1G
1A
1H
1O
1R
0Q
0N
1P
0T
0U
1Q
1B
1C
14
1:
0F
0E
1$
1%
0=
0<
0*
0)
#185000
0!
07
0G
0A
0H
#190000
1!
17
1G
1A
1H
0O
1M
1N
0P
1U
0Q
0N
0C
0:
1F
0%
1=
1*
#195000
0!
07
0G
0A
0H
#200000
1!
17
1G
1A
1H
0R
0M
1Q
1T
1N
0B
04
1E
0$
1<
1)
#205000
0!
07
0G
0A
0H
#210000
1!
17
1G
1A
1H
1O
1R
0Q
0N
1P
0T
0U
1Q
1B
1C
14
1:
0F
0E
1$
1%
0=
0<
0*
0)
#215000
0!
07
0G
0A
0H
#220000
1!
17
1G
1A
1H
0O
1M
1N
0P
1U
0Q
0N
0C
0:
1F
0%
1=
1*
#225000
0!
07
0G
0A
0H
#230000
1!
17
1G
1A
1H
0R
0M
1Q
1T
1N
0B
04
1E
0$
1<
1)
#235000
0!
07
0G
0A
0H
#240000
1!
17
1G
1A
1H
1O
1R
0Q
0N
1P
0T
0U
1Q
1B
1C
14
1:
0F
0E
1$
1%
0=
0<
0*
0)
#245000
0!
07
0G
0A
0H
#250000
1!
17
1G
1A
1H
0O
1M
1N
0P
1U
0Q
0N
0C
0:
1F
0%
1=
1*
#255000
0!
07
0G
0A
0H
#260000
1!
17
1G
1A
1H
0R
0M
1Q
1T
1N
0B
04
1E
0$
1<
1)
#265000
0!
07
0G
0A
0H
#270000
1!
17
1G
1A
1H
1O
1R
0Q
0N
1P
0T
0U
1Q
1B
1C
14
1:
0F
0E
1$
1%
0=
0<
0*
0)
#275000
0!
07
0G
0A
0H
#280000
1!
17
1G
1A
1H
0O
1M
1N
0P
1U
0Q
0N
0C
0:
1F
0%
1=
1*
#285000
0!
07
0G
0A
0H
#290000
1!
17
1G
1A
1H
0R
0M
1Q
1T
1N
0B
04
1E
0$
1<
1)
#295000
0!
07
0G
0A
0H
#300000
1!
17
1G
1A
1H
1O
1R
0Q
0N
1P
0T
0U
1Q
1B
1C
14
1:
0F
0E
1$
1%
0=
0<
0*
0)
#305000
0!
07
0G
0A
0H
#310000
1!
17
1G
1A
1H
0O
1M
1N
0P
1U
0Q
0N
0C
0:
1F
0%
1=
1*
#315000
0!
07
0G
0A
0H
#320000
1!
17
1G
1A
1H
0R
0M
1Q
1T
1N
0B
04
1E
0$
1<
1)
#325000
0!
07
0G
0A
0H
#330000
1!
17
1G
1A
1H
1O
1R
0Q
0N
1P
0T
0U
1Q
1B
1C
14
1:
0F
0E
1$
1%
0=
0<
0*
0)
#335000
0!
07
0G
0A
0H
#340000
1!
17
1G
1A
1H
0O
1M
1N
0P
1U
0Q
0N
0C
0:
1F
0%
1=
1*
#345000
0!
07
0G
0A
0H
#350000
1!
17
1G
1A
1H
0R
0M
1Q
1T
1N
0B
04
1E
0$
1<
1)
#355000
0!
07
0G
0A
0H
#360000
1!
17
1G
1A
1H
1O
1R
0Q
0N
1P
0T
0U
1Q
1B
1C
14
1:
0F
0E
1$
1%
0=
0<
0*
0)
#365000
0!
07
0G
0A
0H
#370000
1!
17
1G
1A
1H
0O
1M
1N
0P
1U
0Q
0N
0C
0:
1F
0%
1=
1*
#375000
0!
07
0G
0A
0H
#380000
1!
17
1G
1A
1H
0R
0M
1Q
1T
1N
0B
04
1E
0$
1<
1)
#385000
0!
07
0G
0A
0H
#390000
1!
17
1G
1A
1H
1O
1R
0Q
0N
1P
0T
0U
1Q
1B
1C
14
1:
0F
0E
1$
1%
0=
0<
0*
0)
#395000
0!
07
0G
0A
0H
#400000
1!
17
1G
1A
1H
0O
1M
1N
0P
1U
0Q
0N
0C
0:
1F
0%
1=
1*
#405000
0!
07
0G
0A
0H
#410000
1!
17
1G
1A
1H
0R
0M
1Q
1T
1N
0B
04
1E
0$
1<
1)
#415000
0!
07
0G
0A
0H
#420000
1!
17
1G
1A
1H
1O
1R
0Q
0N
1P
0T
0U
1Q
1B
1C
14
1:
0F
0E
1$
1%
0=
0<
0*
0)
#425000
0!
07
0G
0A
0H
#430000
1!
17
1G
1A
1H
0O
1M
1N
0P
1U
0Q
0N
0C
0:
1F
0%
1=
1*
#435000
0!
07
0G
0A
0H
#440000
1!
17
1G
1A
1H
0R
0M
1Q
1T
1N
0B
04
1E
0$
1<
1)
#445000
0!
07
0G
0A
0H
#450000
1!
17
1G
1A
1H
1O
1R
0Q
0N
1P
0T
0U
1Q
1B
1C
14
1:
0F
0E
1$
1%
0=
0<
0*
0)
#455000
0!
07
0G
0A
0H
#460000
1!
17
1G
1A
1H
0O
1M
1N
0P
1U
0Q
0N
0C
0:
1F
0%
1=
1*
#465000
0!
07
0G
0A
0H
#470000
1!
17
1G
1A
1H
0R
0M
1Q
1T
1N
0B
04
1E
0$
1<
1)
#475000
0!
07
0G
0A
0H
#480000
1!
17
1G
1A
1H
1O
1R
0Q
0N
1P
0T
0U
1Q
1B
1C
14
1:
0F
0E
1$
1%
0=
0<
0*
0)
#485000
0!
07
0G
0A
0H
#490000
1!
17
1G
1A
1H
0O
1M
1N
0P
1U
0Q
0N
0C
0:
1F
0%
1=
1*
#495000
0!
07
0G
0A
0H
#500000
1!
17
1G
1A
1H
0R
0M
1Q
1T
1N
0B
04
1E
0$
1<
1)
#505000
0!
07
0G
0A
0H
#510000
1!
17
1G
1A
1H
1O
1R
0Q
0N
1P
0T
0U
1Q
1B
1C
14
1:
0F
0E
1$
1%
0=
0<
0*
0)
#515000
0!
07
0G
0A
0H
#520000
1!
17
1G
1A
1H
0O
1M
1N
0P
1U
0Q
0N
0C
0:
1F
0%
1=
1*
#525000
0!
07
0G
0A
0H
#530000
1!
17
1G
1A
1H
0R
0M
1Q
1T
1N
0B
04
1E
0$
1<
1)
#535000
0!
07
0G
0A
0H
#540000
1!
17
1G
1A
1H
1O
1R
0Q
0N
1P
0T
0U
1Q
1B
1C
14
1:
0F
0E
1$
1%
0=
0<
0*
0)
#545000
0!
07
0G
0A
0H
#550000
1!
17
1G
1A
1H
0O
1M
1N
0P
1U
0Q
0N
0C
0:
1F
0%
1=
1*
#555000
0!
07
0G
0A
0H
#560000
1!
17
1G
1A
1H
0R
0M
1Q
1T
1N
0B
04
1E
0$
1<
1)
#565000
0!
07
0G
0A
0H
#570000
1!
17
1G
1A
1H
1O
1R
0Q
0N
1P
0T
0U
1Q
1B
1C
14
1:
0F
0E
1$
1%
0=
0<
0*
0)
#575000
0!
07
0G
0A
0H
#580000
1!
17
1G
1A
1H
0O
1M
1N
0P
1U
0Q
0N
0C
0:
1F
0%
1=
1*
#585000
0!
07
0G
0A
0H
#590000
1!
17
1G
1A
1H
0R
0M
1Q
1T
1N
0B
04
1E
0$
1<
1)
#595000
0!
07
0G
0A
0H
#600000
1!
17
1G
1A
1H
1O
1R
0Q
0N
1P
0T
0U
1Q
1B
1C
14
1:
0F
0E
1$
1%
0=
0<
0*
0)
#605000
0!
07
0G
0A
0H
#610000
1!
17
1G
1A
1H
0O
1M
1N
0P
1U
0Q
0N
0C
0:
1F
0%
1=
1*
#615000
0!
07
0G
0A
0H
#620000
1!
17
1G
1A
1H
0R
0M
1Q
1T
1N
0B
04
1E
0$
1<
1)
#625000
0!
07
0G
0A
0H
#630000
1!
17
1G
1A
1H
1O
1R
0Q
0N
1P
0T
0U
1Q
1B
1C
14
1:
0F
0E
1$
1%
0=
0<
0*
0)
#635000
0!
07
0G
0A
0H
#640000
1!
17
1G
1A
1H
0O
1M
1N
0P
1U
0Q
0N
0C
0:
1F
0%
1=
1*
#645000
0!
07
0G
0A
0H
#650000
1!
17
1G
1A
1H
0R
0M
1Q
1T
1N
0B
04
1E
0$
1<
1)
#655000
0!
07
0G
0A
0H
#660000
1!
17
1G
1A
1H
1O
1R
0Q
0N
1P
0T
0U
1Q
1B
1C
14
1:
0F
0E
1$
1%
0=
0<
0*
0)
#665000
0!
07
0G
0A
0H
#670000
1!
17
1G
1A
1H
0O
1M
1N
0P
1U
0Q
0N
0C
0:
1F
0%
1=
1*
#675000
0!
07
0G
0A
0H
#680000
1!
17
1G
1A
1H
0R
0M
1Q
1T
1N
0B
04
1E
0$
1<
1)
#685000
0!
07
0G
0A
0H
#690000
1!
17
1G
1A
1H
1O
1R
0Q
0N
1P
0T
0U
1Q
1B
1C
14
1:
0F
0E
1$
1%
0=
0<
0*
0)
#695000
0!
07
0G
0A
0H
#700000
1!
17
1G
1A
1H
0O
1M
1N
0P
1U
0Q
0N
0C
0:
1F
0%
1=
1*
#705000
0!
07
0G
0A
0H
#710000
1!
17
1G
1A
1H
0R
0M
1Q
1T
1N
0B
04
1E
0$
1<
1)
#715000
0!
07
0G
0A
0H
#720000
1!
17
1G
1A
1H
1O
1R
0Q
0N
1P
0T
0U
1Q
1B
1C
14
1:
0F
0E
1$
1%
0=
0<
0*
0)
#725000
0!
07
0G
0A
0H
#730000
1!
17
1G
1A
1H
0O
1M
1N
0P
1U
0Q
0N
0C
0:
1F
0%
1=
1*
#735000
0!
07
0G
0A
0H
#740000
1!
17
1G
1A
1H
0R
0M
1Q
1T
1N
0B
04
1E
0$
1<
1)
#745000
0!
07
0G
0A
0H
#750000
1!
17
1G
1A
1H
1O
1R
0Q
0N
1P
0T
0U
1Q
1B
1C
14
1:
0F
0E
1$
1%
0=
0<
0*
0)
#755000
0!
07
0G
0A
0H
#760000
1!
17
1G
1A
1H
0O
1M
1N
0P
1U
0Q
0N
0C
0:
1F
0%
1=
1*
#765000
0!
07
0G
0A
0H
#770000
1!
17
1G
1A
1H
0R
0M
1Q
1T
1N
0B
04
1E
0$
1<
1)
#775000
0!
07
0G
0A
0H
#780000
1!
17
1G
1A
1H
1O
1R
0Q
0N
1P
0T
0U
1Q
1B
1C
14
1:
0F
0E
1$
1%
0=
0<
0*
0)
#785000
0!
07
0G
0A
0H
#790000
1!
17
1G
1A
1H
0O
1M
1N
0P
1U
0Q
0N
0C
0:
1F
0%
1=
1*
#795000
0!
07
0G
0A
0H
#800000
1!
17
1G
1A
1H
0R
0M
1Q
1T
1N
0B
04
1E
0$
1<
1)
#805000
0!
07
0G
0A
0H
#810000
1!
17
1G
1A
1H
1O
1R
0Q
0N
1P
0T
0U
1Q
1B
1C
14
1:
0F
0E
1$
1%
0=
0<
0*
0)
#815000
0!
07
0G
0A
0H
#820000
1!
17
1G
1A
1H
0O
1M
1N
0P
1U
0Q
0N
0C
0:
1F
0%
1=
1*
#825000
0!
07
0G
0A
0H
#830000
1!
17
1G
1A
1H
0R
0M
1Q
1T
1N
0B
04
1E
0$
1<
1)
#835000
0!
07
0G
0A
0H
#840000
1!
17
1G
1A
1H
1O
1R
0Q
0N
1P
0T
0U
1Q
1B
1C
14
1:
0F
0E
1$
1%
0=
0<
0*
0)
#845000
0!
07
0G
0A
0H
#850000
1!
17
1G
1A
1H
0O
1M
1N
0P
1U
0Q
0N
0C
0:
1F
0%
1=
1*
#855000
0!
07
0G
0A
0H
#860000
1!
17
1G
1A
1H
0R
0M
1Q
1T
1N
0B
04
1E
0$
1<
1)
#865000
0!
07
0G
0A
0H
#870000
1!
17
1G
1A
1H
1O
1R
0Q
0N
1P
0T
0U
1Q
1B
1C
14
1:
0F
0E
1$
1%
0=
0<
0*
0)
#875000
0!
07
0G
0A
0H
#880000
1!
17
1G
1A
1H
0O
1M
1N
0P
1U
0Q
0N
0C
0:
1F
0%
1=
1*
#885000
0!
07
0G
0A
0H
#890000
1!
17
1G
1A
1H
0R
0M
1Q
1T
1N
0B
04
1E
0$
1<
1)
#895000
0!
07
0G
0A
0H
#900000
1!
17
1G
1A
1H
1O
1R
0Q
0N
1P
0T
0U
1Q
1B
1C
14
1:
0F
0E
1$
1%
0=
0<
0*
0)
#905000
0!
07
0G
0A
0H
#910000
1!
17
1G
1A
1H
0O
1M
1N
0P
1U
0Q
0N
0C
0:
1F
0%
1=
1*
#915000
0!
07
0G
0A
0H
#920000
1!
17
1G
1A
1H
0R
0M
1Q
1T
1N
0B
04
1E
0$
1<
1)
#925000
0!
07
0G
0A
0H
#930000
1!
17
1G
1A
1H
1O
1R
0Q
0N
1P
0T
0U
1Q
1B
1C
14
1:
0F
0E
1$
1%
0=
0<
0*
0)
#935000
0!
07
0G
0A
0H
#940000
1!
17
1G
1A
1H
0O
1M
1N
0P
1U
0Q
0N
0C
0:
1F
0%
1=
1*
#945000
0!
07
0G
0A
0H
#950000
1!
17
1G
1A
1H
0R
0M
1Q
1T
1N
0B
04
1E
0$
1<
1)
#955000
0!
07
0G
0A
0H
#960000
1!
17
1G
1A
1H
1O
1R
0Q
0N
1P
0T
0U
1Q
1B
1C
14
1:
0F
0E
1$
1%
0=
0<
0*
0)
#965000
0!
07
0G
0A
0H
#970000
1!
17
1G
1A
1H
0O
1M
1N
0P
1U
0Q
0N
0C
0:
1F
0%
1=
1*
#975000
0!
07
0G
0A
0H
#980000
1!
17
1G
1A
1H
0R
0M
1Q
1T
1N
0B
04
1E
0$
1<
1)
#985000
0!
07
0G
0A
0H
#990000
1!
17
1G
1A
1H
1O
1R
0Q
0N
1P
0T
0U
1Q
1B
1C
14
1:
0F
0E
1$
1%
0=
0<
0*
0)
#995000
0!
07
0G
0A
0H
