university/circuit-design/complect-studenta/labs_quartus/examples/semestr1/lab3/simulation/qsim/Lab3.msim.vcd
$comment
	File created using the following command:
		vcd file Lab3.msim.vcd -direction
$end
$date
	Fri Oct 23 17:46:07 2020
$end
$version
	ModelSim Version 10.5b
$end
$timescale
	1ps
$end

$scope module Shema_vlg_vec_tst $end
$var reg 1 ! C $end
$var reg 1 " E1 $end
$var reg 1 # E2 $end
$var reg 1 $ S $end
$var wire 1 % Q $end
$var wire 1 & q1 $end

$scope module i1 $end
$var wire 1 ' gnd $end
$var wire 1 ( vcc $end
$var wire 1 ) unknown $end
$var tri1 1 * devclrn $end
$var tri1 1 + devpor $end
$var tri1 1 , devoe $end
$var wire 1 - Q~output_o $end
$var wire 1 . q1~output_o $end
$var wire 1 / C~input_o $end
$var wire 1 0 E2~input_o $end
$var wire 1 1 S~input_o $end
$var wire 1 2 inst7~1_combout $end
$var wire 1 3 inst~0_combout $end
$var wire 1 4 E1~input_o $end
$var wire 1 5 inst2~combout $end
$var wire 1 6 inst3~1_combout $end
$var wire 1 7 inst6~1_combout $end
$upscope $end
$upscope $end
$enddefinitions $end
#0
$dumpvars
0!
0"
0#
0$
x%
x&
0'
1(
x)
1*
1+
1,
x-
x.
0/
00
01
x2
03
04
x5
x6
x7
$end
#5000
1!
1/
#10000
1"
0!
14
0/
#15000
1!
1/
#20000
1#
0"
0!
10
04
0/
#25000
1!
1/
06
05
0.
0&
#30000
1$
1"
0!
11
14
0/
x3
02
13
07
0-
0%
#35000
1!
1/
15
1.
16
1&
#40000
0#
0"
0!
00
04
0/
12
17
1-
03
1%
#45000
1!
1/
#50000
1"
0!
14
0/
#55000
1!
1/
#60000
1#
0"
0!
10
04
0/
#65000
1!
1/
06
05
0.
0&
#70000
1"
0!
14
0/
02
13
07
0-
0%
#75000
1!
1/
15
1.
16
1&
#80000
0#
0"
0!
00
04
0/
12
17
1-
03
1%
#85000
1!
1/
#90000
1"
0!
14
0/
#95000
1!
1/
#100000
1#
0"
0!
10
04
0/
#105000
1!
1/
06
05
0.
0&
#110000
1"
0!
14
0/
02
13
07
0-
0%
#115000
1!
1/
15
1.
16
1&
#120000
0#
0"
0!
00
04
0/
12
17
1-
03
1%
#125000
1!
1/
#130000
1"
0!
14
0/
#135000
1!
1/
#140000
1#
0"
0!
10
04
0/
#145000
1!
1/
06
05
0.
0&
#150000
1"
0!
14
0/
02
13
07
0-
0%
#155000
1!
1/
15
1.
16
1&
#160000
0#
0"
0!
00
04
0/
12
17
1-
03
1%
#165000
1!
1/
#170000
1"
0!
14
0/
#175000
1!
1/
#180000
1#
0"
0!
10
04
0/
#185000
1!
1/
06
05
0.
0&
#190000
1"
0!
14
0/
02
13
07
0-
0%
#195000
1!
1/
15
1.
16
1&
#200000
0#
0"
0!
00
04
0/
12
17
1-
03
1%
#205000
1!
1/
#210000
1"
0!
14
0/
#215000
1!
1/
#220000
1#
0"
0!
10
04
0/
#225000
1!
1/
06
05
0.
0&
#230000
1"
0!
14
0/
02
13
07
0-
0%
#235000
1!
1/
15
1.
16
1&
#240000
0#
0"
0!
00
04
0/
12
17
1-
03
1%
#245000
1!
1/
#250000
1"
0!
14
0/
#255000
1!
1/
#260000
1#
0"
0!
10
04
0/
#265000
1!
1/
06
05
0.
0&
#270000
1"
0!
14
0/
02
13
07
0-
0%
#275000
1!
1/
15
1.
16
1&
#280000
0#
0"
0!
00
04
0/
12
17
1-
03
1%
#285000
1!
1/
#290000
1"
0!
14
0/
#295000
1!
1/
#300000
1#
0"
0!
10
04
0/
#305000
1!
1/
06
05
0.
0&
#310000
1"
0!
14
0/
02
13
07
0-
0%
#315000
1!
1/
15
1.
16
1&
#320000
0#
0"
0!
00
04
0/
12
17
1-
03
1%
#325000
1!
1/
#330000
1"
0!
14
0/
#335000
1!
1/
#340000
1#
0"
0!
10
04
0/
#345000
1!
1/
06
05
0.
0&
#350000
1"
0!
14
0/
02
13
07
0-
0%
#355000
1!
1/
15
1.
16
1&
#360000
0#
0"
0!
00
04
0/
12
17
1-
03
1%
#365000
1!
1/
#370000
1"
0!
14
0/
#375000
1!
1/
#380000
1#
0"
0!
10
04
0/
#385000
1!
1/
06
05
0.
0&
#390000
1"
0!
14
0/
02
13
07
0-
0%
#395000
1!
1/
15
1.
16
1&
#400000
0#
0"
0!
00
04
0/
12
17
1-
03
1%
#405000
1!
1/
#410000
1"
0!
14
0/
#415000
1!
1/
#420000
1#
0"
0!
10
04
0/
#425000
1!
1/
06
05
0.
0&
#430000
1"
0!
14
0/
02
13
07
0-
0%
#435000
1!
1/
15
1.
16
1&
#440000
0#
0"
0!
00
04
0/
12
17
1-
03
1%
#445000
1!
1/
#450000
1"
0!
14
0/
#455000
1!
1/
#460000
1#
0"
0!
10
04
0/
#465000
1!
1/
06
05
0.
0&
#470000
1"
0!
14
0/
02
13
07
0-
0%
#475000
1!
1/
15
1.
16
1&
#480000
0#
0"
0!
00
04
0/
12
17
1-
03
1%
#485000
1!
1/
#490000
1"
0!
14
0/
#495000
1!
1/
#500000
1#
0"
0!
10
04
0/
#505000
1!
1/
06
05
0.
0&
#510000
1"
0!
14
0/
02
13
07
0-
0%
#515000
1!
1/
15
1.
16
1&
#520000
0#
0"
0!
00
04
0/
12
17
1-
03
1%
#525000
1!
1/
#530000
1"
0!
14
0/
#535000
1!
1/
#540000
1#
0"
0!
10
04
0/
#545000
1!
1/
06
05
0.
0&
#550000
1"
0!
14
0/
02
13
07
0-
0%
#555000
1!
1/
15
1.
16
1&
#560000
0#
0"
0!
00
04
0/
12
17
1-
03
1%
#565000
1!
1/
#570000
1"
0!
14
0/
#575000
1!
1/
#580000
1#
0"
0!
10
04
0/
#585000
1!
1/
06
05
0.
0&
#590000
1"
0!
14
0/
02
13
07
0-
0%
#595000
1!
1/
15
1.
16
1&
#600000
0#
0"
0!
00
04
0/
12
17
1-
03
1%
#605000
1!
1/
#610000
1"
0!
14
0/
#615000
1!
1/
#620000
1#
0"
0!
10
04
0/
#625000
1!
1/
06
05
0.
0&
#630000
1"
0!
14
0/
02
13
07
0-
0%
#635000
1!
1/
15
1.
16
1&
#640000
0#
0"
0!
00
04
0/
12
17
1-
03
1%
#645000
1!
1/
#650000
1"
0!
14
0/
#655000
1!
1/
#660000
1#
0"
0!
10
04
0/
#665000
1!
1/
06
05
0.
0&
#670000
1"
0!
14
0/
02
13
07
0-
0%
#675000
1!
1/
15
1.
16
1&
#680000
0#
0"
0!
00
04
0/
12
17
1-
03
1%
#685000
1!
1/
#690000
1"
0!
14
0/
#695000
1!
1/
#700000
1#
0"
0!
10
04
0/
#705000
1!
1/
06
05
0.
0&
#710000
1"
0!
14
0/
02
13
07
0-
0%
#715000
1!
1/
15
1.
16
1&
#720000
0#
0"
0!
00
04
0/
12
17
1-
03
1%
#725000
1!
1/
#730000
1"
0!
14
0/
#735000
1!
1/
#740000
1#
0"
0!
10
04
0/
#745000
1!
1/
06
05
0.
0&
#750000
1"
0!
14
0/
02
13
07
0-
0%
#755000
1!
1/
15
1.
16
1&
#760000
0#
0"
0!
00
04
0/
12
17
1-
03
1%
#765000
1!
1/
#770000
1"
0!
14
0/
#775000
1!
1/
#780000
1#
0"
0!
10
04
0/
#785000
1!
1/
06
05
0.
0&
#790000
1"
0!
14
0/
02
13
07
0-
0%
#795000
1!
1/
15
1.
16
1&
#800000
0#
0"
0!
00
04
0/
12
17
1-
03
1%
#805000
1!
1/
#810000
1"
0!
14
0/
#815000
1!
1/
#820000
1#
0"
0!
10
04
0/
#825000
1!
1/
06
05
0.
0&
#830000
1"
0!
14
0/
02
13
07
0-
0%
#835000
1!
1/
15
1.
16
1&
#840000
0#
0"
0!
00
04
0/
12
17
1-
03
1%
#845000
1!
1/
#850000
1"
0!
14
0/
#855000
1!
1/
#860000
1#
0"
0!
10
04
0/
#865000
1!
1/
06
05
0.
0&
#870000
1"
0!
14
0/
02
13
07
0-
0%
#875000
1!
1/
15
1.
16
1&
#880000
0#
0"
0!
00
04
0/
12
17
1-
03
1%
#885000
1!
1/
#890000
1"
0!
14
0/
#895000
1!
1/
#900000
1#
0"
0!
10
04
0/
#905000
1!
1/
06
05
0.
0&
#910000
1"
0!
14
0/
02
13
07
0-
0%
#915000
1!
1/
15
1.
16
1&
#920000
0#
0"
0!
00
04
0/
12
17
1-
03
1%
#925000
1!
1/
#930000
1"
0!
14
0/
#935000
1!
1/
#940000
1#
0"
0!
10
04
0/
#945000
1!
1/
06
05
0.
0&
#950000
1"
0!
14
0/
02
13
07
0-
0%
#955000
1!
1/
15
1.
16
1&
#960000
0#
0"
0!
00
04
0/
12
17
1-
03
1%
#965000
1!
1/
#970000
1"
0!
14
0/
#975000
1!
1/
#980000
1#
0"
0!
10
04
0/
#985000
1!
1/
06
05
0.
0&
#990000
1"
0!
14
0/
02
13
07
0-
0%
#995000
1!
1/
15
1.
16
1&
