university/circuit-design/BinaryCounter/simulation/qsim/BinaryCounter.msim.vcd
$comment
	File created using the following command:
		vcd file BinaryCounter.msim.vcd -direction
$end
$date
	Sat Apr 17 18:30:06 2021
$end
$version
	ModelSim Version 10.5b
$end
$timescale
	1ps
$end

$scope module _GN_BC_DFF_PK_NAND_vlg_vec_tst $end
$var reg 1 ! C $end
$var reg 1 " nR $end
$var wire 1 # Z1 $end
$var wire 1 $ Z2 $end
$var wire 1 % Z3 $end
$var wire 1 & Z4 $end
$var wire 1 ' Z5 $end
$var wire 1 ( Z6 $end
$var wire 1 ) Z7 $end
$var wire 1 * Z8 $end
$var wire 1 + Z9 $end

$scope module i1 $end
$var wire 1 , gnd $end
$var wire 1 - vcc $end
$var wire 1 . unknown $end
$var tri1 1 / devclrn $end
$var tri1 1 0 devpor $end
$var tri1 1 1 devoe $end
$var wire 1 2 Z1~output_o $end
$var wire 1 3 Z2~output_o $end
$var wire 1 4 Z3~output_o $end
$var wire 1 5 Z4~output_o $end
$var wire 1 6 Z5~output_o $end
$var wire 1 7 Z6~output_o $end
$var wire 1 8 Z7~output_o $end
$var wire 1 9 Z8~output_o $end
$var wire 1 : Z9~output_o $end
$var wire 1 ; C~input_o $end
$var wire 1 < C~inputclkctrl_outclk $end
$var wire 1 = DD4|inst~0_combout $end
$var wire 1 > nR~input_o $end
$var wire 1 ? nR~inputclkctrl_outclk $end
$var wire 1 @ DD7|inst2~q $end
$var wire 1 A DD1|inst1~0_combout $end
$var wire 1 B DD4|inst1~0_combout $end
$var wire 1 C DD7|inst3~q $end
$var wire 1 D inst4|inst~0_combout $end
$var wire 1 E DD8|inst3~q $end
$var wire 1 F inst4|inst2~0_combout $end
$var wire 1 G DD7|inst~q $end
$var wire 1 H inst4|inst3~0_combout $end
$var wire 1 I DD7|inst1~q $end
$var wire 1 J inst28|inst~2_combout $end
$var wire 1 K inst28|inst~3_combout $end
$var wire 1 L DD26|inst~1_combout $end
$var wire 1 M inst15|inst3~0_combout $end
$var wire 1 N inst21|inst~0_combout $end
$var wire 1 O DD26|inst~0_combout $end
$var wire 1 P DD26|inst~2_combout $end
$var wire 1 Q DD28|inst~0_combout $end
$var wire 1 R DD28|inst~combout $end
$var wire 1 S inst21|inst3~combout $end
$var wire 1 T inst|inst~0_combout $end
$var wire 1 U inst|inst3~0_combout $end
$var wire 1 V inst26|inst3~0_combout $end
$var wire 1 W inst|inst2~2_combout $end
$var wire 1 X inst|inst2~3_combout $end
$var wire 1 Y inst28|inst1~0_combout $end
$var wire 1 Z inst28|inst1~1_combout $end
$var wire 1 [ inst6|inst~1_combout $end
$var wire 1 \ inst6|inst~0_combout $end
$var wire 1 ] inst6|inst~2_combout $end
$upscope $end
$upscope $end
$enddefinitions $end
#0
$dumpvars
0!
0"
x#
x$
x%
x&
x'
x(
x)
x*
x+
0,
1-
x.
1/
10
11
x2
x3
x4
x5
x6
x7
x8
x9
x:
0;
x<
x=
0>
x?
0@
xA
xB
0C
xD
0E
xF
0G
xH
0I
xJ
xK
xL
xM
xN
xO
xP
xQ
xR
xS
xT
xU
xV
xW
xX
xY
xZ
x[
x\
x]
$end
#158
0<
0?
#439
0A
#512
1D
#604
0S
#632
1F
#715
0B
#746
1W
#762
0=
#771
0K
#777
1\
#779
1L
#780
1Q
#788
1Y
#793
0V
#801
0H
#807
0U
#900
0N
#910
1M
#945
0J
#1052
1T
#1300
1X
#1343
1Z
#1520
1O
#1541
1[
#1830
1R
1P
#2080
1]
#4144
07
0(
#4147
06
0'
#4149
05
0&
#4261
12
1#
#4660
08
0)
#4720
09
0*
#4938
04
0%
#5360
03
0$
#6470
0:
0+
#60500
1!
#61096
1;
#61276
1<
#121000
0!
#121761
0;
#121919
0<
#160000
1"
#160596
1>
#160776
1?
#181500
1!
#182096
1;
#182276
1<
#183755
1E
#184124
0D
#184288
0F
#184446
0P
#184451
0L
#187911
13
1$
#242000
0!
#242761
0;
#242919
0<
#302500
1!
#303096
1;
#303276
1<
#304755
0E
1G
#305108
1D
#305387
1F
#305534
1L
#305595
1J
#305645
0O
#305972
0R
#309041
14
1%
#363000
0!
#363761
0;
#363919
0<
#423500
1!
#424096
1;
#424276
1<
#425755
1E
#426124
0D
#426288
0F
#426446
1H
#426447
0Q
#426450
1S
#426865
0T
#429924
15
1&
#484000
0!
#484761
0;
#484919
0<
#544500
1!
#545096
1;
#545276
1<
#546755
0E
0G
1I
#547108
1D
#547124
0H
#547359
0S
#547387
1F
#547535
1Q
#547546
1U
#547548
1H
#547700
0J
#550922
16
1'
#605000
0!
#605761
0;
#605919
0<
#665500
1!
#666096
1;
#666276
1<
#667755
1E
#668124
0D
#668288
0F
#668420
1V
#668448
0\
#669054
0]
#671819
17
1(
#673486
1:
1+
#726000
0!
#726761
0;
#726919
0<
#786500
1!
#787096
1;
#787276
1<
#788755
0E
1G
#789108
1D
#789132
1A
#789387
1F
#789532
1\
#789548
0V
#789595
1J
#792899
07
0(
#847000
0!
#847761
0;
#847919
0<
#907500
1!
#908096
1;
#908276
1<
#909755
1E
#910124
0D
#910288
0F
#910414
1=
#910447
0Q
#910448
0Y
0\
#910450
1S
#910452
0U
#910454
0H
#911042
0Z
#913792
06
0'
#914381
19
1*
#968000
0!
#968761
0;
#968919
0<
#1028500
1!
#1029096
1;
#1029276
1<
#1030755
1@
0E
0G
0I
#1031108
1H
1D
#1031124
0=
#1031194
0A
#1031359
0S
#1031387
1F
#1031404
1K
#1031512
0X
#1031518
1=
#1031532
1N
#1031533
0W
#1031535
1Q
#1031543
1Y
#1031556
0H
#1031592
0M
#1031700
0J
#1031716
1O
#1031807
1T
#1032026
1R
1P
#1032116
0O
#1032125
0[
#1032150
0K
#1032443
0R
#1032445
0P
#1034831
18
1)
#1034904
05
0&
#1089000
0!
#1089761
0;
#1089919
0<
#1149500
1!
#1150096
1;
#1150276
1<
#1151755
1E
#1152124
0D
#1152288
0F
#1152420
1V
#1152447
0N
#1152451
0L
#1153067
1O
#1153088
1[
#1153377
1R
#1155819
17
1(
#1156485
04
0%
#1210000
0!
#1210761
0;
#1210919
0<
#1270500
1!
#1271096
1;
#1271276
1<
#1272755
0E
1G
#1273108
1D
#1273387
1F
#1273450
1W
#1273532
1N
#1273534
1L
#1273548
0V
#1273595
1J
#1274012
1K
#1274039
1P
#1274116
0O
#1274443
0R
#1274445
0P
#1276899
07
0(
#1277512
14
1%
#1277557
02
0#
#1331000
0!
#1331761
0;
#1331919
0<
#1391500
1!
#1392096
1;
#1392276
1<
#1393755
1E
#1394124
0D
#1394282
1X
#1394288
0F
#1394446
1H
#1394447
0N
0Q
#1394450
1S
#1394865
0T
#1395067
1O
#1395377
1P
#1397642
08
0)
#1397924
15
1&
#1398907
03
0$
#1452000
0!
#1452761
0;
#1452919
0<
#1512500
1!
#1513096
1;
#1513276
1<
#1514755
0E
0G
1I
#1515108
1D
#1515124
0H
#1515287
1Z
#1515359
0S
#1515387
1F
#1515532
1N
#1515535
1Q
#1515546
1U
#1515548
1H
#1515700
0J
#1515728
1\
#1516039
1R
#1516125
0[
#1516270
1]
#1516735
0]
#1518664
09
0*
#1518922
16
1'
#1519147
04
0%
#1573000
0!
#1573761
0;
#1573919
0<
#1633500
1!
#1634096
1;
#1634276
1<
#1635755
1E
#1636124
0D
#1636288
0F
#1636420
1V
#1636447
0N
#1637014
1T
#1637088
1[
#1637627
1]
#1639819
17
1(
#1640111
05
0&
#1642017
0:
0+
#1694000
0!
#1694761
0;
#1694919
0<
#1754500
1!
#1755096
1;
#1755276
1<
#1756755
0E
1G
#1757108
1D
#1757132
1A
#1757387
1F
#1757532
1N
#1757548
0V
#1757595
1J
#1758056
0T
#1760899
07
0(
#1761115
15
1&
#1815000
0!
#1815761
0;
#1815919
0<
#1875500
1!
#1876096
1;
#1876276
1<
#1877755
1E
#1878124
0D
#1878288
0F
#1878413
0=
#1878447
0N
0Q
#1878448
0Y
#1878450
1S
#1878452
0U
#1878454
0H
#1878469
1B
#1878995
0R
#1881792
06
0'
#1882064
14
1%
#1936000
0!
#1936761
0;
#1936919
0<
#1996500
1!
#1997096
1;
#1997276
1<
#1998755
0@
1C
0E
0G
0I
#1999108
1H
1=
#1999167
0Z
#1999194
0A
#1999517
0=
#1999525
1F
#1999536
0S
#1999543
1Y
#1999556
0H
#1999597
1D
#1999877
0L
#1999984
1T
#2000098
1Z
#2000430
0P
#2003081
05
0&
#2003895
13
1$
#2057000
0!
#2057761
0;
#2057919
0<
#2117500
1!
#2118096
1;
#2118276
1<
#2119755
1E
#2120124
0D
#2120288
0F
#2120289
0J
#2120449
1Q
#2120739
0K
#2120953
1R
#2124061
04
0%
#2124229
12
1#
#2178000
0!
#2178761
0;
#2178919
0<
#2238500
1!
#2239096
1;
#2239276
1<
#2240755
0E
1G
#2241108
1D
#2241387
1F
#2241646
0[
#2241783
1L
#2242256
0]
#2242288
1P
#2245818
03
0$
#2246688
1:
1+
#2299000
0!
#2299761
0;
#2299919
0<
#2359500
1!
#2360096
1;
#2360276
1<
#2361755
1E
#2362124
0D
#2362288
0F
1J
#2362446
1H
#2362448
0Y
#2362705
1K
#2363042
0Z
#2366250
02
0#
#2366381
19
1*
#2420000
0!
#2420761
0;
#2420919
0<
#2480500
1!
#2481096
1;
#2481276
1<
#2482755
0E
0G
1I
#2483108
1D
#2483124
0H
#2483533
0W
#2483547
1[
#2483694
1H
#2484086
1]
#2484141
0X
#2487460
18
1)
#2488476
0:
0+
#2541000
0!
#2541761
0;
#2541919
0<
#2601500
1!
#2602096
1;
#2602276
1<
#2603755
1E
#2604124
0D
#2604289
0J
#2604420
1V
#2604440
1Y
#2604995
1Z
#2607819
17
1(
#2608372
09
0*
#2662000
0!
#2662761
0;
#2662919
0<
#2722500
1!
#2723096
1;
#2723276
1<
#2724755
0E
1G
#2725108
1D
#2725132
1A
#2725449
0B
#2725450
1W
#2725548
0V
#2725568
0D
#2725610
0H
#2726004
1X
#2728899
07
0(
#2729364
08
0)
#2783000
0!
#2783761
0;
#2783919
0<
#2843500
1!
#2844096
1;
#2844276
1<
#2845755
0C
0G
0I
#2846194
0A
#2846255
0K
#2846265
1J
#2846266
1F
#2846267
1D
#2846375
1M
#2846700
0J
#2849745
12
1#
#2904000
0!
#2904761
0;
#2904919
0<
#2964500
1!
#2965096
1;
#2965276
1<
#2966755
1E
#2967124
0D
#2967288
0F
#2967446
0P
#2967451
0L
#2970911
13
1$
#3025000
0!
#3025761
0;
#3025919
0<
#3085500
1!
#3086096
1;
#3086276
1<
#3087755
0E
1G
#3088108
1D
#3088387
1F
#3088534
1L
#3088595
1J
#3088645
0O
#3088972
0R
#3092041
14
1%
#3146000
0!
#3146761
0;
#3146919
0<
#3206500
1!
#3207096
1;
#3207276
1<
#3208755
1E
#3209124
0D
#3209288
0F
#3209446
1H
#3209447
0Q
#3209450
1S
#3209865
0T
#3212924
15
1&
#3267000
0!
#3267761
0;
#3267919
0<
#3327500
1!
#3328096
1;
#3328276
1<
#3329755
0E
0G
1I
#3330108
1D
#3330124
0H
#3330359
0S
#3330387
1F
#3330535
1Q
#3330546
1U
#3330548
1H
#3330700
0J
#3333922
16
1'
#3388000
0!
#3388761
0;
#3388919
0<
#3448500
1!
#3449096
1;
#3449276
1<
#3450755
1E
#3451124
0D
#3451288
0F
#3451420
1V
#3451448
0\
#3452054
0]
#3454819
17
1(
#3456486
1:
1+
#3509000
0!
#3509761
0;
#3509919
0<
#3569500
1!
#3570096
1;
#3570276
1<
#3571755
0E
1G
#3572108
1D
#3572132
1A
#3572387
1F
#3572532
1\
#3572548
0V
#3572595
1J
#3575899
07
0(
#3630000
0!
#3630761
0;
#3630919
0<
#3690500
1!
#3691096
1;
#3691276
1<
#3692755
1E
#3693124
0D
#3693288
0F
#3693414
1=
#3693447
0Q
#3693448
0Y
0\
#3693450
1S
#3693452
0U
#3693454
0H
#3694042
0Z
#3696792
06
0'
#3697381
19
1*
#3751000
0!
#3751761
0;
#3751919
0<
#3811500
1!
#3812096
1;
#3812276
1<
#3813755
1@
0E
0G
0I
#3814108
1H
1D
#3814124
0=
#3814194
0A
#3814359
0S
#3814387
1F
#3814404
1K
#3814512
0X
#3814518
1=
#3814532
1N
#3814533
0W
#3814535
1Q
#3814543
1Y
#3814556
0H
#3814592
0M
#3814700
0J
#3814716
1O
#3814807
1T
#3815026
1R
1P
#3815116
0O
#3815125
0[
#3815150
0K
#3815443
0R
#3815445
0P
#3817831
18
1)
#3817904
05
0&
#3872000
0!
#3872761
0;
#3872919
0<
#3932500
1!
#3933096
1;
#3933276
1<
#3934755
1E
#3935124
0D
#3935288
0F
#3935420
1V
#3935447
0N
#3935451
0L
#3936067
1O
#3936088
1[
#3936377
1R
#3938819
17
1(
#3939485
04
0%
#3993000
0!
#3993761
0;
