university/circuit-design/ShiftRegister/simulation/qsim/JohnsonCounter.msim.vcd
$comment
	File created using the following command:
		vcd file JohnsonCounter.msim.vcd -direction
$end
$date
	Thu Jun 03 16:18:10 2021
$end
$version
	ModelSim Version 10.5b
$end
$timescale
	1ps
$end

$scope module _JohnsonCounterDFF_vlg_vec_tst $end
$var reg 1 ! C $end
$var reg 1 " nR $end
$var wire 1 # Z1 $end
$var wire 1 $ Z2 $end
$var wire 1 % Z3 $end
$var wire 1 & Z4 $end
$var wire 1 ' Z5 $end
$var wire 1 ( Z6 $end
$var wire 1 ) Z7 $end
$var wire 1 * Z8 $end
$var wire 1 + Z9 $end

$scope module i1 $end
$var wire 1 , gnd $end
$var wire 1 - vcc $end
$var wire 1 . unknown $end
$var tri1 1 / devclrn $end
$var tri1 1 0 devpor $end
$var tri1 1 1 devoe $end
$var wire 1 2 Z1~output_o $end
$var wire 1 3 Z2~output_o $end
$var wire 1 4 Z3~output_o $end
$var wire 1 5 Z4~output_o $end
$var wire 1 6 Z5~output_o $end
$var wire 1 7 Z6~output_o $end
$var wire 1 8 Z7~output_o $end
$var wire 1 9 Z8~output_o $end
$var wire 1 : Z9~output_o $end
$var wire 1 ; C~input_o $end
$var wire 1 < C~inputclkctrl_outclk $end
$var wire 1 = DD6|inst2~0_combout $end
$var wire 1 > nR~input_o $end
$var wire 1 ? nR~inputclkctrl_outclk $end
$var wire 1 @ DD3|inst1~q $end
$var wire 1 A DD6|inst3~0_combout $end
$var wire 1 B DD3|inst2~q $end
$var wire 1 C DD4|inst6~0_combout $end
$var wire 1 D DD2|inst2~q $end
$var wire 1 E DD5|inst3~combout $end
$var wire 1 F DD1|inst1~q $end
$var wire 1 G DD4|inst5~0_combout $end
$var wire 1 H DD2|inst1~q $end
$var wire 1 I DD4|inst4~combout $end
$var wire 1 J DD2|inst~q $end
$var wire 1 K DD4|inst~0_combout $end
$var wire 1 L DD3|inst3~q $end
$var wire 1 M DD5|inst~0_combout $end
$var wire 1 N DD2|inst3~q $end
$var wire 1 O DD5|inst2~0_combout $end
$var wire 1 P DD5|inst2~1_combout $end
$var wire 1 Q DD1|inst~q $end
$var wire 1 R DD6|inst~0_combout $end
$var wire 1 S DD6|inst~1_combout $end
$var wire 1 T DD3|inst~q $end
$upscope $end
$upscope $end
$enddefinitions $end
#0
$dumpvars
0!
0"
0#
0$
0%
0&
0'
0(
0)
0*
0+
0,
1-
x.
1/
10
11
02
03
04
05
06
07
08
09
0:
0;
0<
0=
0>
0?
0@
0A
0B
0C
0D
0E
0F
0G
0H
0I
0J
0K
0L
0M
0N
1O
0P
0Q
1R
1S
0T
$end
#65000
1!
1;
1<
#130000
0!
0;
0<
#160000
1"
1>
1?
#195000
1!
1;
1<
1T
12
1#
1=
#260000
0!
0;
0<
#325000
1!
1;
1<
1@
13
0R
1$
1A
#390000
0!
0;
0<
#455000
1!
1;
1<
1B
14
1%
1K
#520000
0!
0;
0<
#585000
1!
1;
1<
1L
15
1&
1I
#650000
0!
0;
0<
#715000
1!
1;
1<
1J
16
0O
1'
1G
1E
1P
#780000
0!
0;
0<
#845000
1!
1;
1<
1F
1Q
1H
17
1:
1+
1(
0G
#910000
0!
0;
0<
#975000
1!
1;
1<
0H
07
0(
1M
0I
#1040000
0!
0;
0<
#1105000
1!
1;
1<
1N
0J
06
19
1*
0'
1C
0K
#1170000
0!
0;
0<
#1235000
1!
1;
1<
0L
1D
18
05
0&
1)
0A
1G
0E
#1300000
0!
0;
0<
#1365000
1!
1;
1<
0F
1H
0B
04
17
1O
1R
1(
0%
0G
1A
0S
#1430000
0!
0;
0<
#1495000
1!
1;
1<
0T
0H
1B
14
07
02
0#
0(
1%
0=
1K
0C
#1560000
0!
0;
0<
#1625000
1!
1;
1<
1L
0D
0@
03
08
15
1&
0)
0$
0M
1I
0A
#1690000
0!
0;
0<
#1755000
1!
1;
1<
0N
1J
0B
04
16
09
0*
1'
0%
0P
0K
1G
1E
#1820000
0!
0;
0<
#1885000
1!
1;
1<
1F
0Q
0L
1H
17
05
0:
0+
0&
1(
1K
0G
#1950000
0!
0;
0<
#2015000
1!
1;
1<
1L
0H
07
15
1&
0(
0I
1A
#2080000
0!
0;
0<
#2145000
1!
1;
1<
0J
1B
14
06
0'
1%
0K
1=
#2210000
0!
0;
0<
#2275000
1!
1;
1<
0L
1@
13
05
0R
0&
1$
0A
1S
#2340000
0!
0;
0<
#2405000
1!
1;
1<
1T
0B
04
12
0O
1#
0%
0=
1P
#2470000
0!
0;
0<
#2535000
1!
1;
1<
1Q
0@
03
1:
1R
1+
0$
1M
0S
#2600000
0!
0;
0<
#2665000
1!
1;
1<
0T
1N
19
02
1O
0#
1*
1C
0P
#2730000
0!
0;
0<
#2795000
1!
1;
1<
0Q
1D
18
0:
0+
1)
0M
1G
0E
#2860000
0!
0;
0<
#2925000
1!
1;
1<
0F
0N
1H
17
09
0*
1(
0G
0C
#2990000
0!
0;
0<
#3055000
1!
1;
1<
0H
0D
08
07
0(
0)
1S
#3120000
0!
0;
0<
#3185000
1!
1;
1<
1T
12
1#
1=
