university/circuit-design/sem1/lab3/simulation/qsim/lab3.msim.vcd
$comment
	File created using the following command:
		vcd file lab3.msim.vcd -direction
$end
$date
	Thu Nov 12 18:03:01 2020
$end
$version
	ModelSim Version 10.5b
$end
$timescale
	1ps
$end

$scope module scheme_vlg_vec_tst $end
$var reg 1 ! C $end
$var reg 1 " E1 $end
$var reg 1 # E2 $end
$var reg 1 $ NRA $end
$var reg 1 % NSA $end
$var wire 1 & NQ1 $end
$var wire 1 ' NQ2 $end
$var wire 1 ( Q1 $end
$var wire 1 ) Q2 $end

$scope module i1 $end
$var wire 1 * gnd $end
$var wire 1 + vcc $end
$var wire 1 , unknown $end
$var tri1 1 - devclrn $end
$var tri1 1 . devpor $end
$var tri1 1 / devoe $end
$var wire 1 0 Q2~output_o $end
$var wire 1 1 Q1~output_o $end
$var wire 1 2 NQ2~output_o $end
$var wire 1 3 NQ1~output_o $end
$var wire 1 4 E2~input_o $end
$var wire 1 5 C~input_o $end
$var wire 1 6 NSA~input_o $end
$var wire 1 7 NRA~input_o $end
$var wire 1 8 E1~input_o $end
$var wire 1 9 inst4|inst2~1_combout $end
$var wire 1 : inst4|inst2~2_combout $end
$var wire 1 ; inst4|inst~0_combout $end
$var wire 1 < inst|inst2~0_combout $end
$var wire 1 = inst|inst~1_combout $end
$upscope $end
$upscope $end
$enddefinitions $end
#0
$dumpvars
0!
0"
0#
0$
1%
x&
x'
x(
x)
0*
1+
x,
1-
1.
1/
x0
x1
x2
x3
04
05
16
07
08
x9
x:
x;
x<
x=
$end
#3710
09
0<
#4323
0:
#4688
1;
#5447
1=
#6824
12
1'
#7351
13
1&
#8645
00
0)
#8805
01
0(
#25000
1$
#25517
17
#28955
19
#50000
1"
#50517
18
#75000
1#
0"
#75507
14
#75691
08
#100000
1!
#100507
15
#112500
0!
#113181
05
#125000
1"
#125517
18
#150000
1!
#150507
15
#154348
09
#162500
0!
#163181
05
#167376
19
#175000
0#
0"
#175681
04
#175691
08
#200000
1!
#200507
15
#204610
0;
#204983
1:
#208131
03
0&
#208646
11
1(
#212500
0!
#213181
05
#217603
0=
#218068
1<
#220676
10
1)
#221312
02
0'
#225000
1#
1"
#225507
14
#225517
18
#250000
1!
#250507
15
#254348
09
#254961
0:
#255326
1;
#257989
13
1&
#259443
01
0(
#262500
0!
#263181
05
#267367
0<
#267376
19
#267715
1=
#270481
12
1'
#270913
00
0)
#275000
0#
#275681
04
#300000
1!
#300507
15
#304610
0;
#304983
1:
#308131
03
0&
#308646
11
1(
#312500
0!
#313181
05
#317603
0=
#318068
1<
#320676
10
1)
#321312
02
0'
#325000
0"
#325691
08
#350000
1!
#350507
15
#362500
0!
#363181
05
#375000
1"
#375517
18
#400000
1!
#400507
15
#412500
0!
#413181
05
#425000
1#
0"
#425507
14
#425691
08
#450000
1!
#450507
15
#462500
0!
#463181
05
#475000
1"
#475517
18
#500000
0$
0#
0"
#500681
04
#500691
08
07
#504401
09
0<
#505014
0:
#505379
1;
#506138
1=
#507515
12
1'
#508042
13
1&
#509336
00
0)
#509496
01
0(
#525000
0%
1$
#525517
17
#525691
06
#528955
19
#529990
0;
0=
#530363
1:
#530944
1<
#533063
10
1)
#533511
03
0&
#534026
11
1(
#534188
02
0'
#550000
1%
#550517
16
#825000
1!
#825507
15
#837500
0!
#838181
05
#850000
1!
#850507
15
#862500
0!
#863181
05
#875000
1!
#875507
15
#887500
0!
#888181
05
#900000
1!
#900507
15
#912500
0!
#913181
05
#925000
1!
#925507
15
#937500
0!
#938181
05
#950000
1!
#950507
15
#962500
0!
#963181
05
#975000
1!
#975507
15
#987500
0!
#988181
05
