university/automata-theory/course-work/test-stands/stand_test_algoritm/stand/simulation/qsim/test.msim.vcd
$comment
	File created using the following command:
		vcd file test.msim.vcd -direction
$end
$date
	Sun Jun 14 15:19:02 2020
$end
$version
	ModelSim Version 10.5b
$end
$timescale
	1ps
$end

$scope module test_alg_vhd_vec_tst $end
$var wire 1 ! clk $end
$var wire 1 " defect $end
$var wire 1 # finish $end
$var wire 1 $ okey $end
$var wire 1 % reset $end
$var wire 1 & rez_test [7] $end
$var wire 1 ' rez_test [6] $end
$var wire 1 ( rez_test [5] $end
$var wire 1 ) rez_test [4] $end
$var wire 1 * rez_test [3] $end
$var wire 1 + rez_test [2] $end
$var wire 1 , rez_test [1] $end
$var wire 1 - rez_test [0] $end
$var wire 1 . rez_true [7] $end
$var wire 1 / rez_true [6] $end
$var wire 1 0 rez_true [5] $end
$var wire 1 1 rez_true [4] $end
$var wire 1 2 rez_true [3] $end
$var wire 1 3 rez_true [2] $end
$var wire 1 4 rez_true [1] $end
$var wire 1 5 rez_true [0] $end
$var wire 1 6 x [3] $end
$var wire 1 7 x [2] $end
$var wire 1 8 x [1] $end
$var wire 1 9 x [0] $end
$var wire 1 : y [3] $end
$var wire 1 ; y [2] $end
$var wire 1 < y [1] $end
$var wire 1 = y [0] $end

$scope module i1 $end
$var wire 1 > gnd $end
$var wire 1 ? vcc $end
$var wire 1 @ unknown $end
$var wire 1 A devoe $end
$var wire 1 B devclrn $end
$var wire 1 C devpor $end
$var wire 1 D ww_devoe $end
$var wire 1 E ww_devclrn $end
$var wire 1 F ww_devpor $end
$var wire 1 G ww_defect $end
$var wire 1 H ww_reset $end
$var wire 1 I ww_clk $end
$var wire 1 J ww_okey $end
$var wire 1 K ww_finish $end
$var wire 1 L ww_rez_test [7] $end
$var wire 1 M ww_rez_test [6] $end
$var wire 1 N ww_rez_test [5] $end
$var wire 1 O ww_rez_test [4] $end
$var wire 1 P ww_rez_test [3] $end
$var wire 1 Q ww_rez_test [2] $end
$var wire 1 R ww_rez_test [1] $end
$var wire 1 S ww_rez_test [0] $end
$var wire 1 T ww_rez_true [7] $end
$var wire 1 U ww_rez_true [6] $end
$var wire 1 V ww_rez_true [5] $end
$var wire 1 W ww_rez_true [4] $end
$var wire 1 X ww_rez_true [3] $end
$var wire 1 Y ww_rez_true [2] $end
$var wire 1 Z ww_rez_true [1] $end
$var wire 1 [ ww_rez_true [0] $end
$var wire 1 \ ww_x [3] $end
$var wire 1 ] ww_x [2] $end
$var wire 1 ^ ww_x [1] $end
$var wire 1 _ ww_x [0] $end
$var wire 1 ` ww_y [3] $end
$var wire 1 a ww_y [2] $end
$var wire 1 b ww_y [1] $end
$var wire 1 c ww_y [0] $end
$var wire 1 d \reset~inputclkctrl_INCLK_bus\ [3] $end
$var wire 1 e \reset~inputclkctrl_INCLK_bus\ [2] $end
$var wire 1 f \reset~inputclkctrl_INCLK_bus\ [1] $end
$var wire 1 g \reset~inputclkctrl_INCLK_bus\ [0] $end
$var wire 1 h \clk~inputclkctrl_INCLK_bus\ [3] $end
$var wire 1 i \clk~inputclkctrl_INCLK_bus\ [2] $end
$var wire 1 j \clk~inputclkctrl_INCLK_bus\ [1] $end
$var wire 1 k \clk~inputclkctrl_INCLK_bus\ [0] $end
$var wire 1 l \defect~output_o\ $end
$var wire 1 m \okey~output_o\ $end
$var wire 1 n \finish~output_o\ $end
$var wire 1 o \rez_test[7]~output_o\ $end
$var wire 1 p \rez_test[6]~output_o\ $end
$var wire 1 q \rez_test[5]~output_o\ $end
$var wire 1 r \rez_test[4]~output_o\ $end
$var wire 1 s \rez_test[3]~output_o\ $end
$var wire 1 t \rez_test[2]~output_o\ $end
$var wire 1 u \rez_test[1]~output_o\ $end
$var wire 1 v \rez_test[0]~output_o\ $end
$var wire 1 w \rez_true[7]~output_o\ $end
$var wire 1 x \rez_true[6]~output_o\ $end
$var wire 1 y \rez_true[5]~output_o\ $end
$var wire 1 z \rez_true[4]~output_o\ $end
$var wire 1 { \rez_true[3]~output_o\ $end
$var wire 1 | \rez_true[2]~output_o\ $end
$var wire 1 } \rez_true[1]~output_o\ $end
$var wire 1 ~ \rez_true[0]~output_o\ $end
$var wire 1 !! \x[3]~output_o\ $end
$var wire 1 "! \x[2]~output_o\ $end
$var wire 1 #! \x[1]~output_o\ $end
$var wire 1 $! \x[0]~output_o\ $end
$var wire 1 %! \y[3]~output_o\ $end
$var wire 1 &! \y[2]~output_o\ $end
$var wire 1 '! \y[1]~output_o\ $end
$var wire 1 (! \y[0]~output_o\ $end
$var wire 1 )! \clk~input_o\ $end
$var wire 1 *! \clk~inputclkctrl_outclk\ $end
$var wire 1 +! \inst|cnt[0]~8_combout\ $end
$var wire 1 ,! \reset~input_o\ $end
$var wire 1 -! \inst|cnt[1]~12\ $end
$var wire 1 .! \inst|cnt[2]~13_combout\ $end
$var wire 1 /! \inst|cnt[2]~14\ $end
$var wire 1 0! \inst|cnt[3]~15_combout\ $end
$var wire 1 1! \inst|cnt[3]~16\ $end
$var wire 1 2! \inst|cnt[4]~17_combout\ $end
$var wire 1 3! \inst|cnt[4]~18\ $end
$var wire 1 4! \inst|cnt[5]~19_combout\ $end
$var wire 1 5! \inst|cnt[5]~20\ $end
$var wire 1 6! \inst|cnt[6]~21_combout\ $end
$var wire 1 7! \inst|cnt[6]~22\ $end
$var wire 1 8! \inst|cnt[7]~23_combout\ $end
$var wire 1 9! \inst|Equal0~1_combout\ $end
$var wire 1 :! \inst|Equal0~0_combout\ $end
$var wire 1 ;! \inst|cnt[7]~10_combout\ $end
$var wire 1 <! \inst|cnt[0]~9\ $end
$var wire 1 =! \inst|cnt[1]~11_combout\ $end
$var wire 1 >! \inst26|xp[1]~2_combout\ $end
$var wire 1 ?! \inst26|Mult0|auto_generated|cs2a[1]~0_combout\ $end
$var wire 1 @! \inst26|xp[3]~0_combout\ $end
$var wire 1 A! \inst26|xp[2]~1_combout\ $end
$var wire 1 B! \inst26|Mult0|auto_generated|op_1~1\ $end
$var wire 1 C! \inst26|Mult0|auto_generated|op_1~2_combout\ $end
$var wire 1 D! \inst26|Mult0|auto_generated|op_1~0_combout\ $end
$var wire 1 E! \inst26|Mult0|auto_generated|_~12_combout\ $end
$var wire 1 F! \inst26|Mult0|auto_generated|op_3~1\ $end
$var wire 1 G! \inst26|Mult0|auto_generated|op_3~3\ $end
$var wire 1 H! \inst26|Mult0|auto_generated|op_3~5\ $end
$var wire 1 I! \inst26|Mult0|auto_generated|op_3~6_combout\ $end
$var wire 1 J! \inst26|Mult0|auto_generated|op_3~0_combout\ $end
$var wire 1 K! \inst26|Mult0|auto_generated|op_3~2_combout\ $end
$var wire 1 L! \inst26|Mult0|auto_generated|op_3~4_combout\ $end
$var wire 1 M! \inst26|Equal0~1_combout\ $end
$var wire 1 N! \inst6|rb[2]~1_combout\ $end
$var wire 1 O! \inst6|rb[3]~2_combout\ $end
$var wire 1 P! \inst26|Mult0|auto_generated|op_1~3\ $end
$var wire 1 Q! \inst26|Mult0|auto_generated|op_1~5\ $end
$var wire 1 R! \inst26|Mult0|auto_generated|op_1~6_combout\ $end
$var wire 1 S! \inst26|Mult0|auto_generated|op_1~4_combout\ $end
$var wire 1 T! \inst26|Mult0|auto_generated|op_3~7\ $end
$var wire 1 U! \inst26|Mult0|auto_generated|op_3~9\ $end
$var wire 1 V! \inst26|Mult0|auto_generated|op_3~10_combout\ $end
$var wire 1 W! \inst26|Mult0|auto_generated|op_1~7\ $end
$var wire 1 X! \inst26|Mult0|auto_generated|op_1~8_combout\ $end
$var wire 1 Y! \inst26|Mult0|auto_generated|op_3~11\ $end
$var wire 1 Z! \inst26|Mult0|auto_generated|op_3~12_combout\ $end
$var wire 1 [! \inst26|Mult0|auto_generated|op_3~8_combout\ $end
$var wire 1 \! \inst26|Mult0|auto_generated|op_1~9\ $end
$var wire 1 ]! \inst26|Mult0|auto_generated|op_1~10_combout\ $end
$var wire 1 ^! \inst26|Mult0|auto_generated|op_3~13\ $end
$var wire 1 _! \inst26|Mult0|auto_generated|op_3~14_combout\ $end
$var wire 1 `! \inst26|Equal0~0_combout\ $end
$var wire 1 a! \inst26|rez_true[7]~3_combout\ $end
$var wire 1 b! \inst26|process_0~0_combout\ $end
$var wire 1 c! \inst26|Add2~0_combout\ $end
$var wire 1 d! \inst26|Add2~2\ $end
$var wire 1 e! \inst26|Add2~4\ $end
$var wire 1 f! \inst26|Add2~6\ $end
$var wire 1 g! \inst26|Add2~7_combout\ $end
$var wire 1 h! \inst26|Add2~8\ $end
$var wire 1 i! \inst26|Add2~9_combout\ $end
$var wire 1 j! \inst6|Add0~0_combout\ $end
$var wire 1 k! \inst6|Add0~2\ $end
$var wire 1 l! \inst6|Add0~4\ $end
$var wire 1 m! \inst6|Add0~6\ $end
$var wire 1 n! \inst6|Add0~7_combout\ $end
$var wire 1 o! \inst6|Add0~5_combout\ $end
$var wire 1 p! \inst6|rc~1_combout\ $end
$var wire 1 q! \inst6|Add0~3_combout\ $end
$var wire 1 r! \inst6|rc~2_combout\ $end
$var wire 1 s! \inst6|rc~3_combout\ $end
$var wire 1 t! \inst6|Add0~1_combout\ $end
$var wire 1 u! \inst6|Add2~13\ $end
$var wire 1 v! \inst6|Add2~15\ $end
$var wire 1 w! \inst6|Add2~16_combout\ $end
$var wire 1 x! \inst6|Add2~27_combout\ $end
$var wire 1 y! \inst6|Add2~14_combout\ $end
$var wire 1 z! \inst6|Add2~28_combout\ $end
$var wire 1 {! \inst6|Add3~1\ $end
$var wire 1 |! \inst6|Add3~2_combout\ $end
$var wire 1 }! \inst6|Add3~16_combout\ $end
$var wire 1 ~! \inst6|Add4~0_combout\ $end
$var wire 1 !" \inst6|Add4~14_combout\ $end
$var wire 1 "" \inst6|Add0~8\ $end
$var wire 1 #" \inst6|Add0~9_combout\ $end
$var wire 1 $" \inst6|rc~0_combout\ $end
$var wire 1 %" \inst6|Add2~17\ $end
$var wire 1 &" \inst6|Add2~18_combout\ $end
$var wire 1 '" \inst6|Add2~26_combout\ $end
$var wire 1 (" \inst6|Add3~3\ $end
$var wire 1 )" \inst6|Add3~4_combout\ $end
$var wire 1 *" \inst6|Add3~15_combout\ $end
$var wire 1 +" \inst6|Add4~1\ $end
$var wire 1 ," \inst6|Add4~2_combout\ $end
$var wire 1 -" \inst6|Add4~13_combout\ $end
$var wire 1 ." \inst24|Equal0~0_combout\ $end
$var wire 1 /" \inst26|Add2~10\ $end
$var wire 1 0" \inst26|Add2~11_combout\ $end
$var wire 1 1" \inst26|Add2~12\ $end
$var wire 1 2" \inst26|Add2~13_combout\ $end
$var wire 1 3" \inst6|Add2~19\ $end
$var wire 1 4" \inst6|Add2~21\ $end
$var wire 1 5" \inst6|Add2~22_combout\ $end
$var wire 1 6" \inst6|Add2~24_combout\ $end
$var wire 1 7" \inst6|Add2~20_combout\ $end
$var wire 1 8" \inst6|Add2~25_combout\ $end
$var wire 1 9" \inst6|Add3~5\ $end
$var wire 1 :" \inst6|Add3~7\ $end
$var wire 1 ;" \inst6|Add3~8_combout\ $end
$var wire 1 <" \inst6|Add3~13_combout\ $end
$var wire 1 =" \inst6|Add3~6_combout\ $end
$var wire 1 >" \inst6|Add3~14_combout\ $end
$var wire 1 ?" \inst6|Add4~3\ $end
$var wire 1 @" \inst6|Add4~5\ $end
$var wire 1 A" \inst6|Add4~6_combout\ $end
$var wire 1 B" \inst6|Add4~11_combout\ $end
$var wire 1 C" \inst6|Add4~4_combout\ $end
$var wire 1 D" \inst6|Add4~12_combout\ $end
$var wire 1 E" \inst24|Equal0~1_combout\ $end
$var wire 1 F" \inst6|Add3~0_combout\ $end
$var wire 1 G" \inst6|Add3~17_combout\ $end
$var wire 1 H" \inst6|Add2~12_combout\ $end
$var wire 1 I" \inst6|Add2~29_combout\ $end
$var wire 1 J" \inst6|c[0]~0_combout\ $end
$var wire 1 K" \inst26|Add2~1_combout\ $end
$var wire 1 L" \inst26|Add2~3_combout\ $end
$var wire 1 M" \inst24|Equal0~2_combout\ $end
$var wire 1 N" \inst26|Add2~5_combout\ $end
$var wire 1 O" \inst24|Equal0~3_combout\ $end
$var wire 1 P" \inst6|Add3~9\ $end
$var wire 1 Q" \inst6|Add3~10_combout\ $end
$var wire 1 R" \inst6|Add3~12_combout\ $end
$var wire 1 S" \inst6|Add4~7\ $end
$var wire 1 T" \inst6|Add4~8_combout\ $end
$var wire 1 U" \inst6|Add4~10_combout\ $end
$var wire 1 V" \inst24|Equal0~4_combout\ $end
$var wire 1 W" \inst24|defect~0_combout\ $end
$var wire 1 X" \reset~inputclkctrl_outclk\ $end
$var wire 1 Y" \inst24|defect~q\ $end
$var wire 1 Z" \inst24|Equal0~5_combout\ $end
$var wire 1 [" \inst24|okey~q\ $end
$var wire 1 \" \inst|Equal0~2_combout\ $end
$var wire 1 ]" \inst26|rez_true[7]~2_combout\ $end
$var wire 1 ^" \inst26|Mult0|auto_generated|le3a\ [5] $end
$var wire 1 _" \inst26|Mult0|auto_generated|le3a\ [4] $end
$var wire 1 `" \inst26|Mult0|auto_generated|le3a\ [3] $end
$var wire 1 a" \inst26|Mult0|auto_generated|le3a\ [2] $end
$var wire 1 b" \inst26|Mult0|auto_generated|le3a\ [1] $end
$var wire 1 c" \inst26|Mult0|auto_generated|le3a\ [0] $end
$var wire 1 d" \inst|cnt\ [7] $end
$var wire 1 e" \inst|cnt\ [6] $end
$var wire 1 f" \inst|cnt\ [5] $end
$var wire 1 g" \inst|cnt\ [4] $end
$var wire 1 h" \inst|cnt\ [3] $end
$var wire 1 i" \inst|cnt\ [2] $end
$var wire 1 j" \inst|cnt\ [1] $end
$var wire 1 k" \inst|cnt\ [0] $end
$var wire 1 l" \inst26|Mult0|auto_generated|le4a\ [5] $end
$var wire 1 m" \inst26|Mult0|auto_generated|le4a\ [4] $end
$var wire 1 n" \inst26|Mult0|auto_generated|le4a\ [3] $end
$var wire 1 o" \inst26|Mult0|auto_generated|le4a\ [2] $end
$var wire 1 p" \inst26|Mult0|auto_generated|le4a\ [1] $end
$var wire 1 q" \inst26|Mult0|auto_generated|le4a\ [0] $end
$var wire 1 r" \inst26|Mult0|auto_generated|le5a\ [4] $end
$var wire 1 s" \inst26|Mult0|auto_generated|le5a\ [3] $end
$var wire 1 t" \inst26|Mult0|auto_generated|le5a\ [2] $end
$var wire 1 u" \inst26|Mult0|auto_generated|le5a\ [1] $end
$var wire 1 v" \inst26|Mult0|auto_generated|le5a\ [0] $end
$var wire 1 w" \ALT_INV_reset~inputclkctrl_outclk\ $end
$var wire 1 x" \inst24|ALT_INV_okey~q\ $end
$upscope $end
$upscope $end
$enddefinitions $end
#0
$dumpvars
0!
0"
0#
1$
1%
0>
1?
x@
1A
1B
1C
1D
1E
1F
0G
1H
0I
1J
0K
0l
1m
0n
0o
0p
0q
0r
0s
0t
0u
0v
0w
0x
0y
0z
0{
0|
0}
0~
0!!
0"!
0#!
0$!
0%!
0&!
0'!
0(!
0)!
0*!
1+!
1,!
1-!
0.!
0/!
00!
11!
02!
03!
04!
15!
06!
07!
08!
09!
0:!
1;!
0<!
0=!
0>!
0?!
0@!
0A!
0B!
0C!
0D!
0E!
0F!
1G!
0H!
0I!
0J!
0K!
0L!
1M!
0N!
0O!
1P!
0Q!
0R!
0S!
1T!
0U!
0V!
1W!
0X!
1Y!
0Z!
0[!
0\!
1]!
0^!
0_!
1`!
1a!
0b!
1c!
0d!
1e!
0f!
0g!
1h!
0i!
0j!
0k!
1l!
0m!
0n!
0o!
0p!
0q!
0r!
0s!
0t!
0u!
1v!
0w!
0x!
0y!
0z!
0{!
0|!
0}!
0~!
0!"
1""
0#"
0$"
0%"
0&"
0'"
1("
0)"
0*"
0+"
0,"
0-"
1."
0/"
00"
11"
02"
13"
04"
05"
06"
07"
08"
09"
1:"
0;"
0<"
0="
0>"
1?"
0@"
0A"
0B"
0C"
0D"
1E"
0F"
0G"
0H"
0I"
0J"
0K"
0L"
1M"
0N"
1O"
0P"
0Q"
0R"
1S"
0T"
0U"
1V"
0W"
1X"
0Y"
0Z"
0["
0\"
0]"
0w"
1x"
0L
0M
0N
0O
0P
0Q
0R
0S
0T
0U
0V
0W
0X
0Y
0Z
0[
0\
0]
0^
0_
0`
0a
0b
0c
0^"
0_"
0`"
0a"
0b"
0c"
0d"
0e"
0f"
0g"
0h"
0i"
0j"
0k"
0l"
0m"
0n"
0o"
0p"
0q"
xr"
0s"
0t"
0u"
0v"
1h
1i
1j
0k
1d
1e
1f
1g
0&
0'
0(
0)
0*
0+
0,
0-
0.
0/
00
01
02
03
04
05
06
07
08
09
0:
0;
0<
0=
$end
#1500
1!
1I
1)!
1k
1*!
#3000
0!
0I
0)!
0k
0*!
#4500
1!
1I
1)!
1k
1*!
#6000
0!
0I
0)!
0k
0*!
#7500
1!
1I
1)!
1k
1*!
#9000
0!
0I
0)!
0k
0*!
#10000
0%
0H
0,!
0g
0X"
1w"
#10500
1!
1I
1)!
1k
1*!
1k"
0+!
1<!
1j!
1t!
1=!
1$!
1H"
1F"
1~!
1_
19
#12000
0!
0I
0)!
0k
0*!
#13500
1!
1I
1)!
1k
1*!
0k"
1j"
0=!
0-!
1q!
1+!
0<!
1>!
0j!
0t!
1=!
1-!
1y!
1|!
1,"
1.!
1#!
0$!
0.!
0H"
0F"
0~!
1^
0_
09
18
#15000
0!
0I
0)!
0k
0*!
#16500
1!
1I
1)!
1k
1*!
1k"
0+!
1<!
1j!
1t!
0=!
0-!
1$!
1.!
1H"
1F"
1~!
1_
19
#18000
0!
0I
0)!
0k
0*!
#19500
1!
1I
1)!
1k
1*!
1i"
0k"
0j"
1=!
1-!
0q!
1+!
0<!
0>!
0j!
0.!
1/!
1A!
1o!
1w!
1)"
1C"
10!
0t!
0=!
0y!
0|!
0,"
1.!
0/!
0#!
0$!
1"!
00!
0H"
0F"
0~!
0^
0_
1]
09
08
17
#21000
0!
0I
0)!
0k
0*!
#22500
1!
1I
1)!
1k
1*!
1k"
0+!
1<!
1j!
1t!
1=!
1$!
1H"
1F"
1~!
1_
19
#24000
0!
0I
0)!
0k
0*!
#25500
1!
1I
1)!
1k
1*!
0k"
1j"
0=!
0-!
1q!
1+!
0<!
1>!
0j!
0t!
1=!
1-!
1y!
1|!
1,"
0.!
1/!
1#!
0$!
10!
1.!
0/!
0H"
0F"
0~!
1^
0_
09
18
00!
#27000
0!
0I
0)!
0k
0*!
#28500
1!
1I
1)!
1k
1*!
1k"
0+!
1<!
1j!
1t!
0=!
0-!
1$!
0.!
1/!
1H"
1F"
1~!
1_
19
10!
#30000
0!
0I
0)!
0k
0*!
#31500
1!
1I
1)!
1k
1*!
0i"
1h"
0k"
0j"
1=!
1-!
0q!
1+!
0<!
0j!
00!
01!
0>!
1b!
1n!
1#"
1.!
0/!
1@!
0A!
0o!
0w!
0)"
0C"
10!
11!
17"
15"
1;"
1Q"
1T"
1&"
1="
1A"
12!
0t!
0=!
0y!
0|!
0,"
0.!
0#!
0$!
1!!
0"!
0H"
0F"
0~!
02!
0^
0_
1\
0]
09
08
07
16
#33000
0!
0I
0)!
0k
0*!
#34500
1!
1I
1)!
1k
1*!
1k"
0+!
1<!
1>!
0@!
1A!
1j!
1t!
1=!
1$!
1H"
1F"
1~!
1_
19
#36000
0!
0I
0)!
0k
0*!
#37500
1!
1I
1)!
1k
1*!
0k"
1j"
0=!
0-!
1q!
1+!
0<!
0j!
0t!
1=!
1-!
1y!
1|!
1,"
1.!
1#!
0$!
0.!
0H"
0F"
0~!
1^
0_
09
18
#39000
0!
0I
0)!
0k
0*!
#40500
1!
1I
1)!
1k
1*!
1k"
0+!
1<!
0>!
1j!
1t!
0=!
0-!
1$!
1.!
1H"
1F"
1~!
1_
19
#42000
0!
0I
0)!
0k
0*!
#43500
1!
1I
1)!
1k
1*!
1i"
0k"
0j"
1=!
1-!
0q!
1+!
0<!
0j!
0.!
1/!
1o!
1w!
1)"
1C"
00!
01!
0t!
0=!
0y!
0|!
0,"
1.!
0/!
0#!
0$!
1"!
10!
11!
0H"
0F"
0~!
12!
0^
0_
1]
09
08
17
02!
#45000
0!
0I
0)!
0k
0*!
#46500
1!
1I
1)!
1k
1*!
1k"
0+!
1<!
1>!
0A!
1j!
1t!
1=!
1$!
1H"
1F"
1~!
1_
19
#48000
0!
0I
0)!
0k
0*!
#49500
1!
1I
1)!
1k
1*!
0k"
1j"
0=!
0-!
1q!
1+!
0<!
0j!
0t!
1=!
1-!
1y!
1|!
1,"
0.!
1/!
1#!
0$!
00!
01!
1.!
0/!
0H"
0F"
0~!
1^
0_
09
18
10!
11!
12!
02!
#51000
0!
0I
0)!
0k
0*!
#52500
1!
1I
1)!
1k
1*!
1k"
0+!
1<!
0>!
1j!
1t!
0=!
0-!
1$!
0.!
1/!
1H"
1F"
1~!
1_
19
00!
01!
12!
#54000
0!
0I
0)!
0k
0*!
#55500
1!
1I
1)!
1k
1*!
0i"
0h"
1g"
0k"
0j"
1=!
1-!
0q!
1+!
0<!
0j!
02!
13!
1p!
1r!
1s!
1x!
1z!
1$"
1'"
16"
18"
1I"
1J"
10!
11!
0b!
0n!
0#"
1.!
0/!
0o!
0r!
0z!
0C"
00!
0$"
0'"
06"
08"
0T"
0p!
0x!
0A"
12!
03!
0M"
1>"
1<"
1R"
1*"
0F"
1{!
1G"
1}!
0H"
1u!
14!
0t!
0=!
0s!
0,"
0I"
0.!
0#!
0$!
1(!
0!!
0"!
0u!
0J"
1!"
1,"
1-"
1T"
1A"
1C"
0O"
04!
1B"
0}!
0w!
1U"
0="
0>"
0;"
0<"
0Q"
0R"
0)"
0*"
0&"
07"
05"
1D"
0{!
0G"
0^
0_
1c
0\
0]
1v
1u
09
08
07
06
1=
0|!
0,"
0T"
0A"
0C"
0~!
0!"
0E"
0V"
0D"
0B"
0U"
0-"
0."
1M"
0y!
1S
1R
0u
1t
1-
1,
1O"
1E"
1W"
1Z"
1."
0R
1Q
0t
1q
1o
1p
1r
1s
0v
0,
1+
1V"
0Q
1N
1L
1M
1O
1P
0S
0r
0o
0p
0q
0s
0-
0+
1*
1)
1(
1'
1&
0W"
0Z"
0O
0L
0M
0N
0P
0*
0)
0(
0'
0&
#57000
0!
0I
0)!
0k
0*!
#58500
1!
1I
1)!
1k
1*!
1k"
0+!
1<!
1c"
1j!
1t!
1J!
1=!
1$!
0M!
0c!
1H"
1F"
1~!
1J"
1_
19
0M"
1K"
1M"
0O"
1v
0V"
1O"
1S
1~
1-
1V"
1W"
1Z"
1[
15
0W"
0Z"
#60000
0!
0I
0)!
0k
0*!
#61500
1!
1I
1)!
1k
1*!
0k"
1j"
0=!
0-!
1q!
1+!
0<!
1>!
0c"
0j!
0t!
0J!
1b"
1=!
1-!
1s!
1y!
1|!
1,"
1I"
1.!
1#!
0$!
0M"
0.!
1K!
1M!
1c!
0F"
0~!
0J"
1^
0_
09
18
0K"
0M!
1L"
0O"
1u
0V"
1M"
1R
0v
1,
1O"
1W"
1Z"
0S
1}
0~
0-
1V"
1Z
0[
05
14
0W"
0Z"
#63000
0!
0I
0)!
0k
0*!
#64500
1!
1I
1)!
1k
1*!
1k"
0+!
1<!
1c"
1j!
1t!
1J!
0=!
0-!
1$!
1.!
0c!
0H"
1u!
1F"
1~!
1J"
1_
19
0M"
0y!
0v!
1K"
1M"
1w!
0O"
1v
0V"
1O"
1S
1~
1-
1V"
1W"
1Z"
1[
15
0W"
0Z"
#66000
0!
0I
0)!
0k
0*!
#67500
1!
1I
1)!
1k
1*!
1i"
0k"
0j"
1=!
1-!
0q!
1+!
0<!
0>!
0c"
0j!
0.!
1/!
1A!
1o!
1r!
0w!
1%"
1z!
1)"
1C"
10!
0t!
0J!
1a"
0b"
0=!
0s!
1y!
1v!
0|!
0,"
0I"
1.!
0/!
0#!
0$!
1"!
00!
0M"
1w!
0%"
0K!
1D!
1c!
0u!
0~!
0J"
1G"
1&"
0y!
0v!
0^
0_
1]
09
08
17
0w!
1%"
1y!
1v!
0K"
1L!
1M!
0L"
0&"
0O"
0u
0V"
0M!
1N"
1M"
1w!
0%"
1&"
0R
1t
0v
0,
0&"
1O"
1W"
1Z"
1Q
0S
0}
0~
0-
1+
1V"
0Z
0[
1|
05
04
0W"
0Z"
1Y
13
#69000
0!
0I
0)!
0k
0*!
#70500
1!
1I
1)!
1k
1*!
1k"
0+!
1<!
1c"
1j!
1t!
1J!
1=!
1$!
0c!
1H"
0F"
1{!
1~!
1J"
1_
19
0M"
1|!
1K"
1M"
0O"
1v
0V"
1O"
1S
1~
1-
1V"
1W"
1Z"
1[
15
0W"
0Z"
#72000
0!
0I
0)!
0k
0*!
#73500
1!
1I
1)!
1k
1*!
0k"
1j"
0=!
0-!
1q!
1+!
0<!
1>!
0c"
0j!
0t!
0J!
1b"
1=!
1-!
1s!
0y!
0v!
0|!
0("
1,"
1I"
0.!
1/!
1#!
0$!
10!
0M"
0)"
19"
0w!
1%"
1.!
0/!
1K!
1c!
1F"
0{!
0~!
0J"
1^
0_
09
18
1|!
1("
0K"
1L"
00!
1&"
1="
0O"
1u
0V"
1M"
1)"
09"
1R
0v
1,
0="
1O"
1W"
1Z"
0S
1}
0~
0-
1V"
1Z
0[
05
14
0W"
0Z"
#75000
0!
0I
0)!
0k
0*!
#76500
1!
1I
1)!
1k
1*!
1k"
0+!
1<!
1:!
1c"
1j!
1t!
1J!
0=!
0-!
1$!
0.!
1/!
0c!
0H"
1u!
0F"
1{!
1~!
1J"
1_
19
0M"
0|!
0("
1y!
1K"
10!
1M"
0)"
19"
0O"
1v
0V"
1="
1O"
1S
1~
1-
1V"
1W"
1Z"
1[
15
0W"
0Z"
#78000
0!
0I
0)!
0k
0*!
#79500
1!
1I
1)!
1k
1*!
0i"
1h"
0k"
0j"
1=!
1-!
0q!
1+!
0<!
0c"
0j!
00!
01!
0>!
0a!
1b!
1n!
1#"
1.!
0/!
0:!
1@!
0A!
0o!
0r!
1w!
0%"
0z!
1)"
09"
0C"
1`"
10!
11!
1$"
1'"
17"
15"
16"
18"
1;"
1Q"
1T"
1p!
1x!
0&"
03"
0="
0:"
1A"
1c!
1]"
0K"
1d!
0L"
0N"
1g!
1i!
10"
12"
0V"
0a"
0b"
02!
13!
0t!
0J!
0=!
0s!
0y!
1|!
1("
0,"
0I"
0.!
0#!
0$!
1!!
0"!
0c!
0u!
0~!
0J"
14!
0K!
0D!
1W"
1Z"
0E"
0."
0O"
1L"
0M"
1K"
0d!
0|!
0("
1}!
0w!
1%"
1>"
1P"
1<"
0Q"
1R"
14"
05"
12!
03!
1C!
1*"
0{!
0G"
1y!
1v!
0^
0_
1\
0]
09
08
07
16
1w!
0%"
1|!
1("
1,"
1-"
1I!
04!
15"
0T"
1U"
0A"
0S"
1B"
1Q"
1C"
1D"
1&"
1~!
0)"
19"
0L!
1!"
0y!
0K"
1d!
0u
1x
1y
1z
1{
0|
0}
0~
1w
0L"
0e!
1N"
1="
1E"
1T"
0g!
1."
1)"
09"
0&"
0R
1U
1V
1W
1X
0Y
0Z
0[
1T
0t
1~
1}
0v
0,
05
04
03
12
11
10
1/
1.
0="
0."
0N"
1f!
1M"
0Q
1[
1Z
0S
0~
1s
1q
1p
1o
1r
0-
0+
15
14
1g!
1O"
0[
1P
1N
1M
1L
1O
0{
1|
0}
05
1*
1)
1(
1'
1&
1V"
1."
0X
1Y
0Z
0|
04
13
02
0W"
0Z"
0Y
1{
03
1X
12
#81000
0!
0I
0)!
0k
0*!
#82500
1!
1I
1)!
1k
1*!
1k"
0+!
1<!
1>!
0@!
1A!
1c"
1j!
1t!
1J!
0`"
1a"
1b"
1=!
1$!
1K!
1D!
0C!
1c!
1H"
1F"
0~!
1+"
1J"
1_
19
0M"
0,"
0?"
1K"
0d!
0I!
1L!
1L"
1e!
0f!
0g!
0h!
0L"
0C"
1@"
0O"
1v
0V"
1A"
1M"
0i!
1/"
0."
1g!
1h!
1S
1}
1~
1-
1i!
0/"
00"
01"
1O"
1W"
1Z"
1Z
1[
0}
0{
15
14
1V"
02"
0E"
10"
11"
1."
0Z
0X
1{
0z
04
02
12"
1X
0W
0y
1z
12
01
1E"
0V
1W
1y
0x
11
00
0W"
0Z"
1V
0U
1x
10
0/
1U
1/
#84000
0!
0I
0)!
0k
0*!
#85500
1!
1I
1)!
1k
1*!
0k"
1j"
0=!
0-!
1q!
1+!
0<!
0c"
0j!
0t!
0J!
1=!
1-!
1s!
1y!
0|!
0("
1,"
1I"
1.!
1#!
0$!
0M"
0)"
19"
0.!
0c!
0F"
1~!
0+"
0J"
1^
0_
09
18
0,"
0K"
1d!
1="
0O"
1u
0V"
1L"
1R
0v
1,
1M"
1W"
1Z"
0S
0~
0-
1O"
0[
1}
05
1V"
1Z
14
0W"
0Z"
#87000
0!
0I
0)!
0k
0*!
#88500
1!
1I
1)!
1k
1*!
1k"
0+!
1<!
0>!
1c"
1j!
1t!
1J!
0b"
0=!
0-!
1$!
1.!
0K!
1c!
0H"
1u!
1F"
0~!
1+"
1J"
1_
19
0M"
1,"
0y!
0v!
1K"
0d!
0L"
0e!
1N"
1L"
1e!
0w!
1%"
0O"
1v
0V"
1&"
0N"
1M"
1S
0}
1~
1-
1O"
1W"
1Z"
0Z
1[
1}
1|
15
04
1V"
1Z
1Y
0|
14
13
0W"
0Z"
0Y
03
#90000
0!
0I
0)!
0k
0*!
