university/automata-theory/course-work/quartus/simulation/qsim/kursovaya.msim.vcd
$comment
	File created using the following command:
		vcd file kursovaya.msim.vcd -direction
$end
$date
	Sat Apr 25 18:09:31 2020
$end
$version
	ModelSim Version 10.5b
$end
$timescale
	1ps
$end

$scope module mealy_vlg_vec_tst $end
$var reg 1 ! CLK $end
$var reg 1 " CLRN $end
$var reg 1 # ENA $end
$var reg 1 $ x1 $end
$var reg 1 % x2 $end
$var wire 1 & tay1 $end
$var wire 1 ' tay2 $end
$var wire 1 ( y1 $end
$var wire 1 ) y2 $end
$var wire 1 * y3 $end

$scope module i1 $end
$var wire 1 + gnd $end
$var wire 1 , vcc $end
$var wire 1 - unknown $end
$var tri1 1 . devclrn $end
$var tri1 1 / devpor $end
$var tri1 1 0 devoe $end
$var wire 1 1 y1~output_o $end
$var wire 1 2 tay2~output_o $end
$var wire 1 3 tay1~output_o $end
$var wire 1 4 y2~output_o $end
$var wire 1 5 y3~output_o $end
$var wire 1 6 x1~input_o $end
$var wire 1 7 CLK~input_o $end
$var wire 1 8 CLK~inputclkctrl_outclk $end
$var wire 1 9 x2~input_o $end
$var wire 1 : inst15~0_combout $end
$var wire 1 ; CLRN~input_o $end
$var wire 1 < CLRN~inputclkctrl_outclk $end
$var wire 1 = ENA~input_o $end
$var wire 1 > inst32~q $end
$var wire 1 ? inst~0_combout $end
$var wire 1 @ inst~q $end
$var wire 1 A inst18~0_combout $end
$var wire 1 B inst23~combout $end
$var wire 1 C inst27~combout $end
$upscope $end
$upscope $end
$enddefinitions $end
#0
$dumpvars
1!
0"
1#
0$
1%
0&
0'
0(
1)
0*
0+
1,
x-
1.
1/
10
01
02
03
14
05
06
17
18
19
1:
0;
0<
1=
0>
1?
0@
0A
1B
0C
$end
#5000
0!
07
08
#10000
1"
0%
1!
1;
09
17
1<
18
1C
15
1*
1@
1>
12
13
1&
1'
0C
0B
0:
04
05
0*
0)
#15000
0!
07
08
#20000
1!
17
18
0>
02
0'
1C
0?
15
1*
#25000
0!
07
08
#30000
1$
1!
16
17
18
1A
1:
11
1(
0@
03
0&
#35000
0!
07
08
#40000
1%
0$
1!
19
06
17
18
0C
1B
0A
1?
01
14
05
0*
1)
0(
1>
12
1'
0B
1A
11
04
0)
1(
#45000
0!
07
08
#50000
1!
17
18
1@
13
1&
1C
0?
15
1*
#55000
0!
07
08
#60000
0%
1$
1!
09
16
17
18
0C
1?
05
0*
0@
03
0&
1C
0A
0:
01
15
1*
0(
#65000
0!
07
08
#70000
1%
0$
1!
19
06
17
18
0C
1A
1:
11
05
0*
1(
1@
0>
02
13
1&
0'
1C
0A
0?
0:
01
15
1*
0(
#75000
0!
07
08
#80000
1$
1!
16
17
18
1B
1A
11
14
1)
1(
0@
03
0&
0C
0B
1?
1:
04
05
0*
0)
#85000
0!
07
08
#90000
0%
1!
09
17
18
1C
0?
15
1*
1@
1>
12
13
1&
1'
0C
1?
05
0*
#95000
0!
07
08
#100000
1%
1!
19
17
18
1C
1B
0A
0:
01
14
15
1*
1)
0(
#105000
0!
07
08
#110000
0$
0%
1!
06
09
17
18
0C
0B
04
05
0*
0)
0>
02
0'
1C
0?
15
1*
#115000
0!
07
08
#120000
1$
1!
16
17
18
1A
1:
11
1(
0@
03
0&
#125000
0!
07
08
#130000
1%
1!
19
17
18
0C
1?
05
0*
1>
12
1'
1C
0?
15
1*
#135000
0!
07
08
#140000
0$
0%
1!
06
09
17
18
0C
0A
1?
0:
01
05
0*
0(
#145000
0!
07
08
#150000
1!
17
18
1@
0>
02
13
1&
0'
1C
0?
15
1*
#155000
0!
07
08
#160000
1!
17
18
0@
03
0&
1B
1?
1:
14
1)
#165000
0!
07
08
#170000
1!
17
18
1@
1>
12
13
1&
1'
0C
0B
0:
04
05
0*
0)
#175000
0!
07
08
#180000
1!
17
18
0>
02
0'
1C
0?
15
1*
#185000
0!
07
08
#190000
1!
17
18
0@
03
0&
1B
1?
1:
14
1)
#195000
0!
07
08
#200000
1!
17
18
1@
1>
12
13
1&
1'
0C
0B
0:
04
05
0*
0)
#205000
0!
07
08
#210000
1!
17
18
0>
02
0'
1C
0?
15
1*
#215000
0!
07
08
#220000
1!
17
18
0@
03
0&
1B
1?
1:
14
1)
#225000
0!
07
08
#230000
1!
17
18
1@
1>
12
13
1&
1'
0C
0B
0:
04
05
0*
0)
#235000
0!
07
08
#240000
1!
17
18
0>
02
0'
1C
0?
15
1*
#245000
0!
07
08
#250000
1!
17
18
0@
03
0&
1B
1?
1:
14
1)
#255000
0!
07
08
#260000
1!
17
18
1@
1>
12
13
1&
1'
0C
0B
0:
04
05
0*
0)
#265000
0!
07
08
#270000
1!
17
18
0>
02
0'
1C
0?
15
1*
#275000
0!
07
08
#280000
1!
17
18
0@
03
0&
1B
1?
1:
14
1)
#285000
0!
07
08
#290000
1!
17
18
1@
1>
12
13
1&
1'
0C
0B
0:
04
05
0*
0)
#295000
0!
07
08
#300000
1!
17
18
0>
02
0'
1C
0?
15
1*
#305000
0!
07
08
#310000
1!
17
18
0@
03
0&
1B
1?
1:
14
1)
#315000
0!
07
08
#320000
1!
17
18
1@
1>
12
13
1&
1'
0C
0B
0:
04
05
0*
0)
#325000
0!
07
08
#330000
1!
17
18
0>
02
0'
1C
0?
15
1*
#335000
0!
07
08
#340000
1!
17
18
0@
03
0&
1B
1?
1:
14
1)
#345000
0!
07
08
#350000
1!
17
18
1@
1>
12
13
1&
1'
0C
0B
0:
04
05
0*
0)
#355000
0!
07
08
#360000
1!
17
18
0>
02
0'
1C
0?
15
1*
#365000
0!
07
08
#370000
1!
17
18
0@
03
0&
1B
1?
1:
14
1)
#375000
0!
07
08
#380000
1!
17
18
1@
1>
12
13
1&
1'
0C
0B
0:
04
05
0*
0)
#385000
0!
07
08
#390000
1!
17
18
0>
02
0'
1C
0?
15
1*
#395000
0!
07
08
#400000
1!
17
18
0@
03
0&
1B
1?
1:
14
1)
#405000
0!
07
08
#410000
1!
17
18
1@
1>
12
13
1&
1'
0C
0B
0:
04
05
0*
0)
#415000
0!
07
08
#420000
1!
17
18
0>
02
0'
1C
0?
15
1*
#425000
0!
07
08
#430000
1!
17
18
0@
03
0&
1B
1?
1:
14
1)
#435000
0!
07
08
#440000
1!
17
18
1@
1>
12
13
1&
1'
0C
0B
0:
04
05
0*
0)
#445000
0!
07
08
#450000
1!
17
18
0>
02
0'
1C
0?
15
1*
#455000
0!
07
08
#460000
1!
17
18
0@
03
0&
1B
1?
1:
14
1)
#465000
0!
07
08
#470000
1!
17
18
1@
1>
12
13
1&
1'
0C
0B
0:
04
05
0*
0)
#475000
0!
07
08
#480000
1!
17
18
0>
02
0'
1C
0?
15
1*
#485000
0!
07
08
#490000
1!
17
18
0@
03
0&
1B
1?
1:
14
1)
#495000
0!
07
08
#500000
1!
17
18
1@
1>
12
13
1&
1'
0C
0B
0:
04
05
0*
0)
#505000
0!
07
08
#510000
1!
17
18
0>
02
0'
1C
0?
15
1*
#515000
0!
07
08
#520000
1!
17
18
0@
03
0&
1B
1?
1:
14
1)
#525000
0!
07
08
#530000
1!
17
18
1@
1>
12
13
1&
1'
0C
0B
0:
04
05
0*
0)
#535000
0!
07
08
#540000
1!
17
18
0>
02
0'
1C
0?
15
1*
#545000
0!
07
08
#550000
1!
17
18
0@
03
0&
1B
1?
1:
14
1)
#555000
0!
07
08
#560000
1!
17
18
1@
1>
12
13
1&
1'
0C
0B
0:
04
05
0*
0)
#565000
0!
07
08
#570000
1!
17
18
0>
02
0'
1C
0?
15
1*
#575000
0!
07
08
#580000
1!
17
18
0@
03
0&
1B
1?
1:
14
1)
#585000
0!
07
08
#590000
1!
17
18
1@
1>
12
13
1&
1'
0C
0B
0:
04
05
0*
0)
#595000
0!
07
08
#600000
1!
17
18
0>
02
0'
1C
0?
15
1*
#605000
0!
07
08
#610000
1!
17
18
0@
03
0&
1B
1?
1:
14
1)
#615000
0!
07
08
#620000
1!
17
18
1@
1>
12
13
1&
1'
0C
0B
0:
04
05
0*
0)
#625000
0!
07
08
#630000
1!
17
18
0>
02
0'
1C
0?
15
1*
#635000
0!
07
08
#640000
1!
17
18
0@
03
0&
1B
1?
1:
14
1)
#645000
0!
07
08
#650000
1!
17
18
1@
1>
12
13
1&
1'
0C
0B
0:
04
05
0*
0)
#655000
0!
07
08
#660000
1!
17
18
0>
02
0'
1C
0?
15
1*
#665000
0!
07
08
#670000
1!
17
18
0@
03
0&
1B
1?
1:
14
1)
#675000
0!
07
08
#680000
1!
17
18
1@
1>
12
13
1&
1'
0C
0B
0:
04
05
0*
0)
#685000
0!
07
08
#690000
1!
17
18
0>
02
0'
1C
0?
15
1*
#695000
0!
07
08
#700000
1!
17
18
0@
03
0&
1B
1?
1:
14
1)
#705000
0!
07
08
#710000
1!
17
18
1@
1>
12
13
1&
1'
0C
0B
0:
04
05
0*
0)
#715000
0!
07
08
#720000
1!
17
18
0>
02
0'
1C
0?
15
1*
#725000
0!
07
08
#730000
1!
17
18
0@
03
0&
1B
1?
1:
14
1)
#735000
0!
07
08
#740000
1!
17
18
1@
1>
12
13
1&
1'
0C
0B
0:
04
05
0*
0)
#745000
0!
07
08
#750000
1!
17
18
0>
02
0'
1C
0?
15
1*
#755000
0!
07
08
#760000
1!
17
18
0@
03
0&
1B
1?
1:
14
1)
#765000
0!
07
08
#770000
1!
17
18
1@
1>
12
13
1&
1'
0C
0B
0:
04
05
0*
0)
#775000
0!
07
08
#780000
1!
17
18
0>
02
0'
1C
0?
15
1*
#785000
0!
07
08
#790000
1!
17
18
0@
03
0&
1B
1?
1:
14
1)
#795000
0!
07
08
#800000
1!
17
18
1@
1>
12
13
1&
1'
0C
0B
0:
04
05
0*
0)
#805000
0!
07
08
#810000
1!
17
18
0>
02
0'
1C
0?
15
1*
#815000
0!
07
08
#820000
1!
17
18
0@
03
0&
1B
1?
1:
14
1)
#825000
0!
07
08
#830000
1!
17
18
1@
1>
12
13
1&
1'
0C
0B
0:
04
05
0*
0)
#835000
0!
07
08
#840000
1!
17
18
0>
02
0'
1C
0?
15
1*
#845000
0!
07
08
#850000
1!
17
18
0@
03
0&
1B
1?
1:
14
1)
#855000
0!
07
08
#860000
1!
17
18
1@
1>
12
13
1&
1'
0C
0B
0:
04
05
0*
0)
#865000
0!
07
08
#870000
1!
17
18
0>
02
0'
1C
0?
15
1*
#875000
0!
07
08
#880000
1!
17
18
0@
03
0&
1B
1?
1:
14
1)
#885000
0!
07
08
#890000
1!
17
18
1@
1>
12
13
1&
1'
0C
0B
0:
04
05
0*
0)
#895000
0!
07
08
#900000
1!
17
18
0>
02
0'
1C
0?
15
1*
#905000
0!
07
08
#910000
1!
17
18
0@
03
0&
1B
1?
1:
14
1)
#915000
0!
07
08
#920000
1!
17
18
1@
1>
12
13
1&
1'
0C
0B
0:
04
05
0*
0)
#925000
0!
07
08
#930000
1!
17
18
0>
02
0'
1C
0?
15
1*
#935000
0!
07
08
#940000
1!
17
18
0@
03
0&
1B
1?
1:
14
1)
#945000
0!
07
08
#950000
1!
17
18
1@
1>
12
13
1&
1'
0C
0B
0:
04
05
0*
0)
#955000
0!
07
08
#960000
1!
17
18
0>
02
0'
1C
0?
15
1*
#965000
0!
07
08
#970000
1!
17
18
0@
03
0&
1B
1?
1:
14
1)
#975000
0!
07
08
#980000
1!
17
18
1@
1>
12
13
1&
1'
0C
0B
0:
04
05
0*
0)
#985000
0!
07
08
#990000
1!
17
18
0>
02
0'
1C
0?
15
1*
#995000
0!
07
08
