university/automata-theory/course-work/test-stands/TSTAND/simulation/qsim/tstand.msim.vcd
$comment
	File created using the following command:
		vcd file tstand.msim.vcd -direction
$end
$date
	Fri Jun 12 20:06:12 2020
$end
$version
	ModelSim Version 10.5b
$end
$timescale
	1ps
$end

$scope module tstand_vhd_vec_tst $end
$var wire 1 ! clk $end
$var wire 1 " clr $end
$var wire 1 # en $end
$var wire 1 $ rez $end
$var wire 1 % rez_mura $end
$var wire 1 & rez_y $end
$var wire 1 ' s_true [1] $end
$var wire 1 ( s_true [0] $end
$var wire 1 ) t1 $end
$var wire 1 * t2 $end
$var wire 1 + tt1 $end
$var wire 1 , tt2 $end
$var wire 1 - tt3 $end
$var wire 1 . x1 $end
$var wire 1 / x2 $end
$var wire 1 0 y1 $end
$var wire 1 1 y2 $end
$var wire 1 2 y3 $end
$var wire 1 3 y_true [2] $end
$var wire 1 4 y_true [1] $end
$var wire 1 5 y_true [0] $end
$var wire 1 6 yy1 $end
$var wire 1 7 yy2 $end
$var wire 1 8 yy3 $end

$scope module i1 $end
$var wire 1 9 gnd $end
$var wire 1 : vcc $end
$var wire 1 ; unknown $end
$var wire 1 < devoe $end
$var wire 1 = devclrn $end
$var wire 1 > devpor $end
$var wire 1 ? ww_devoe $end
$var wire 1 @ ww_devclrn $end
$var wire 1 A ww_devpor $end
$var wire 1 B ww_rez $end
$var wire 1 C ww_clk $end
$var wire 1 D ww_t1 $end
$var wire 1 E ww_x1 $end
$var wire 1 F ww_x2 $end
$var wire 1 G ww_en $end
$var wire 1 H ww_clr $end
$var wire 1 I ww_t2 $end
$var wire 1 J ww_s_true [1] $end
$var wire 1 K ww_s_true [0] $end
$var wire 1 L ww_rez_y $end
$var wire 1 M ww_y1 $end
$var wire 1 N ww_y2 $end
$var wire 1 O ww_y3 $end
$var wire 1 P ww_y_true [2] $end
$var wire 1 Q ww_y_true [1] $end
$var wire 1 R ww_y_true [0] $end
$var wire 1 S ww_rez_mura $end
$var wire 1 T ww_yy1 $end
$var wire 1 U ww_yy2 $end
$var wire 1 V ww_yy3 $end
$var wire 1 W ww_tt1 $end
$var wire 1 X ww_tt2 $end
$var wire 1 Y ww_tt3 $end
$var wire 1 Z \inst3|altsyncram_component|auto_generated|ram_block1a0_PORTAADDR_bus\ [6] $end
$var wire 1 [ \inst3|altsyncram_component|auto_generated|ram_block1a0_PORTAADDR_bus\ [5] $end
$var wire 1 \ \inst3|altsyncram_component|auto_generated|ram_block1a0_PORTAADDR_bus\ [4] $end
$var wire 1 ] \inst3|altsyncram_component|auto_generated|ram_block1a0_PORTAADDR_bus\ [3] $end
$var wire 1 ^ \inst3|altsyncram_component|auto_generated|ram_block1a0_PORTAADDR_bus\ [2] $end
$var wire 1 _ \inst3|altsyncram_component|auto_generated|ram_block1a0_PORTAADDR_bus\ [1] $end
$var wire 1 ` \inst3|altsyncram_component|auto_generated|ram_block1a0_PORTAADDR_bus\ [0] $end
$var wire 1 a \inst3|altsyncram_component|auto_generated|ram_block1a0_PORTADATAOUT_bus\ [17] $end
$var wire 1 b \inst3|altsyncram_component|auto_generated|ram_block1a0_PORTADATAOUT_bus\ [16] $end
$var wire 1 c \inst3|altsyncram_component|auto_generated|ram_block1a0_PORTADATAOUT_bus\ [15] $end
$var wire 1 d \inst3|altsyncram_component|auto_generated|ram_block1a0_PORTADATAOUT_bus\ [14] $end
$var wire 1 e \inst3|altsyncram_component|auto_generated|ram_block1a0_PORTADATAOUT_bus\ [13] $end
$var wire 1 f \inst3|altsyncram_component|auto_generated|ram_block1a0_PORTADATAOUT_bus\ [12] $end
$var wire 1 g \inst3|altsyncram_component|auto_generated|ram_block1a0_PORTADATAOUT_bus\ [11] $end
$var wire 1 h \inst3|altsyncram_component|auto_generated|ram_block1a0_PORTADATAOUT_bus\ [10] $end
$var wire 1 i \inst3|altsyncram_component|auto_generated|ram_block1a0_PORTADATAOUT_bus\ [9] $end
$var wire 1 j \inst3|altsyncram_component|auto_generated|ram_block1a0_PORTADATAOUT_bus\ [8] $end
$var wire 1 k \inst3|altsyncram_component|auto_generated|ram_block1a0_PORTADATAOUT_bus\ [7] $end
$var wire 1 l \inst3|altsyncram_component|auto_generated|ram_block1a0_PORTADATAOUT_bus\ [6] $end
$var wire 1 m \inst3|altsyncram_component|auto_generated|ram_block1a0_PORTADATAOUT_bus\ [5] $end
$var wire 1 n \inst3|altsyncram_component|auto_generated|ram_block1a0_PORTADATAOUT_bus\ [4] $end
$var wire 1 o \inst3|altsyncram_component|auto_generated|ram_block1a0_PORTADATAOUT_bus\ [3] $end
$var wire 1 p \inst3|altsyncram_component|auto_generated|ram_block1a0_PORTADATAOUT_bus\ [2] $end
$var wire 1 q \inst3|altsyncram_component|auto_generated|ram_block1a0_PORTADATAOUT_bus\ [1] $end
$var wire 1 r \inst3|altsyncram_component|auto_generated|ram_block1a0_PORTADATAOUT_bus\ [0] $end
$var wire 1 s \inst50|altsyncram_component|auto_generated|ram_block1a0_PORTAADDR_bus\ [3] $end
$var wire 1 t \inst50|altsyncram_component|auto_generated|ram_block1a0_PORTAADDR_bus\ [2] $end
$var wire 1 u \inst50|altsyncram_component|auto_generated|ram_block1a0_PORTAADDR_bus\ [1] $end
$var wire 1 v \inst50|altsyncram_component|auto_generated|ram_block1a0_PORTAADDR_bus\ [0] $end
$var wire 1 w \inst50|altsyncram_component|auto_generated|ram_block1a0_PORTADATAOUT_bus\ [17] $end
$var wire 1 x \inst50|altsyncram_component|auto_generated|ram_block1a0_PORTADATAOUT_bus\ [16] $end
$var wire 1 y \inst50|altsyncram_component|auto_generated|ram_block1a0_PORTADATAOUT_bus\ [15] $end
$var wire 1 z \inst50|altsyncram_component|auto_generated|ram_block1a0_PORTADATAOUT_bus\ [14] $end
$var wire 1 { \inst50|altsyncram_component|auto_generated|ram_block1a0_PORTADATAOUT_bus\ [13] $end
$var wire 1 | \inst50|altsyncram_component|auto_generated|ram_block1a0_PORTADATAOUT_bus\ [12] $end
$var wire 1 } \inst50|altsyncram_component|auto_generated|ram_block1a0_PORTADATAOUT_bus\ [11] $end
$var wire 1 ~ \inst50|altsyncram_component|auto_generated|ram_block1a0_PORTADATAOUT_bus\ [10] $end
$var wire 1 !! \inst50|altsyncram_component|auto_generated|ram_block1a0_PORTADATAOUT_bus\ [9] $end
$var wire 1 "! \inst50|altsyncram_component|auto_generated|ram_block1a0_PORTADATAOUT_bus\ [8] $end
$var wire 1 #! \inst50|altsyncram_component|auto_generated|ram_block1a0_PORTADATAOUT_bus\ [7] $end
$var wire 1 $! \inst50|altsyncram_component|auto_generated|ram_block1a0_PORTADATAOUT_bus\ [6] $end
$var wire 1 %! \inst50|altsyncram_component|auto_generated|ram_block1a0_PORTADATAOUT_bus\ [5] $end
$var wire 1 &! \inst50|altsyncram_component|auto_generated|ram_block1a0_PORTADATAOUT_bus\ [4] $end
$var wire 1 '! \inst50|altsyncram_component|auto_generated|ram_block1a0_PORTADATAOUT_bus\ [3] $end
$var wire 1 (! \inst50|altsyncram_component|auto_generated|ram_block1a0_PORTADATAOUT_bus\ [2] $end
$var wire 1 )! \inst50|altsyncram_component|auto_generated|ram_block1a0_PORTADATAOUT_bus\ [1] $end
$var wire 1 *! \inst50|altsyncram_component|auto_generated|ram_block1a0_PORTADATAOUT_bus\ [0] $end
$var wire 1 +! \clr~inputclkctrl_INCLK_bus\ [3] $end
$var wire 1 ,! \clr~inputclkctrl_INCLK_bus\ [2] $end
$var wire 1 -! \clr~inputclkctrl_INCLK_bus\ [1] $end
$var wire 1 .! \clr~inputclkctrl_INCLK_bus\ [0] $end
$var wire 1 /! \clk~inputclkctrl_INCLK_bus\ [3] $end
$var wire 1 0! \clk~inputclkctrl_INCLK_bus\ [2] $end
$var wire 1 1! \clk~inputclkctrl_INCLK_bus\ [1] $end
$var wire 1 2! \clk~inputclkctrl_INCLK_bus\ [0] $end
$var wire 1 3! \rez~output_o\ $end
$var wire 1 4! \t1~output_o\ $end
$var wire 1 5! \x1~output_o\ $end
$var wire 1 6! \x2~output_o\ $end
$var wire 1 7! \t2~output_o\ $end
$var wire 1 8! \s_true[1]~output_o\ $end
$var wire 1 9! \s_true[0]~output_o\ $end
$var wire 1 :! \rez_y~output_o\ $end
$var wire 1 ;! \y1~output_o\ $end
$var wire 1 <! \y2~output_o\ $end
$var wire 1 =! \y3~output_o\ $end
$var wire 1 >! \y_true[2]~output_o\ $end
$var wire 1 ?! \y_true[1]~output_o\ $end
$var wire 1 @! \y_true[0]~output_o\ $end
$var wire 1 A! \rez_mura~output_o\ $end
$var wire 1 B! \yy1~output_o\ $end
$var wire 1 C! \yy2~output_o\ $end
$var wire 1 D! \yy3~output_o\ $end
$var wire 1 E! \tt1~output_o\ $end
$var wire 1 F! \tt2~output_o\ $end
$var wire 1 G! \tt3~output_o\ $end
$var wire 1 H! \clk~input_o\ $end
$var wire 1 I! \clk~inputclkctrl_outclk\ $end
$var wire 1 J! \inst55|count[6]~42\ $end
$var wire 1 K! \inst55|count[7]~43_combout\ $end
$var wire 1 L! \inst55|count[17]~64\ $end
$var wire 1 M! \inst55|count[18]~65_combout\ $end
$var wire 1 N! \inst55|count[18]~66\ $end
$var wire 1 O! \inst55|count[19]~67_combout\ $end
$var wire 1 P! \inst55|count[19]~68\ $end
$var wire 1 Q! \inst55|count[20]~69_combout\ $end
$var wire 1 R! \inst55|count[20]~70\ $end
$var wire 1 S! \inst55|count[21]~71_combout\ $end
$var wire 1 T! \inst55|count[21]~72\ $end
$var wire 1 U! \inst55|count[22]~73_combout\ $end
$var wire 1 V! \inst55|count[22]~74\ $end
$var wire 1 W! \inst55|count[23]~75_combout\ $end
$var wire 1 X! \inst55|count[23]~76\ $end
$var wire 1 Y! \inst55|count[24]~77_combout\ $end
$var wire 1 Z! \inst55|count[24]~78\ $end
$var wire 1 [! \inst55|count[25]~79_combout\ $end
$var wire 1 \! \inst55|count[25]~80\ $end
$var wire 1 ]! \inst55|count[26]~81_combout\ $end
$var wire 1 ^! \inst55|count[26]~82\ $end
$var wire 1 _! \inst55|count[27]~83_combout\ $end
$var wire 1 `! \inst55|count[27]~84\ $end
$var wire 1 a! \inst55|count[28]~85_combout\ $end
$var wire 1 b! \inst55|count[28]~86\ $end
$var wire 1 c! \inst55|count[29]~87_combout\ $end
$var wire 1 d! \inst55|count[29]~88\ $end
$var wire 1 e! \inst55|count[30]~89_combout\ $end
$var wire 1 f! \inst55|count[30]~90\ $end
$var wire 1 g! \inst55|count[31]~91_combout\ $end
$var wire 1 h! \inst55|LessThan0~10_combout\ $end
$var wire 1 i! \inst55|count[7]~44\ $end
$var wire 1 j! \inst55|count[8]~45_combout\ $end
$var wire 1 k! \inst55|count[8]~46\ $end
$var wire 1 l! \inst55|count[9]~47_combout\ $end
$var wire 1 m! \inst55|count[9]~48\ $end
$var wire 1 n! \inst55|count[10]~49_combout\ $end
$var wire 1 o! \inst55|count[10]~50\ $end
$var wire 1 p! \inst55|count[11]~51_combout\ $end
$var wire 1 q! \inst55|count[11]~52\ $end
$var wire 1 r! \inst55|count[12]~53_combout\ $end
$var wire 1 s! \inst55|count[12]~54\ $end
$var wire 1 t! \inst55|count[13]~55_combout\ $end
$var wire 1 u! \inst55|count[13]~56\ $end
$var wire 1 v! \inst55|count[14]~57_combout\ $end
$var wire 1 w! \inst55|count[14]~58\ $end
$var wire 1 x! \inst55|count[15]~59_combout\ $end
$var wire 1 y! \inst55|count[15]~60\ $end
$var wire 1 z! \inst55|count[16]~61_combout\ $end
$var wire 1 {! \inst55|count[16]~62\ $end
$var wire 1 |! \inst55|count[17]~63_combout\ $end
$var wire 1 }! \inst55|LessThan0~5_combout\ $end
$var wire 1 ~! \inst55|LessThan0~6_combout\ $end
$var wire 1 !" \inst55|LessThan0~8_combout\ $end
$var wire 1 "" \inst55|LessThan0~7_combout\ $end
$var wire 1 #" \inst55|LessThan0~9_combout\ $end
$var wire 1 $" \inst55|count[0]~93_combout\ $end
$var wire 1 %" \inst55|count[1]~31_combout\ $end
$var wire 1 &" \inst55|count[1]~32\ $end
$var wire 1 '" \inst55|count[2]~33_combout\ $end
$var wire 1 (" \inst55|count[2]~34\ $end
$var wire 1 )" \inst55|count[3]~35_combout\ $end
$var wire 1 *" \inst55|count[3]~36\ $end
$var wire 1 +" \inst55|count[4]~37_combout\ $end
$var wire 1 ," \inst55|count[4]~38\ $end
$var wire 1 -" \inst55|count[5]~39_combout\ $end
$var wire 1 ." \inst55|count[5]~40\ $end
$var wire 1 /" \inst55|count[6]~41_combout\ $end
$var wire 1 0" \inst55|LessThan0~1_combout\ $end
$var wire 1 1" \inst55|LessThan0~2_combout\ $end
$var wire 1 2" \inst55|LessThan0~3_combout\ $end
$var wire 1 3" \inst55|LessThan0~0_combout\ $end
$var wire 1 4" \inst55|LessThan0~4_combout\ $end
$var wire 1 5" \inst37|lpm_counter_component|auto_generated|counter_comb_bita0~combout\ $end
$var wire 1 6" \inst37|lpm_counter_component|auto_generated|counter_comb_bita0~COUT\ $end
$var wire 1 7" \inst37|lpm_counter_component|auto_generated|counter_comb_bita1~combout\ $end
$var wire 1 8" \inst37|lpm_counter_component|auto_generated|counter_comb_bita1~COUT\ $end
$var wire 1 9" \inst37|lpm_counter_component|auto_generated|counter_comb_bita2~combout\ $end
$var wire 1 :" \inst37|lpm_counter_component|auto_generated|counter_comb_bita2~COUT\ $end
$var wire 1 ;" \inst37|lpm_counter_component|auto_generated|counter_comb_bita3~combout\ $end
$var wire 1 <" \inst37|lpm_counter_component|auto_generated|counter_comb_bita3~COUT\ $end
$var wire 1 =" \inst37|lpm_counter_component|auto_generated|counter_comb_bita4~combout\ $end
$var wire 1 >" \inst37|lpm_counter_component|auto_generated|counter_comb_bita4~COUT\ $end
$var wire 1 ?" \inst37|lpm_counter_component|auto_generated|counter_comb_bita5~combout\ $end
$var wire 1 @" \inst37|lpm_counter_component|auto_generated|counter_comb_bita5~COUT\ $end
$var wire 1 A" \inst37|lpm_counter_component|auto_generated|counter_comb_bita6~combout\ $end
$var wire 1 B" \inst|inst~0_combout\ $end
$var wire 1 C" \clr~input_o\ $end
$var wire 1 D" \clr~inputclkctrl_outclk\ $end
$var wire 1 E" \en~input_o\ $end
$var wire 1 F" \inst|inst~q\ $end
$var wire 1 G" \inst|inst15~0_combout\ $end
$var wire 1 H" \inst|inst32~q\ $end
$var wire 1 I" \inst55|Equal0~0_combout\ $end
$var wire 1 J" \inst55|Result~0_combout\ $end
$var wire 1 K" \inst55|Result~q\ $end
$var wire 1 L" \inst39|count[1]~31_combout\ $end
$var wire 1 M" \inst39|LessThan0~0_combout\ $end
$var wire 1 N" \inst39|LessThan0~1_combout\ $end
$var wire 1 O" \inst39|LessThan0~3_combout\ $end
$var wire 1 P" \inst39|LessThan0~2_combout\ $end
$var wire 1 Q" \inst39|LessThan0~4_combout\ $end
$var wire 1 R" \inst39|LessThan0~8_combout\ $end
$var wire 1 S" \inst39|LessThan0~6_combout\ $end
$var wire 1 T" \inst39|LessThan0~5_combout\ $end
$var wire 1 U" \inst39|LessThan0~7_combout\ $end
$var wire 1 V" \inst39|LessThan0~9_combout\ $end
$var wire 1 W" \inst39|count[0]~93_combout\ $end
$var wire 1 X" \inst39|count[1]~32\ $end
$var wire 1 Y" \inst39|count[2]~33_combout\ $end
$var wire 1 Z" \inst39|count[2]~34\ $end
$var wire 1 [" \inst39|count[3]~35_combout\ $end
$var wire 1 \" \inst39|count[3]~36\ $end
$var wire 1 ]" \inst39|count[4]~37_combout\ $end
$var wire 1 ^" \inst39|count[4]~38\ $end
$var wire 1 _" \inst39|count[5]~39_combout\ $end
$var wire 1 `" \inst39|count[5]~40\ $end
$var wire 1 a" \inst39|count[6]~41_combout\ $end
$var wire 1 b" \inst39|count[6]~42\ $end
$var wire 1 c" \inst39|count[7]~43_combout\ $end
$var wire 1 d" \inst39|count[7]~44\ $end
$var wire 1 e" \inst39|count[8]~45_combout\ $end
$var wire 1 f" \inst39|count[8]~46\ $end
$var wire 1 g" \inst39|count[9]~47_combout\ $end
$var wire 1 h" \inst39|count[9]~48\ $end
$var wire 1 i" \inst39|count[10]~49_combout\ $end
$var wire 1 j" \inst39|count[10]~50\ $end
$var wire 1 k" \inst39|count[11]~51_combout\ $end
$var wire 1 l" \inst39|count[11]~52\ $end
$var wire 1 m" \inst39|count[12]~53_combout\ $end
$var wire 1 n" \inst39|count[12]~54\ $end
$var wire 1 o" \inst39|count[13]~55_combout\ $end
$var wire 1 p" \inst39|count[13]~56\ $end
$var wire 1 q" \inst39|count[14]~57_combout\ $end
$var wire 1 r" \inst39|count[14]~58\ $end
$var wire 1 s" \inst39|count[15]~59_combout\ $end
$var wire 1 t" \inst39|count[15]~60\ $end
$var wire 1 u" \inst39|count[16]~61_combout\ $end
$var wire 1 v" \inst39|count[16]~62\ $end
$var wire 1 w" \inst39|count[17]~63_combout\ $end
$var wire 1 x" \inst39|count[17]~64\ $end
$var wire 1 y" \inst39|count[18]~65_combout\ $end
$var wire 1 z" \inst39|count[18]~66\ $end
$var wire 1 {" \inst39|count[19]~67_combout\ $end
$var wire 1 |" \inst39|count[19]~68\ $end
$var wire 1 }" \inst39|count[20]~69_combout\ $end
$var wire 1 ~" \inst39|count[20]~70\ $end
$var wire 1 !# \inst39|count[21]~71_combout\ $end
$var wire 1 "# \inst39|count[21]~72\ $end
$var wire 1 ## \inst39|count[22]~73_combout\ $end
$var wire 1 $# \inst39|count[22]~74\ $end
$var wire 1 %# \inst39|count[23]~75_combout\ $end
$var wire 1 &# \inst39|count[23]~76\ $end
$var wire 1 '# \inst39|count[24]~77_combout\ $end
$var wire 1 (# \inst39|count[24]~78\ $end
$var wire 1 )# \inst39|count[25]~79_combout\ $end
$var wire 1 *# \inst39|count[25]~80\ $end
$var wire 1 +# \inst39|count[26]~81_combout\ $end
$var wire 1 ,# \inst39|count[26]~82\ $end
$var wire 1 -# \inst39|count[27]~83_combout\ $end
$var wire 1 .# \inst39|count[27]~84\ $end
$var wire 1 /# \inst39|count[28]~85_combout\ $end
$var wire 1 0# \inst39|count[28]~86\ $end
$var wire 1 1# \inst39|count[29]~87_combout\ $end
$var wire 1 2# \inst39|count[29]~88\ $end
$var wire 1 3# \inst39|count[30]~89_combout\ $end
$var wire 1 4# \inst39|count[30]~90\ $end
$var wire 1 5# \inst39|count[31]~91_combout\ $end
$var wire 1 6# \inst39|LessThan0~10_combout\ $end
$var wire 1 7# \inst|inst18~0_combout\ $end
$var wire 1 8# \inst|inst23~combout\ $end
$var wire 1 9# \inst|inst27~combout\ $end
$var wire 1 :# \inst39|Equal0~0_combout\ $end
$var wire 1 ;# \inst39|Result_y~0_combout\ $end
$var wire 1 <# \inst39|Result_y~q\ $end
$var wire 1 =# \inst1|inst2~1_combout\ $end
$var wire 1 ># \inst1|inst2~0_combout\ $end
$var wire 1 ?# \inst1|inst2~2_combout\ $end
$var wire 1 @# \inst1|inst2~q\ $end
$var wire 1 A# \inst1|inst21~0_combout\ $end
$var wire 1 B# \inst1|inst21~1_combout\ $end
$var wire 1 C# \inst1|inst1~q\ $end
$var wire 1 D# \inst1|inst~0_combout\ $end
$var wire 1 E# \inst1|inst~1_combout\ $end
$var wire 1 F# \inst1|inst~q\ $end
$var wire 1 G# \inst1|inst36~0_combout\ $end
$var wire 1 H# \inst1|inst35~combout\ $end
$var wire 1 I# \inst1|inst31~combout\ $end
$var wire 1 J# \inst78|Equal0~0_combout\ $end
$var wire 1 K# \inst78|Result_mura~0_combout\ $end
$var wire 1 L# \inst78|Result_mura~q\ $end
$var wire 1 M# \inst39|count\ [31] $end
$var wire 1 N# \inst39|count\ [30] $end
$var wire 1 O# \inst39|count\ [29] $end
$var wire 1 P# \inst39|count\ [28] $end
$var wire 1 Q# \inst39|count\ [27] $end
$var wire 1 R# \inst39|count\ [26] $end
$var wire 1 S# \inst39|count\ [25] $end
$var wire 1 T# \inst39|count\ [24] $end
$var wire 1 U# \inst39|count\ [23] $end
$var wire 1 V# \inst39|count\ [22] $end
$var wire 1 W# \inst39|count\ [21] $end
$var wire 1 X# \inst39|count\ [20] $end
$var wire 1 Y# \inst39|count\ [19] $end
$var wire 1 Z# \inst39|count\ [18] $end
$var wire 1 [# \inst39|count\ [17] $end
$var wire 1 \# \inst39|count\ [16] $end
$var wire 1 ]# \inst39|count\ [15] $end
$var wire 1 ^# \inst39|count\ [14] $end
$var wire 1 _# \inst39|count\ [13] $end
$var wire 1 `# \inst39|count\ [12] $end
$var wire 1 a# \inst39|count\ [11] $end
$var wire 1 b# \inst39|count\ [10] $end
$var wire 1 c# \inst39|count\ [9] $end
$var wire 1 d# \inst39|count\ [8] $end
$var wire 1 e# \inst39|count\ [7] $end
$var wire 1 f# \inst39|count\ [6] $end
$var wire 1 g# \inst39|count\ [5] $end
$var wire 1 h# \inst39|count\ [4] $end
$var wire 1 i# \inst39|count\ [3] $end
$var wire 1 j# \inst39|count\ [2] $end
$var wire 1 k# \inst39|count\ [1] $end
$var wire 1 l# \inst39|count\ [0] $end
$var wire 1 m# \inst3|altsyncram_component|auto_generated|q_a\ [1] $end
$var wire 1 n# \inst3|altsyncram_component|auto_generated|q_a\ [0] $end
$var wire 1 o# \inst41|lpm_ff_component|dffs\ [2] $end
$var wire 1 p# \inst41|lpm_ff_component|dffs\ [1] $end
$var wire 1 q# \inst41|lpm_ff_component|dffs\ [0] $end
$var wire 1 r# \inst55|count\ [31] $end
$var wire 1 s# \inst55|count\ [30] $end
$var wire 1 t# \inst55|count\ [29] $end
$var wire 1 u# \inst55|count\ [28] $end
$var wire 1 v# \inst55|count\ [27] $end
$var wire 1 w# \inst55|count\ [26] $end
$var wire 1 x# \inst55|count\ [25] $end
$var wire 1 y# \inst55|count\ [24] $end
$var wire 1 z# \inst55|count\ [23] $end
$var wire 1 {# \inst55|count\ [22] $end
$var wire 1 |# \inst55|count\ [21] $end
$var wire 1 }# \inst55|count\ [20] $end
$var wire 1 ~# \inst55|count\ [19] $end
$var wire 1 !$ \inst55|count\ [18] $end
$var wire 1 "$ \inst55|count\ [17] $end
$var wire 1 #$ \inst55|count\ [16] $end
$var wire 1 $$ \inst55|count\ [15] $end
$var wire 1 %$ \inst55|count\ [14] $end
$var wire 1 &$ \inst55|count\ [13] $end
$var wire 1 '$ \inst55|count\ [12] $end
$var wire 1 ($ \inst55|count\ [11] $end
$var wire 1 )$ \inst55|count\ [10] $end
$var wire 1 *$ \inst55|count\ [9] $end
$var wire 1 +$ \inst55|count\ [8] $end
$var wire 1 ,$ \inst55|count\ [7] $end
$var wire 1 -$ \inst55|count\ [6] $end
$var wire 1 .$ \inst55|count\ [5] $end
$var wire 1 /$ \inst55|count\ [4] $end
$var wire 1 0$ \inst55|count\ [3] $end
$var wire 1 1$ \inst55|count\ [2] $end
$var wire 1 2$ \inst55|count\ [1] $end
$var wire 1 3$ \inst55|count\ [0] $end
$var wire 1 4$ \inst51|altsyncram_component|auto_generated|q_a\ [2] $end
$var wire 1 5$ \inst51|altsyncram_component|auto_generated|q_a\ [1] $end
$var wire 1 6$ \inst51|altsyncram_component|auto_generated|q_a\ [0] $end
$var wire 1 7$ \inst50|altsyncram_component|auto_generated|q_a\ [1] $end
$var wire 1 8$ \inst50|altsyncram_component|auto_generated|q_a\ [0] $end
$var wire 1 9$ \inst37|lpm_counter_component|auto_generated|counter_reg_bit\ [6] $end
$var wire 1 :$ \inst37|lpm_counter_component|auto_generated|counter_reg_bit\ [5] $end
$var wire 1 ;$ \inst37|lpm_counter_component|auto_generated|counter_reg_bit\ [4] $end
$var wire 1 <$ \inst37|lpm_counter_component|auto_generated|counter_reg_bit\ [3] $end
$var wire 1 =$ \inst37|lpm_counter_component|auto_generated|counter_reg_bit\ [2] $end
$var wire 1 >$ \inst37|lpm_counter_component|auto_generated|counter_reg_bit\ [1] $end
$var wire 1 ?$ \inst37|lpm_counter_component|auto_generated|counter_reg_bit\ [0] $end
$var wire 1 @$ \ALT_INV_clk~inputclkctrl_outclk\ $end
$var wire 1 A$ \inst1|ALT_INV_inst36~0_combout\ $end
$var wire 1 B$ \inst78|ALT_INV_Result_mura~q\ $end
$var wire 1 C$ \inst39|ALT_INV_Result_y~q\ $end
$var wire 1 D$ \inst55|ALT_INV_Result~q\ $end
$upscope $end
$upscope $end
$enddefinitions $end
#0
$dumpvars
0!
0"
0#
1$
1%
1&
0)
0*
0+
0,
0-
0.
0/
00
11
12
06
07
18
09
1:
x;
1<
1=
1>
1?
1@
1A
1B
0C
0D
0E
0F
0G
0H
0I
1L
0M
1N
1O
1S
0T
0U
1V
0W
0X
0Y
13!
04!
05!
06!
07!
08!
09!
1:!
0;!
1<!
1=!
0>!
0?!
0@!
1A!
0B!
0C!
1D!
0E!
0F!
0G!
0H!
0I!
1J!
0K!
0L!
0M!
1N!
0O!
0P!
0Q!
1R!
0S!
0T!
0U!
1V!
0W!
0X!
0Y!
1Z!
0[!
0\!
0]!
1^!
0_!
0`!
0a!
1b!
0c!
0d!
0e!
1f!
0g!
1h!
0i!
0j!
1k!
0l!
0m!
0n!
1o!
0p!
0q!
0r!
1s!
0t!
0u!
0v!
1w!
0x!
0y!
0z!
1{!
0|!
1}!
1~!
1!"
1""
1#"
1$"
0%"
0&"
0'"
1("
0)"
0*"
0+"
1,"
0-"
0."
0/"
10"
11"
12"
13"
14"
15"
06"
07"
18"
09"
0:"
0;"
1<"
0="
0>"
0?"
1@"
0A"
1B"
0C"
0D"
0E"
0F"
1G"
0H"
1I"
0J"
0K"
0L"
1M"
1N"
1O"
1P"
1Q"
1R"
1S"
1T"
1U"
1V"
1W"
0X"
0Y"
1Z"
0["
0\"
0]"
1^"
0_"
0`"
0a"
1b"
0c"
0d"
0e"
1f"
0g"
0h"
0i"
1j"
0k"
0l"
0m"
1n"
0o"
0p"
0q"
1r"
0s"
0t"
0u"
1v"
0w"
0x"
0y"
1z"
0{"
0|"
0}"
1~"
0!#
0"#
0##
1$#
0%#
0&#
0'#
1(#
0)#
0*#
0+#
1,#
0-#
0.#
0/#
10#
01#
02#
03#
14#
05#
16#
07#
18#
19#
1:#
0;#
0<#
1=#
1>#
1?#
0@#
0A#
0B#
0C#
0D#
1E#
0F#
0G#
0H#
0I#
1J#
0K#
0L#
1@$
1A$
1B$
1C$
1D$
0J
0K
0P
0Q
0R
0a
0b
0c
0d
0e
0f
0g
0h
0i
0j
0k
0l
0m
0n
0o
0p
0q
0r
0w
0x
0y
0z
0{
0|
0}
0~
0!!
0"!
0#!
0$!
0%!
0&!
0'!
0(!
0)!
0*!
0M#
0N#
0O#
0P#
0Q#
0R#
0S#
0T#
0U#
0V#
0W#
0X#
0Y#
0Z#
0[#
0\#
0]#
0^#
0_#
0`#
0a#
0b#
0c#
0d#
0e#
0f#
0g#
0h#
0i#
0j#
0k#
0l#
0m#
0n#
0o#
0p#
0q#
0r#
0s#
0t#
0u#
0v#
0w#
0x#
0y#
0z#
0{#
0|#
0}#
0~#
0!$
0"$
0#$
0$$
0%$
0&$
0'$
0($
0)$
0*$
0+$
0,$
0-$
0.$
0/$
00$
01$
02$
03$
04$
05$
06$
07$
08$
09$
0:$
0;$
0<$
0=$
0>$
0?$
1/!
10!
11!
02!
1+!
1,!
1-!
0.!
0'
0(
03
04
05
0Z
0[
0\
0]
0^
0_
0`
0s
0t
0u
0v
$end
#5000
1!
1C
1H!
12!
1I!
0@$
1?$
1p#
1q#
1`
0:#
05"
16"
17"
#5500
1q
1m#
1u
0B"
17#
08#
0E#
15!
1E
0<!
1;!
1.
0N
1M
01
10
#10000
0!
1"
1#
0C
1H
1G
1E"
1C"
0H!
1.!
02!
0I!
1D"
1@$
13$
1l#
1L"
0W"
0$"
1%"
03"
04"
0h!
1$"
1K#
#15000
1!
1C
1H!
12!
1I!
0@$
0?$
1>$
1H"
1o#
0p#
1@#
0`
1_
0>#
1B#
1H#
1B"
0G"
0I"
07#
07"
08"
15"
06"
17"
18"
19"
1J"
0J#
1G!
17!
09"
1Y
1I
0;!
1B!
1-
1*
0M
1T
00
16
#15500
1*!
1(!
1&!
1r
0q
18$
16$
14$
1n#
0m#
1v
0u
1t
0?#
1E#
1G"
17#
09#
1J#
1:#
1I"
0J"
0K#
05!
16!
1>!
1@!
19!
0E
1F
1P
1R
1K
0=!
1;!
0.
1/
15
13
1(
0O
1M
02
10
#20000
0!
0C
0H!
02!
0I!
1@$
1k#
0l#
1W"
0M"
0Q"
0W"
06#
#25000
1!
1C
1H!
12!
1I!
0@$
1?$
1F"
0q#
0@#
1C#
1F#
1`
1A#
0E#
0=#
1>#
1G#
0:#
0B"
0I"
19#
05"
16"
0A$
07"
08"
1J"
1;#
1K#
1?#
0B#
1E!
1F!
0G!
14!
19"
1W
1X
0Y
1D
1=!
1+
1,
0-
1)
0D!
1O
0V
12
08
#25500
1)!
0(!
1q
17$
06$
1m#
1u
1s
1B"
0G"
07#
18#
0?#
1D#
1:#
0K#
1I"
0J"
0;#
1E#
15!
0@!
18!
1E
0R
1J
1<!
0;!
1.
05
1'
1N
0M
11
00
#30000
0!
0C
0H!
02!
0I!
1@$
#35000
1!
1C
1H!
12!
1I!
0@$
0?$
0>$
1=$
0H"
0o#
1p#
1q#
0C#
0`
0_
1^
0>#
0G#
0H#
1I#
0:#
1;#
0B"
0I"
17#
09"
1:"
17"
18"
15"
06"
1A$
07"
19"
0:"
1;"
1J"
0J#
1K#
0F!
07!
0;"
0X
0I
1;!
1C!
0B!
0,
0*
1D!
1M
1U
0T
1V
10
17
06
18
