university/circuit-design/lab2/simulation/qsim/lab2.msim.vcd
$comment
	File created using the following command:
		vcd file lab2.msim.vcd -direction
$end
$date
	Sun Oct 11 15:22:22 2020
$end
$version
	ModelSim Version 2020.1
$end
$timescale
	1ps
$end

$scope module three_addr_vlg_vec_tst $end
$var reg 1 ! x1 $end
$var reg 1 " x2 $end
$var reg 1 # x3 $end
$var reg 1 $ x4 $end
$var wire 1 % f2 $end
$var wire 1 & f3 $end

$scope module i1 $end
$var wire 1 ' gnd $end
$var wire 1 ( vcc $end
$var wire 1 ) unknown $end
$var tri1 1 * devclrn $end
$var tri1 1 + devpor $end
$var tri1 1 , devoe $end
$var wire 1 - f2~output_o $end
$var wire 1 . f3~output_o $end
$var wire 1 / x3~input_o $end
$var wire 1 0 x1~input_o $end
$var wire 1 1 x4~input_o $end
$var wire 1 2 x2~input_o $end
$var wire 1 3 inst2|inst7~0_combout $end
$var wire 1 4 inst1|inst7~0_combout $end
$upscope $end
$upscope $end
$enddefinitions $end
#0
$dumpvars
0!
0"
0#
0$
x%
x&
0'
1(
x)
1*
1+
1,
x-
x.
0/
00
01
02
x3
x4
$end
#3940
03
#3952
14
#7000
1-
1%
#7134
1.
1&
#25000
1!
#25507
10
#28982
13
#28995
04
#32074
0.
0&
#32146
0-
0%
#50000
1"
0!
#50517
12
#50681
00
#75000
1!
#75507
10
#78976
03
#78977
14
#82036
1-
1%
#82159
1.
1&
#100000
1#
0"
0!
#100497
1/
#100681
00
#100691
02
#125000
1!
#125507
10
#150000
1"
0!
#150517
12
#150681
00
#175000
1!
#175507
10
#200000
1$
0#
0"
0!
#200507
11
#200671
0/
#200681
00
#200691
02
#225000
1!
#225507
10
#228982
13
#228995
04
#232074
0.
0&
#232146
0-
0%
#250000
1"
0!
#250517
12
#250681
00
#254412
14
#257594
1.
1&
#275000
1!
#275507
10
#278976
03
#282036
1-
1%
#300000
1#
0"
0!
#300497
1/
#300681
00
#300691
02
#304430
04
#304641
13
#304643
14
#307805
0-
0%
#325000
1!
#325507
10
#350000
1"
0!
#350517
12
#350681
00
#354182
03
#354183
04
#357242
1-
1%
#357262
0.
0&
#375000
1!
#375507
10
#378977
14
#382159
1.
1&
#400000
0$
0#
0"
0!
#400671
0/
#400681
00
01
#400691
02
