university/circuit-design/lab1/scheme1/simulation/qsim/lab1_scheme1.msim.vcd
$comment
	File created using the following command:
		vcd file lab1_scheme1.msim.vcd -direction
$end
$date
	Sun Sep 27 18:30:47 2020
$end
$version
	ModelSim Version 2020.1
$end
$timescale
	1ps
$end

$scope module lab1_scheme1_vlg_vec_tst $end
$var reg 1 ! x1 $end
$var reg 1 " x2 $end
$var reg 1 # x3 $end
$var reg 1 $ x4 $end
$var wire 1 % f1 $end

$scope module i1 $end
$var wire 1 & gnd $end
$var wire 1 ' vcc $end
$var wire 1 ( unknown $end
$var tri1 1 ) devclrn $end
$var tri1 1 * devpor $end
$var tri1 1 + devoe $end
$var wire 1 , f1~output_o $end
$var wire 1 - x3~input_o $end
$var wire 1 . x4~input_o $end
$var wire 1 / x1~input_o $end
$var wire 1 0 x2~input_o $end
$var wire 1 1 inst3|inst~0_combout $end
$upscope $end
$upscope $end
$enddefinitions $end
#0
$dumpvars
0!
0"
0#
0$
x%
0&
1'
x(
1)
1*
1+
x,
0-
0.
0/
00
x1
$end
#3756
01
#6757
1,
1%
#25000
1!
#25537
1/
#28821
11
#31944
0,
0%
#50000
1"
0!
#50497
10
#50711
0/
#53865
01
#56866
1,
1%
#75000
1!
#75537
1/
#100000
1#
0"
0!
#100497
1-
#100671
00
#100711
0/
#125000
1!
#125537
1/
#150000
1"
0!
#150497
10
#150711
0/
#175000
1!
#175537
1/
#200000
1$
0#
0"
0!
#200497
1.
#200671
00
0-
#200711
0/
#204299
11
#207422
0,
0%
#225000
1!
#225537
1/
#250000
1"
0!
#250497
10
#250711
0/
#253865
01
#256866
1,
1%
#275000
1!
#275537
1/
#300000
1#
0"
0!
#300497
1-
#300671
00
#300711
0/
#304235
11
#307358
0,
0%
#325000
1!
#325537
1/
#350000
1"
0!
#350497
10
#350711
0/
#353865
01
#354235
11
#375000
1!
#375537
1/
#378819
01
#381820
1,
1%
#400000
0$
0#
0"
0!
#400671
00
0-
0.
#400711
0/
