university/circuit-design/lab3/simulation/qsim/lab3.msim.vcd
$comment
	File created using the following command:
		vcd file lab3.msim.vcd -direction
$end
$date
	Fri Nov 06 19:02:35 2020
$end
$version
	ModelSim Version 10.5b
$end
$timescale
	1ps
$end

$scope module scheme_vlg_vec_tst $end
$var reg 1 ! C $end
$var reg 1 " E1 $end
$var reg 1 # E2 $end
$var reg 1 $ NRA $end
$var reg 1 % NSA $end
$var wire 1 & NQ1 $end
$var wire 1 ' NQ2 $end
$var wire 1 ( Q1 $end
$var wire 1 ) Q2 $end

$scope module i1 $end
$var wire 1 * gnd $end
$var wire 1 + vcc $end
$var wire 1 , unknown $end
$var tri1 1 - devclrn $end
$var tri1 1 . devpor $end
$var tri1 1 / devoe $end
$var wire 1 0 Q2~output_o $end
$var wire 1 1 Q1~output_o $end
$var wire 1 2 NQ2~output_o $end
$var wire 1 3 NQ1~output_o $end
$var wire 1 4 E2~input_o $end
$var wire 1 5 C~input_o $end
$var wire 1 6 NSA~input_o $end
$var wire 1 7 NRA~input_o $end
$var wire 1 8 E1~input_o $end
$var wire 1 9 inst4|inst2~1_combout $end
$var wire 1 : inst4|inst2~2_combout $end
$var wire 1 ; inst4|inst~0_combout $end
$var wire 1 < inst|inst2~0_combout $end
$var wire 1 = inst|inst~1_combout $end
$upscope $end
$upscope $end
$enddefinitions $end
#0
$dumpvars
0!
0"
0#
0$
1%
1&
1'
0(
0)
0*
1+
x,
1-
1.
1/
00
01
12
13
04
05
16
07
08
09
0:
1;
0<
1=
$end
#25000
1!
1$
15
17
0;
19
11
1:
1(
03
0&
#50000
0!
05
0=
10
1<
1)
02
0'
#75000
0%
06
#100000
1!
1%
15
16
#125000
0!
05
#150000
1"
0$
18
07
09
0<
12
0:
1'
13
1;
1&
01
1=
0(
00
0)
#175000
1!
1$
15
17
0;
19
11
1:
1(
03
0&
#200000
0!
05
0=
10
1<
1)
02
0'
#225000
0%
06
#250000
1!
1%
15
16
#275000
0!
05
#300000
1#
0"
0$
14
08
07
09
0<
12
0:
1'
13
1;
1&
01
1=
0(
00
0)
#325000
1!
1$
15
17
19
#350000
0!
05
#375000
0%
06
0=
0;
11
10
1:
1)
1(
03
1<
0&
02
0'
#400000
1!
1%
15
16
#425000
0!
05
#450000
1"
0$
18
07
09
0<
12
0:
1'
13
1;
1&
01
1=
0(
00
0)
#475000
1!
1$
15
17
#500000
0!
05
19
#525000
0%
06
0=
0;
11
10
1:
1)
1(
03
1<
0&
02
0'
#550000
1!
1%
15
16
09
0:
13
1;
1&
01
0(
#575000
0!
05
0<
19
12
1=
1'
00
0)
#600000
0#
0"
04
08
