university/circuit-design/lab3/simulation/qsim/lab3.msim.vcd
$comment
	File created using the following command:
		vcd file lab3.msim.vcd -direction
$end
$date
	Fri Nov 06 19:56:23 2020
$end
$version
	ModelSim Version 2020.1
$end
$timescale
	1ps
$end

$scope module scheme_vlg_vec_tst $end
$var reg 1 ! C $end
$var reg 1 " E1 $end
$var reg 1 # E2 $end
$var reg 1 $ NRA $end
$var reg 1 % NSA $end
$var wire 1 & NQ1 $end
$var wire 1 ' NQ2 $end
$var wire 1 ( Q1 $end
$var wire 1 ) Q2 $end

$scope module i1 $end
$var wire 1 * gnd $end
$var wire 1 + vcc $end
$var wire 1 , unknown $end
$var tri1 1 - devclrn $end
$var tri1 1 . devpor $end
$var tri1 1 / devoe $end
$var wire 1 0 Q2~output_o $end
$var wire 1 1 Q1~output_o $end
$var wire 1 2 NQ2~output_o $end
$var wire 1 3 NQ1~output_o $end
$var wire 1 4 E2~input_o $end
$var wire 1 5 C~input_o $end
$var wire 1 6 NSA~input_o $end
$var wire 1 7 NRA~input_o $end
$var wire 1 8 E1~input_o $end
$var wire 1 9 inst4|inst2~1_combout $end
$var wire 1 : inst4|inst2~2_combout $end
$var wire 1 ; inst4|inst~0_combout $end
$var wire 1 < inst|inst2~0_combout $end
$var wire 1 = inst|inst~1_combout $end
$upscope $end
$upscope $end
$enddefinitions $end
#0
$dumpvars
0!
0"
0#
0$
1%
x&
x'
x(
x)
0*
1+
x,
1-
1.
1/
x0
x1
x2
x3
04
05
16
07
08
x9
x:
x;
x<
x=
$end
#3710
09
0<
#4323
0:
#4688
1;
#5447
1=
#6824
12
1'
#7351
13
1&
#8645
00
0)
#8805
01
0(
#25000
1$
#25517
17
#28955
19
#75000
0%
#75691
06
#79990
0;
0=
#80363
1:
#80944
1<
#83063
10
1)
#83511
03
0&
#84026
11
1(
#84188
02
0'
#100000
1%
#100517
16
#150000
1"
0$
#150517
18
#150691
07
#154401
09
0<
#155014
0:
#155379
1;
#156138
1=
#157515
12
1'
#158042
13
1&
#159336
00
0)
#159496
01
0(
#175000
1$
#175517
17
#178955
19
#225000
0%
#225691
06
#229990
0;
0=
#230363
1:
#230944
1<
#233063
10
1)
#233511
03
0&
#234026
11
1(
#234188
02
0'
#250000
1%
#250517
16
#300000
1#
0"
0$
#300507
14
#300691
07
08
#304401
09
0<
#305014
0:
#305379
1;
#306138
1=
#307515
12
1'
#308042
13
1&
#309336
00
0)
#309496
01
0(
#325000
1$
#325517
17
#328955
19
#375000
0%
#375691
06
#379990
0;
0=
#380363
1:
#380944
1<
#383063
10
1)
#383511
03
0&
#384026
11
1(
#384188
02
0'
#400000
1%
#400517
16
#450000
1"
0$
#450517
18
#450691
07
#454401
09
0<
#455014
0:
#455379
1;
#456138
1=
#457515
12
1'
#458042
13
1&
#459336
00
0)
#459496
01
0(
#475000
1$
#475517
17
#478955
19
#525000
0%
#525691
06
#529990
0;
0=
#530363
1:
#530944
1<
#533063
10
1)
#533511
03
0&
#534026
11
1(
#534188
02
0'
#550000
1%
#550517
16
#600000
0#
0"
#600681
04
#600691
08
