university/automata-theory/course-work/test-stands/test_oy/simulation/qsim/TEST_OY.msim.vcd
$comment
	File created using the following command:
		vcd file TEST_OY.msim.vcd -direction
$end
$date
	Tue Jun 23 22:08:06 2020
$end
$version
	ModelSim Version 10.5b
$end
$timescale
	1ps
$end

$scope module test_oy_vhd_vec_tst $end
$var wire 1 ! clk $end
$var wire 1 " defect $end
$var wire 1 # finish $end
$var wire 1 $ okey $end
$var wire 1 % real_rez [7] $end
$var wire 1 & real_rez [6] $end
$var wire 1 ' real_rez [5] $end
$var wire 1 ( real_rez [4] $end
$var wire 1 ) real_rez [3] $end
$var wire 1 * real_rez [2] $end
$var wire 1 + real_rez [1] $end
$var wire 1 , real_rez [0] $end
$var wire 1 - reset $end
$var wire 1 . sko $end
$var wire 1 / sno $end
$var wire 1 0 true_rez [7] $end
$var wire 1 1 true_rez [6] $end
$var wire 1 2 true_rez [5] $end
$var wire 1 3 true_rez [4] $end
$var wire 1 4 true_rez [3] $end
$var wire 1 5 true_rez [2] $end
$var wire 1 6 true_rez [1] $end
$var wire 1 7 true_rez [0] $end
$var wire 1 8 x [3] $end
$var wire 1 9 x [2] $end
$var wire 1 : x [1] $end
$var wire 1 ; x [0] $end
$var wire 1 < y [3] $end
$var wire 1 = y [2] $end
$var wire 1 > y [1] $end
$var wire 1 ? y [0] $end

$scope module i1 $end
$var wire 1 @ gnd $end
$var wire 1 A vcc $end
$var wire 1 B unknown $end
$var wire 1 C devoe $end
$var wire 1 D devclrn $end
$var wire 1 E devpor $end
$var wire 1 F ww_devoe $end
$var wire 1 G ww_devclrn $end
$var wire 1 H ww_devpor $end
$var wire 1 I ww_clk $end
$var wire 1 J ww_reset $end
$var wire 1 K ww_sko $end
$var wire 1 L ww_sno $end
$var wire 1 M ww_okey $end
$var wire 1 N ww_defect $end
$var wire 1 O ww_finish $end
$var wire 1 P ww_real_rez [7] $end
$var wire 1 Q ww_real_rez [6] $end
$var wire 1 R ww_real_rez [5] $end
$var wire 1 S ww_real_rez [4] $end
$var wire 1 T ww_real_rez [3] $end
$var wire 1 U ww_real_rez [2] $end
$var wire 1 V ww_real_rez [1] $end
$var wire 1 W ww_real_rez [0] $end
$var wire 1 X ww_true_rez [7] $end
$var wire 1 Y ww_true_rez [6] $end
$var wire 1 Z ww_true_rez [5] $end
$var wire 1 [ ww_true_rez [4] $end
$var wire 1 \ ww_true_rez [3] $end
$var wire 1 ] ww_true_rez [2] $end
$var wire 1 ^ ww_true_rez [1] $end
$var wire 1 _ ww_true_rez [0] $end
$var wire 1 ` ww_x [3] $end
$var wire 1 a ww_x [2] $end
$var wire 1 b ww_x [1] $end
$var wire 1 c ww_x [0] $end
$var wire 1 d ww_y [3] $end
$var wire 1 e ww_y [2] $end
$var wire 1 f ww_y [1] $end
$var wire 1 g ww_y [0] $end
$var wire 1 h \reset~inputclkctrl_INCLK_bus\ [3] $end
$var wire 1 i \reset~inputclkctrl_INCLK_bus\ [2] $end
$var wire 1 j \reset~inputclkctrl_INCLK_bus\ [1] $end
$var wire 1 k \reset~inputclkctrl_INCLK_bus\ [0] $end
$var wire 1 l \clk~inputclkctrl_INCLK_bus\ [3] $end
$var wire 1 m \clk~inputclkctrl_INCLK_bus\ [2] $end
$var wire 1 n \clk~inputclkctrl_INCLK_bus\ [1] $end
$var wire 1 o \clk~inputclkctrl_INCLK_bus\ [0] $end
$var wire 1 p \sko~output_o\ $end
$var wire 1 q \sno~output_o\ $end
$var wire 1 r \okey~output_o\ $end
$var wire 1 s \defect~output_o\ $end
$var wire 1 t \finish~output_o\ $end
$var wire 1 u \real_rez[0]~output_o\ $end
$var wire 1 v \real_rez[1]~output_o\ $end
$var wire 1 w \real_rez[2]~output_o\ $end
$var wire 1 x \real_rez[3]~output_o\ $end
$var wire 1 y \real_rez[4]~output_o\ $end
$var wire 1 z \real_rez[5]~output_o\ $end
$var wire 1 { \real_rez[6]~output_o\ $end
$var wire 1 | \real_rez[7]~output_o\ $end
$var wire 1 } \true_rez[0]~output_o\ $end
$var wire 1 ~ \true_rez[1]~output_o\ $end
$var wire 1 !! \true_rez[2]~output_o\ $end
$var wire 1 "! \true_rez[3]~output_o\ $end
$var wire 1 #! \true_rez[4]~output_o\ $end
$var wire 1 $! \true_rez[5]~output_o\ $end
$var wire 1 %! \true_rez[6]~output_o\ $end
$var wire 1 &! \true_rez[7]~output_o\ $end
$var wire 1 '! \x[0]~output_o\ $end
$var wire 1 (! \x[1]~output_o\ $end
$var wire 1 )! \x[2]~output_o\ $end
$var wire 1 *! \x[3]~output_o\ $end
$var wire 1 +! \y[0]~output_o\ $end
$var wire 1 ,! \y[1]~output_o\ $end
$var wire 1 -! \y[2]~output_o\ $end
$var wire 1 .! \y[3]~output_o\ $end
$var wire 1 /! \clk~input_o\ $end
$var wire 1 0! \clk~inputclkctrl_outclk\ $end
$var wire 1 1! \gen_test:cnt[0]~1_combout\ $end
$var wire 1 2! \reset~input_o\ $end
$var wire 1 3! \gen_test:cnt[6]~2\ $end
$var wire 1 4! \gen_test:cnt[7]~1_combout\ $end
$var wire 1 5! \gen_test:cnt[7]~q\ $end
$var wire 1 6! \Equal1~1_combout\ $end
$var wire 1 7! \Equal1~0_combout\ $end
$var wire 1 8! \gen_test:cnt[1]~1_combout\ $end
$var wire 1 9! \gen_test:cnt[0]~q\ $end
$var wire 1 :! \gen_test:cnt[0]~2\ $end
$var wire 1 ;! \gen_test:cnt[1]~2_combout\ $end
$var wire 1 <! \gen_test:cnt[1]~q\ $end
$var wire 1 =! \gen_test:cnt[1]~3\ $end
$var wire 1 >! \gen_test:cnt[2]~1_combout\ $end
$var wire 1 ?! \gen_test:cnt[2]~q\ $end
$var wire 1 @! \gen_test:cnt[2]~2\ $end
$var wire 1 A! \gen_test:cnt[3]~1_combout\ $end
$var wire 1 B! \gen_test:cnt[3]~q\ $end
$var wire 1 C! \gen_test:cnt[3]~2\ $end
$var wire 1 D! \gen_test:cnt[4]~1_combout\ $end
$var wire 1 E! \gen_test:cnt[4]~q\ $end
$var wire 1 F! \gen_test:cnt[4]~2\ $end
$var wire 1 G! \gen_test:cnt[5]~1_combout\ $end
$var wire 1 H! \gen_test:cnt[5]~q\ $end
$var wire 1 I! \gen_test:cnt[5]~2\ $end
$var wire 1 J! \gen_test:cnt[6]~1_combout\ $end
$var wire 1 K! \gen_test:cnt[6]~q\ $end
$var wire 1 L! \gen_test~0_combout\ $end
$var wire 1 M! \reset~inputclkctrl_outclk\ $end
$var wire 1 N! \ctl_unit:v_sno~q\ $end
$var wire 1 O! \sno~0_combout\ $end
$var wire 1 P! \sno~reg0_q\ $end
$var wire 1 Q! \b2v_inst6|unit_YA|Selector0~0_combout\ $end
$var wire 1 R! \b2v_inst6|unit_YA|state.s0~q\ $end
$var wire 1 S! \b2v_inst6|unit_YA|Next_state.s1~0_combout\ $end
$var wire 1 T! \b2v_inst6|unit_YA|state.s1~q\ $end
$var wire 1 U! \b2v_inst6|unit_YA|Next_state.s2~0_combout\ $end
$var wire 1 V! \b2v_inst6|unit_YA|state.s2~q\ $end
$var wire 1 W! \b2v_inst6|unit_OA|rb[0]~4_combout\ $end
$var wire 1 X! \b2v_inst6|unit_OA|rb~3_combout\ $end
$var wire 1 Y! \b2v_inst6|unit_OA|ra~10_combout\ $end
$var wire 1 Z! \b2v_inst6|unit_OA|rb~1_combout\ $end
$var wire 1 [! \b2v_inst6|unit_OA|rb~2_combout\ $end
$var wire 1 \! \b2v_inst6|unit_OA|Add1~0_combout\ $end
$var wire 1 ]! \b2v_inst6|unit_OA|rb~0_combout\ $end
$var wire 1 ^! \b2v_inst6|unit_OA|i~0_combout\ $end
$var wire 1 _! \b2v_inst6|unit_OA|i~1_combout\ $end
$var wire 1 `! \b2v_inst6|unit_OA|i~2_combout\ $end
$var wire 1 a! \b2v_inst6|unit_OA|Mux0~0_combout\ $end
$var wire 1 b! \b2v_inst6|unit_OA|Mux0~1_combout\ $end
$var wire 1 c! \b2v_inst6|unit_YA|Selector2~1_combout\ $end
$var wire 1 d! \b2v_inst6|unit_YA|state.s4~q\ $end
$var wire 1 e! \b2v_inst6|unit_YA|Selector3~0_combout\ $end
$var wire 1 f! \b2v_inst6|unit_YA|state.s5~q\ $end
$var wire 1 g! \b2v_inst6|unit_YA|Selector2~0_combout\ $end
$var wire 1 h! \b2v_inst6|unit_YA|Selector1~0_combout\ $end
$var wire 1 i! \b2v_inst6|unit_YA|state.s3~q\ $end
$var wire 1 j! \b2v_inst6|unit_YA|Next_state.s6~0_combout\ $end
$var wire 1 k! \b2v_inst6|unit_YA|state.s6~q\ $end
$var wire 1 l! \b2v_inst6|unit_OA|ra~7_combout\ $end
$var wire 1 m! \b2v_inst6|unit_OA|ra~8_combout\ $end
$var wire 1 n! \b2v_inst6|unit_OA|ra~9_combout\ $end
$var wire 1 o! \b2v_inst6|unit_OA|Add0~1_cout\ $end
$var wire 1 p! \b2v_inst6|unit_OA|Add0~2_combout\ $end
$var wire 1 q! \b2v_inst6|unit_OA|ra[1]~0_combout\ $end
$var wire 1 r! \b2v_inst6|unit_OA|Add0~3\ $end
$var wire 1 s! \b2v_inst6|unit_OA|Add0~4_combout\ $end
$var wire 1 t! \b2v_inst6|unit_OA|ra[2]~1_combout\ $end
$var wire 1 u! \b2v_inst6|unit_OA|Add0~5\ $end
$var wire 1 v! \b2v_inst6|unit_OA|Add0~6_combout\ $end
$var wire 1 w! \b2v_inst6|unit_OA|ra[3]~2_combout\ $end
$var wire 1 x! \b2v_inst6|unit_OA|Add0~7\ $end
$var wire 1 y! \b2v_inst6|unit_OA|Add0~8_combout\ $end
$var wire 1 z! \b2v_inst6|unit_OA|ra[4]~3_combout\ $end
$var wire 1 {! \b2v_inst6|unit_OA|Add0~9\ $end
$var wire 1 |! \b2v_inst6|unit_OA|Add0~10_combout\ $end
$var wire 1 }! \b2v_inst6|unit_OA|ra[5]~4_combout\ $end
$var wire 1 ~! \b2v_inst6|unit_OA|Add0~11\ $end
$var wire 1 !" \b2v_inst6|unit_OA|Add0~12_combout\ $end
$var wire 1 "" \b2v_inst6|unit_OA|ra[6]~5_combout\ $end
$var wire 1 #" \b2v_inst6|unit_OA|Add0~13\ $end
$var wire 1 $" \b2v_inst6|unit_OA|Add0~14_combout\ $end
$var wire 1 %" \b2v_inst6|unit_OA|ra[7]~6_combout\ $end
$var wire 1 &" \b2v_inst6|unit_OA|rc[0]~8_combout\ $end
$var wire 1 '" \b2v_inst6|unit_OA|rc[0]~10_combout\ $end
$var wire 1 (" \b2v_inst6|unit_OA|rc[0]~9\ $end
$var wire 1 )" \b2v_inst6|unit_OA|rc[1]~11_combout\ $end
$var wire 1 *" \b2v_inst6|unit_OA|rc[1]~12\ $end
$var wire 1 +" \b2v_inst6|unit_OA|rc[2]~13_combout\ $end
$var wire 1 ," \b2v_inst6|unit_OA|rc[2]~14\ $end
$var wire 1 -" \b2v_inst6|unit_OA|rc[3]~15_combout\ $end
$var wire 1 ." \b2v_inst6|unit_OA|rc[3]~16\ $end
$var wire 1 /" \b2v_inst6|unit_OA|rc[4]~17_combout\ $end
$var wire 1 0" \b2v_inst6|unit_OA|rc[4]~18\ $end
$var wire 1 1" \b2v_inst6|unit_OA|rc[5]~19_combout\ $end
$var wire 1 2" \b2v_inst6|unit_OA|rc[5]~20\ $end
$var wire 1 3" \b2v_inst6|unit_OA|rc[6]~21_combout\ $end
$var wire 1 4" \b2v_inst6|unit_OA|rc[6]~22\ $end
$var wire 1 5" \b2v_inst6|unit_OA|rc[7]~23_combout\ $end
$var wire 1 6" \actual_result:xp[3]~0_combout\ $end
$var wire 1 7" \Mult0|auto_generated|cs2a[1]~0_combout\ $end
$var wire 1 8" \actual_result:xp[2]~0_combout\ $end
$var wire 1 9" \actual_result:xp[1]~0_combout\ $end
$var wire 1 :" \Mult0|auto_generated|op_1~1\ $end
$var wire 1 ;" \Mult0|auto_generated|op_1~3\ $end
$var wire 1 <" \Mult0|auto_generated|op_1~5\ $end
$var wire 1 =" \Mult0|auto_generated|op_1~7\ $end
$var wire 1 >" \Mult0|auto_generated|op_1~9\ $end
$var wire 1 ?" \Mult0|auto_generated|op_1~10_combout\ $end
$var wire 1 @" \Mult0|auto_generated|op_1~8_combout\ $end
$var wire 1 A" \Mult0|auto_generated|op_1~6_combout\ $end
$var wire 1 B" \Mult0|auto_generated|op_1~4_combout\ $end
$var wire 1 C" \Mult0|auto_generated|op_1~2_combout\ $end
$var wire 1 D" \Mult0|auto_generated|op_1~0_combout\ $end
$var wire 1 E" \Mult0|auto_generated|_~9_combout\ $end
$var wire 1 F" \Mult0|auto_generated|op_3~1\ $end
$var wire 1 G" \Mult0|auto_generated|op_3~3\ $end
$var wire 1 H" \Mult0|auto_generated|op_3~5\ $end
$var wire 1 I" \Mult0|auto_generated|op_3~7\ $end
$var wire 1 J" \Mult0|auto_generated|op_3~9\ $end
$var wire 1 K" \Mult0|auto_generated|op_3~11\ $end
$var wire 1 L" \Mult0|auto_generated|op_3~13\ $end
$var wire 1 M" \Mult0|auto_generated|op_3~14_combout\ $end
$var wire 1 N" \actual_result~0_combout\ $end
$var wire 1 O" \Mult0|auto_generated|op_3~8_combout\ $end
$var wire 1 P" \Mult0|auto_generated|op_3~2_combout\ $end
$var wire 1 Q" \Mult0|auto_generated|op_3~0_combout\ $end
$var wire 1 R" \Mult0|auto_generated|op_3~6_combout\ $end
$var wire 1 S" \Mult0|auto_generated|op_3~4_combout\ $end
$var wire 1 T" \Equal3~1_combout\ $end
$var wire 1 U" \Mult0|auto_generated|op_3~10_combout\ $end
$var wire 1 V" \actual_result:mbin[7]~0_combout\ $end
$var wire 1 W" \Mult0|auto_generated|op_3~12_combout\ $end
$var wire 1 X" \actual_result:mbin[7]~1_combout\ $end
$var wire 1 Y" \Equal2~5_combout\ $end
$var wire 1 Z" \Equal3~0_combout\ $end
$var wire 1 [" \Add3~0_combout\ $end
$var wire 1 \" \Add3~1_combout\ $end
$var wire 1 ]" \Add3~2\ $end
$var wire 1 ^" \Add3~3_combout\ $end
$var wire 1 _" \Equal2~0_combout\ $end
$var wire 1 `" \Add3~4\ $end
$var wire 1 a" \Add3~5_combout\ $end
$var wire 1 b" \Add3~6\ $end
$var wire 1 c" \Add3~7_combout\ $end
$var wire 1 d" \Equal2~1_combout\ $end
$var wire 1 e" \Add3~8\ $end
$var wire 1 f" \Add3~9_combout\ $end
$var wire 1 g" \Add3~10\ $end
$var wire 1 h" \Add3~11_combout\ $end
$var wire 1 i" \Equal2~2_combout\ $end
$var wire 1 j" \Add3~12\ $end
$var wire 1 k" \Add3~13_combout\ $end
$var wire 1 l" \Equal2~3_combout\ $end
$var wire 1 m" \Equal2~4_combout\ $end
$var wire 1 n" \okey~0_combout\ $end
$var wire 1 o" \okey~reg0_q\ $end
$var wire 1 p" \defect~0_combout\ $end
$var wire 1 q" \defect~1_combout\ $end
$var wire 1 r" \defect~reg0_q\ $end
$var wire 1 s" \Equal1~2_combout\ $end
$var wire 1 t" \actual_result:mbin[7]~2_combout\ $end
$var wire 1 u" \Mult0|auto_generated|le5a\ [4] $end
$var wire 1 v" \Mult0|auto_generated|le5a\ [3] $end
$var wire 1 w" \Mult0|auto_generated|le5a\ [2] $end
$var wire 1 x" \Mult0|auto_generated|le5a\ [1] $end
$var wire 1 y" \Mult0|auto_generated|le5a\ [0] $end
$var wire 1 z" \b2v_inst6|unit_OA|rc\ [7] $end
$var wire 1 {" \b2v_inst6|unit_OA|rc\ [6] $end
$var wire 1 |" \b2v_inst6|unit_OA|rc\ [5] $end
$var wire 1 }" \b2v_inst6|unit_OA|rc\ [4] $end
$var wire 1 ~" \b2v_inst6|unit_OA|rc\ [3] $end
$var wire 1 !# \b2v_inst6|unit_OA|rc\ [2] $end
$var wire 1 "# \b2v_inst6|unit_OA|rc\ [1] $end
$var wire 1 ## \b2v_inst6|unit_OA|rc\ [0] $end
$var wire 1 $# \Mult0|auto_generated|le3a\ [5] $end
$var wire 1 %# \Mult0|auto_generated|le3a\ [4] $end
$var wire 1 &# \Mult0|auto_generated|le3a\ [3] $end
$var wire 1 '# \Mult0|auto_generated|le3a\ [2] $end
$var wire 1 (# \Mult0|auto_generated|le3a\ [1] $end
$var wire 1 )# \Mult0|auto_generated|le3a\ [0] $end
$var wire 1 *# \b2v_inst6|unit_OA|ra\ [7] $end
$var wire 1 +# \b2v_inst6|unit_OA|ra\ [6] $end
$var wire 1 ,# \b2v_inst6|unit_OA|ra\ [5] $end
$var wire 1 -# \b2v_inst6|unit_OA|ra\ [4] $end
$var wire 1 .# \b2v_inst6|unit_OA|ra\ [3] $end
$var wire 1 /# \b2v_inst6|unit_OA|ra\ [2] $end
$var wire 1 0# \b2v_inst6|unit_OA|ra\ [1] $end
$var wire 1 1# \b2v_inst6|unit_OA|ra\ [0] $end
$var wire 1 2# \b2v_inst6|unit_OA|rb\ [3] $end
$var wire 1 3# \b2v_inst6|unit_OA|rb\ [2] $end
$var wire 1 4# \b2v_inst6|unit_OA|rb\ [1] $end
$var wire 1 5# \b2v_inst6|unit_OA|rb\ [0] $end
$var wire 1 6# \Mult0|auto_generated|le4a\ [5] $end
$var wire 1 7# \Mult0|auto_generated|le4a\ [4] $end
$var wire 1 8# \Mult0|auto_generated|le4a\ [3] $end
$var wire 1 9# \Mult0|auto_generated|le4a\ [2] $end
$var wire 1 :# \Mult0|auto_generated|le4a\ [1] $end
$var wire 1 ;# \Mult0|auto_generated|le4a\ [0] $end
$var wire 1 <# \b2v_inst6|unit_OA|i\ [1] $end
$var wire 1 =# \b2v_inst6|unit_OA|i\ [0] $end
$var wire 1 ># \ALT_INV_clk~inputclkctrl_outclk\ $end
$var wire 1 ?# \ALT_INV_reset~inputclkctrl_outclk\ $end
$var wire 1 @# \b2v_inst6|unit_YA|ALT_INV_state.s3~q\ $end
$var wire 1 A# \ALT_INV_okey~reg0_q\ $end
$upscope $end
$upscope $end
$enddefinitions $end
#0
$dumpvars
0!
0"
0#
1$
1-
0.
0/
0@
1A
xB
1C
1D
1E
1F
1G
1H
0I
1J
0K
0L
1M
0N
0O
0p
0q
1r
0s
0t
0u
0v
0w
0x
0y
0z
0{
0|
0}
0~
0!!
0"!
0#!
0$!
0%!
0&!
0'!
0(!
0)!
0*!
0+!
0,!
0-!
0.!
0/!
00!
11!
12!
03!
04!
05!
06!
07!
18!
09!
0:!
0;!
0<!
1=!
0>!
0?!
0@!
0A!
0B!
1C!
0D!
0E!
0F!
0G!
0H!
1I!
0J!
0K!
1L!
1M!
0N!
1O!
0P!
0Q!
0R!
0S!
0T!
0U!
0V!
0W!
0X!
0Y!
0Z!
0[!
0\!
0]!
0^!
0_!
0`!
1a!
1b!
0c!
0d!
0e!
0f!
0g!
0h!
0i!
0j!
0k!
0l!
0m!
0n!
1o!
0p!
0q!
0r!
0s!
0t!
1u!
0v!
0w!
0x!
0y!
0z!
1{!
0|!
0}!
0~!
0!"
0""
1#"
0$"
0%"
0&"
0'"
0("
0)"
1*"
0+"
0,"
0-"
1."
0/"
00"
01"
12"
03"
04"
05"
06"
07"
08"
09"
0:"
1;"
0<"
1="
0>"
1?"
0@"
0A"
0B"
0C"
0D"
0E"
0F"
1G"
0H"
1I"
0J"
1K"
0L"
0M"
0N"
0O"
0P"
0Q"
0R"
0S"
1T"
0U"
1V"
0W"
1X"
0Y"
1Z"
1["
0\"
0]"
0^"
1_"
1`"
0a"
0b"
0c"
1d"
1e"
0f"
0g"
0h"
1i"
1j"
0k"
0l"
1m"
0n"
0o"
1p"
0q"
0r"
0s"
0t"
1>#
0?#
1@#
1A#
0%
0&
0'
0(
0)
0*
0+
0,
00
01
02
03
04
05
06
07
08
09
0:
0;
0<
0=
0>
0?
0P
0Q
0R
0S
0T
0U
0V
0W
0X
0Y
0Z
0[
0\
0]
0^
0_
0`
0a
0b
0c
0d
0e
0f
0g
xu"
0v"
0w"
0x"
0y"
0z"
0{"
0|"
0}"
0~"
0!#
0"#
0##
0$#
0%#
0&#
0'#
0(#
0)#
0*#
0+#
0,#
0-#
0.#
0/#
00#
01#
02#
03#
04#
05#
06#
07#
08#
09#
0:#
0;#
0<#
0=#
1l
1m
1n
0o
1h
1i
1j
1k
$end
#25
1!
1I
1/!
1o
10!
0>#
#50
0!
0I
0/!
0o
00!
1>#
1P!
1Q!
1S!
1q
1L
1/
#75
1!
1I
1/!
1o
10!
0>#
#100
0!
0I
0/!
0o
00!
1>#
#125
1!
1I
1/!
1o
10!
0>#
#150
0!
0I
0/!
0o
00!
1>#
#175
1!
1I
1/!
1o
10!
0>#
#200
0!
0I
0/!
0o
00!
1>#
#225
1!
1I
1/!
1o
10!
0>#
#250
0!
0I
0/!
0o
00!
1>#
#275
1!
1I
1/!
1o
10!
0>#
#300
0!
0I
0/!
0o
00!
1>#
#325
1!
1I
1/!
1o
10!
0>#
#350
0!
0I
0/!
0o
00!
1>#
#375
1!
1I
1/!
1o
10!
0>#
#400
0!
0I
0/!
0o
00!
1>#
#425
1!
1I
1/!
1o
10!
0>#
#450
0!
0I
0/!
0o
00!
1>#
#475
1!
1I
1/!
1o
10!
0>#
#500
0!
0I
0/!
0o
00!
1>#
#525
1!
1I
1/!
1o
10!
0>#
#550
0!
0I
0/!
0o
00!
1>#
#575
1!
1I
1/!
1o
10!
0>#
#600
0!
0I
0/!
0o
00!
1>#
#625
1!
1I
1/!
1o
10!
0>#
#650
0!
0I
0/!
0o
00!
1>#
#675
1!
1I
1/!
1o
10!
0>#
#700
0!
0I
0/!
0o
00!
1>#
#725
1!
1I
1/!
1o
10!
0>#
#750
0!
0I
0/!
0o
00!
1>#
#775
1!
1I
1/!
1o
10!
0>#
#800
0!
0I
0/!
0o
00!
1>#
#825
1!
1I
1/!
1o
10!
0>#
#850
0!
0I
0/!
0o
00!
1>#
#875
1!
1I
1/!
1o
10!
0>#
#900
0!
0I
0/!
0o
00!
1>#
#925
1!
1I
1/!
1o
10!
0>#
#950
0!
0I
0/!
0o
00!
1>#
#975
1!
1I
1/!
1o
10!
0>#
#1000
0!
0I
0/!
0o
00!
1>#
#1025
1!
1I
1/!
1o
10!
0>#
#1050
0!
0I
0/!
0o
00!
1>#
#1075
1!
1I
1/!
1o
10!
0>#
#1100
0!
0I
0/!
0o
00!
1>#
#1125
1!
1I
1/!
1o
10!
0>#
#1150
0!
0I
0/!
0o
00!
1>#
#1175
1!
1I
1/!
1o
10!
0>#
#1200
0!
0I
0/!
0o
00!
1>#
#1225
1!
1I
1/!
1o
10!
0>#
#1250
0!
0I
0/!
0o
00!
1>#
#1275
1!
1I
1/!
1o
10!
0>#
#1300
0!
0I
0/!
0o
00!
1>#
#1325
1!
1I
1/!
1o
10!
0>#
#1350
0!
0I
0/!
0o
00!
1>#
#1375
1!
1I
1/!
1o
10!
0>#
#1400
0!
0I
0/!
0o
00!
1>#
#1425
1!
1I
1/!
1o
10!
0>#
#1450
0!
0I
0/!
0o
00!
1>#
#1475
1!
1I
1/!
1o
10!
0>#
#1500
0!
0I
0/!
0o
00!
1>#
#1525
1!
1I
1/!
1o
10!
0>#
#1550
0!
0I
0/!
0o
00!
1>#
#1575
1!
1I
1/!
1o
10!
0>#
#1600
0!
0I
0/!
0o
00!
1>#
#1625
1!
1I
1/!
1o
10!
0>#
#1650
0!
0I
0/!
0o
00!
1>#
#1675
1!
1I
1/!
1o
10!
0>#
#1700
0!
0I
0/!
0o
00!
1>#
#1725
1!
1I
1/!
1o
10!
0>#
#1750
0!
0I
0/!
0o
00!
1>#
#1775
1!
1I
1/!
1o
10!
0>#
#1800
0!
0I
0/!
0o
00!
1>#
#1825
1!
1I
1/!
1o
10!
0>#
#1850
0!
0I
0/!
0o
00!
1>#
#1875
1!
1I
1/!
1o
10!
0>#
#1900
0!
0I
0/!
0o
00!
1>#
#1925
1!
1I
1/!
1o
10!
0>#
#1950
0!
0I
0/!
0o
00!
1>#
#1975
1!
1I
1/!
1o
10!
0>#
#2000
0!
0I
0/!
0o
00!
1>#
#2025
1!
1I
1/!
1o
10!
0>#
#2050
0!
0I
0/!
0o
00!
1>#
#2075
1!
1I
1/!
1o
10!
0>#
#2100
0!
0I
0/!
0o
00!
1>#
#2125
1!
1I
1/!
1o
10!
0>#
#2150
0!
0I
0/!
0o
00!
1>#
#2175
1!
1I
1/!
1o
10!
0>#
#2200
0!
0I
0/!
0o
00!
1>#
#2225
1!
1I
1/!
1o
10!
0>#
#2250
0!
0I
0/!
0o
00!
1>#
#2275
1!
1I
1/!
1o
10!
0>#
#2300
0!
0I
0/!
0o
00!
1>#
#2325
1!
1I
1/!
1o
10!
0>#
#2350
0!
0I
0/!
0o
00!
1>#
#2375
1!
1I
1/!
1o
10!
0>#
#2400
0!
0I
0/!
0o
00!
1>#
#2425
1!
1I
1/!
1o
10!
0>#
#2450
0!
0I
0/!
0o
00!
1>#
#2475
1!
1I
1/!
1o
10!
0>#
#2500
0!
0I
0/!
0o
00!
1>#
#2525
1!
1I
1/!
1o
10!
0>#
#2550
0!
0I
0/!
0o
00!
1>#
#2575
1!
1I
1/!
1o
10!
0>#
#2600
0!
0I
0/!
0o
00!
1>#
#2625
1!
1I
1/!
1o
10!
0>#
#2650
0!
0I
0/!
0o
00!
1>#
#2675
1!
1I
1/!
1o
10!
0>#
#2700
0!
0I
0/!
0o
00!
1>#
#2725
1!
1I
1/!
1o
10!
0>#
#2750
0!
0I
0/!
0o
00!
1>#
#2775
1!
1I
1/!
1o
10!
0>#
#2800
0!
0I
0/!
0o
00!
1>#
#2825
1!
1I
1/!
1o
10!
0>#
#2850
0!
0I
0/!
0o
00!
1>#
#2875
1!
1I
1/!
1o
10!
0>#
#2900
0!
0I
0/!
0o
00!
1>#
#2925
1!
1I
1/!
1o
10!
0>#
#2950
0!
0I
0/!
0o
00!
1>#
#2975
1!
1I
1/!
1o
10!
0>#
#3000
0!
0I
0/!
0o
00!
1>#
#3025
1!
1I
1/!
1o
10!
0>#
#3050
0!
0I
0/!
0o
00!
1>#
#3075
1!
1I
1/!
1o
10!
0>#
#3100
0!
0I
0/!
0o
00!
1>#
#3125
1!
1I
1/!
1o
10!
0>#
#3150
0!
0I
0/!
0o
00!
1>#
#3175
1!
1I
1/!
1o
10!
0>#
#3200
0!
0I
0/!
0o
00!
1>#
#3225
1!
1I
1/!
1o
10!
0>#
#3250
0!
0I
0/!
0o
00!
1>#
#3275
1!
1I
1/!
1o
10!
0>#
#3300
0!
0I
0/!
0o
00!
1>#
#3325
1!
1I
1/!
1o
10!
0>#
#3350
0!
0I
0/!
0o
00!
1>#
#3375
1!
1I
1/!
1o
10!
0>#
#3400
0!
0I
0/!
0o
00!
1>#
#3425
1!
1I
1/!
1o
10!
0>#
#3450
0!
0I
0/!
0o
00!
1>#
#3475
1!
1I
1/!
1o
10!
0>#
#3500
0!
0I
0/!
0o
00!
1>#
#3525
1!
1I
1/!
1o
10!
0>#
#3550
0!
0I
0/!
0o
00!
1>#
#3575
1!
1I
1/!
1o
10!
0>#
#3600
0!
0I
0/!
0o
00!
1>#
#3625
1!
1I
1/!
1o
10!
0>#
#3650
0!
0I
0/!
0o
00!
1>#
#3675
1!
1I
1/!
1o
10!
0>#
#3700
0!
0I
0/!
0o
00!
1>#
#3725
1!
1I
1/!
1o
10!
0>#
#3750
0!
0I
0/!
0o
00!
1>#
#3775
1!
1I
1/!
1o
10!
0>#
#3800
0!
0I
0/!
0o
00!
1>#
#3825
1!
1I
1/!
1o
10!
0>#
#3850
0!
0I
0/!
0o
00!
1>#
#3875
1!
1I
1/!
1o
10!
0>#
#3900
0!
0I
0/!
0o
00!
1>#
#3925
1!
1I
1/!
1o
10!
0>#
#3950
0!
0I
0/!
0o
00!
1>#
#3975
1!
1I
1/!
1o
10!
0>#
#4000
0!
0I
0/!
0o
00!
1>#
#4025
1!
1I
1/!
1o
10!
0>#
#4050
0!
0I
0/!
0o
00!
1>#
#4075
1!
1I
1/!
1o
10!
0>#
#4100
0!
0I
0/!
0o
00!
1>#
#4125
1!
1I
1/!
1o
10!
0>#
#4150
0!
0I
0/!
0o
00!
1>#
#4175
1!
1I
1/!
1o
10!
0>#
#4200
0!
0I
0/!
0o
00!
1>#
#4225
1!
1I
1/!
1o
10!
0>#
#4250
0!
0I
0/!
0o
00!
1>#
#4275
1!
1I
1/!
1o
10!
0>#
#4300
0!
0I
0/!
0o
00!
1>#
#4325
1!
1I
1/!
1o
10!
0>#
#4350
0!
0I
0/!
0o
00!
1>#
#4375
1!
1I
1/!
1o
10!
0>#
#4400
0!
0I
0/!
0o
00!
1>#
#4425
1!
1I
1/!
1o
10!
0>#
#4450
0!
0I
0/!
0o
00!
1>#
#4475
1!
1I
1/!
1o
10!
0>#
#4500
0!
0I
0/!
0o
00!
1>#
#4525
1!
1I
1/!
1o
10!
0>#
#4550
0!
0I
0/!
0o
00!
1>#
#4575
1!
1I
1/!
1o
10!
0>#
#4600
0!
0I
0/!
0o
00!
1>#
#4625
1!
1I
1/!
1o
10!
0>#
#4650
0!
0I
0/!
0o
00!
1>#
#4675
1!
1I
1/!
1o
10!
0>#
#4700
0!
0I
0/!
0o
00!
1>#
#4725
1!
1I
1/!
1o
10!
0>#
#4750
0!
0I
0/!
0o
00!
1>#
#4775
1!
1I
1/!
1o
10!
0>#
#4800
0!
0I
0/!
0o
00!
1>#
#4825
1!
1I
1/!
1o
10!
0>#
#4850
0!
0I
0/!
0o
00!
1>#
#4875
1!
1I
1/!
1o
10!
0>#
#4900
0!
0I
0/!
0o
00!
1>#
#4925
1!
1I
1/!
1o
10!
0>#
#4950
0!
0I
0/!
0o
00!
1>#
#4975
1!
1I
1/!
1o
10!
0>#
#5000
0!
0I
0/!
0o
00!
1>#
