university/circuit-design/JohnsonCounter/simulation/qsim/JohnsonCounter.msim.vcd
$comment
	File created using the following command:
		vcd file JohnsonCounter.msim.vcd -direction
$end
$date
	Thu Mar 25 15:21:47 2021
$end
$version
	ModelSim Version 10.5b
$end
$timescale
	1ps
$end

$scope module _PK_NAND_vlg_vec_tst $end
$var reg 1 ! C $end
$var reg 1 " nR $end
$var wire 1 # Z1 $end
$var wire 1 $ Z2 $end
$var wire 1 % Z3 $end
$var wire 1 & Z4 $end
$var wire 1 ' Z5 $end
$var wire 1 ( Z6 $end
$var wire 1 ) Z7 $end
$var wire 1 * Z8 $end
$var wire 1 + Z9 $end

$scope module i1 $end
$var wire 1 , gnd $end
$var wire 1 - vcc $end
$var wire 1 . unknown $end
$var tri1 1 / devclrn $end
$var tri1 1 0 devpor $end
$var tri1 1 1 devoe $end
$var wire 1 2 Z9~output_o $end
$var wire 1 3 Z8~output_o $end
$var wire 1 4 Z7~output_o $end
$var wire 1 5 Z5~output_o $end
$var wire 1 6 Z6~output_o $end
$var wire 1 7 Z4~output_o $end
$var wire 1 8 Z3~output_o $end
$var wire 1 9 Z2~output_o $end
$var wire 1 : Z1~output_o $end
$var wire 1 ; C~input_o $end
$var wire 1 < C~inputclkctrl_outclk $end
$var wire 1 = nR~input_o $end
$var wire 1 > nR~inputclkctrl_outclk $end
$var wire 1 ? DD2|inst1~q $end
$var wire 1 @ DD2|inst~feeder_combout $end
$var wire 1 A DD2|inst~q $end
$var wire 1 B DD3|inst3~q $end
$var wire 1 C DD3|inst2~q $end
$var wire 1 D DD3|inst1~q $end
$var wire 1 E DD4|inst~combout $end
$var wire 1 F DD3|inst~q $end
$var wire 1 G DD1|inst3~0_combout $end
$var wire 1 H DD1|inst3~q $end
$var wire 1 I DD1|inst2~q $end
$var wire 1 J DD1|inst1~q $end
$var wire 1 K DD1|inst~q $end
$var wire 1 L DD2|inst3~feeder_combout $end
$var wire 1 M DD2|inst3~q $end
$var wire 1 N DD2|inst2~q $end
$var wire 1 O inst3|inst~combout $end
$var wire 1 P inst3|inst2~0_combout $end
$var wire 1 Q inst3|inst3~0_combout $end
$var wire 1 R inst9|inst~combout $end
$var wire 1 S inst4|inst~0_combout $end
$var wire 1 T inst4|inst~1_combout $end
$var wire 1 U inst4|inst1~0_combout $end
$var wire 1 V inst4|inst1~1_combout $end
$var wire 1 W DD13|inst~0_combout $end
$var wire 1 X DD13|inst~1_combout $end
$var wire 1 Y DD13|inst2~combout $end
$var wire 1 Z DD13|inst3~0_combout $end
$upscope $end
$upscope $end
$enddefinitions $end
#0
$dumpvars
0!
0"
x#
x$
x%
x&
x'
x(
x)
x*
x+
0,
1-
x.
1/
10
11
x2
x3
x4
x5
x6
x7
x8
x9
x:
0;
x<
0=
x>
0?
x@
0A
0B
0C
0D
xE
0F
xG
0H
0I
0J
0K
xL
0M
0N
xO
xP
xQ
xR
xS
xT
xU
xV
xW
xX
xY
xZ
$end
#158
0<
0>
#427
0@
0L
#428
0E
#458
1G
#683
0P
#743
1W
#835
1U
#852
0R
#945
1S
#1084
0Y
#1096
0Q
#1100
0O
#1250
1T
#1294
0Z
#1439
1X
#1460
1V
#4147
03
0*
#4316
05
0'
#4369
09
0$
#4376
02
0+
#4541
07
0&
#4553
04
0)
#4754
06
0(
#4797
1:
1#
#5037
08
0%
#65000
1!
#65596
1;
#65776
1<
#130000
0!
#130761
0;
#130919
0<
#160000
1"
#160596
1=
#160776
1>
#195000
1!
#195596
1;
#195776
1<
#197261
1H
#198295
1Y
#201577
19
1$
#260000
0!
#260761
0;
#260919
0<
#325000
1!
#325596
1;
#325776
1<
#327261
1I
#327630
0W
#328350
0X
#331921
18
1%
#390000
0!
#390761
0;
#390919
0<
#455000
1!
#455596
1;
#455776
1<
#457261
1J
#458042
0U
#458712
0V
#461743
17
1&
#520000
0!
#520761
0;
#520919
0<
#585000
1!
#585596
1;
#585776
1<
#587261
1K
#587621
1R
#587623
1L
#591092
15
1'
#650000
0!
#650761
0;
#650919
0<
#715000
1!
#715596
1;
#715776
1<
#717261
1M
#717836
1O
#718269
0T
#721105
12
1+
#721757
16
1(
#780000
0!
#780761
0;
#780919
0<
#845000
1!
#845596
1;
#845776
1<
#847261
1N
#847614
1T
#851118
06
0(
#910000
0!
#910761
0;
#910919
0<
#975000
1!
#975596
1;
#975776
1<
#977261
1?
#977624
1@
#977630
0R
#977876
1P
#981094
05
0'
#981341
13
1*
#1040000
0!
#1040761
0;
#1040919
0<
#1105000
1!
#1105596
1;
#1105776
1<
#1107261
1A
#1108264
1Q
#1108393
1U
#1109018
1V
#1111774
14
1)
#1112099
07
0&
#1170000
0!
#1170761
0;
#1170919
0<
#1235000
1!
#1235596
1;
#1235776
1<
#1237261
1B
#1237630
0S
#1237951
0T
#1238009
1W
#1238705
1X
#1241439
16
1(
#1242303
08
0%
#1300000
0!
#1300761
0;
#1300919
0<
#1365000
1!
#1365596
1;
#1365776
1<
#1367261
1C
#1367614
1Z
#1367915
0W
#1368029
1S
#1368334
1T
#1368635
0X
#1371123
0:
0#
#1371838
06
0(
#1372206
18
1%
#1430000
0!
#1430761
0;
#1430919
0<
#1495000
1!
#1495596
1;
#1495776
1<
#1497261
1D
#1497612
0Y
#1497613
0Q
#1497624
1E
#1497630
0U
#1498300
0V
#1500897
09
0$
#1501070
04
0)
#1501331
17
1&
#1560000
0!
#1560761
0;
#1560919
0<
#1625000
1!
#1625596
1;
#1625776
1<
#1627261
1F
#1627634
0P
#1627635
0G
#1627642
1W
#1628338
1X
#1628429
1R
#1631098
03
0*
#1631900
15
1'
#1631936
08
0%
#1690000
0!
#1690761
0;
#1690919
0<
#1755000
1!
#1755596
1;
#1755776
1<
#1757261
0H
#1757840
0S
#1757842
0O
#1757852
1U
#1758161
0T
#1758477
1V
#1761118
02
0+
#1761558
07
0&
#1761649
16
1(
#1820000
0!
#1820761
0;
#1820919
0<
#1885000
1!
#1885596
1;
#1885776
1<
#1887261
0I
#1888161
0V
#1888206
1S
#1888511
1T
#1891192
17
1&
#1892015
06
0(
#1950000
0!
#1950761
0;
#1950919
0<
#2015000
1!
#2015596
1;
#2015776
1<
#2017261
0J
#2017630
0X
#2018113
0R
#2021201
18
1%
#2021577
05
0'
#2080000
0!
#2080761
0;
#2080919
0<
#2145000
1!
#2145596
1;
#2145776
1<
#2147261
0K
#2147614
1Y
#2147688
0L
#2147698
1V
#2150779
07
0&
#2150896
19
1$
#2210000
0!
#2210761
0;
#2210919
0<
#2275000
1!
#2275596
1;
#2275776
1<
#2277261
0M
#2277823
0Z
#2278389
1X
#2281326
1:
1#
#2281987
08
0%
#2340000
0!
#2340761
0;
#2340919
0<
#2405000
1!
#2405596
1;
#2405776
1<
#2407261
0N
#2408321
0Y
#2408332
1O
#2411601
12
1+
#2411606
09
0$
#2470000
0!
#2470761
0;
#2470919
0<
#2535000
1!
#2535596
1;
#2535776
1<
#2537261
0?
#2537688
0@
#2537965
1P
#2537990
1Z
#2541430
13
1*
#2541499
0:
0#
#2600000
0!
#2600761
0;
#2600919
0<
#2665000
1!
#2665596
1;
#2665776
1<
#2667261
0A
#2668359
1Q
#2668361
0O
#2671637
02
0+
#2671869
14
1)
#2730000
0!
#2730761
0;
#2730919
0<
#2795000
1!
#2795596
1;
#2795776
1<
#2797261
0B
#2797630
0S
#2797944
0P
#2797951
0T
#2801408
03
0*
#2801439
16
1(
#2860000
0!
#2860761
0;
#2860919
0<
#2925000
1!
#2925596
1;
#2925776
1<
#2927261
0C
#2927949
0E
#2928005
0Q
#2928095
1S
#2928400
1T
#2931462
04
0)
#2931904
06
0(
#2990000
0!
#2990761
0;
#2990919
0<
#3055000
1!
#3055596
1;
#3055776
1<
#3057261
0D
0F
#3057719
1G
#3058555
0Z
#3062058
1:
1#
#3120000
0!
#3120761
0;
#3120919
0<
#3185000
1!
#3185596
1;
#3185776
1<
#3187261
1H
#3188295
1Y
#3191577
19
1$
