university/circuit-design/sem2/lab1/simulation/qsim/lab1.msim.vcd
$comment
	File created using the following command:
		vcd file lab1.msim.vcd -direction
$end
$date
	Sun Feb 14 14:32:02 2021
$end
$version
	ModelSim Version 10.5b
$end
$timescale
	1ps
$end

$scope module scheme_vlg_vec_tst $end
$var reg 1 ! C $end
$var reg 1 " R $end
$var reg 1 # S $end
$var wire 1 $ Q1 $end
$var wire 1 % Q2 $end
$var wire 1 & Q3 $end

$scope module i1 $end
$var wire 1 ' gnd $end
$var wire 1 ( vcc $end
$var wire 1 ) unknown $end
$var tri1 1 * devclrn $end
$var tri1 1 + devpor $end
$var tri1 1 , devoe $end
$var wire 1 - Q1~output_o $end
$var wire 1 . Q2~output_o $end
$var wire 1 / Q3~output_o $end
$var wire 1 0 C~input_o $end
$var wire 1 1 C~inputclkctrl_outclk $end
$var wire 1 2 inst1|inst1~0_combout $end
$var wire 1 3 R~input_o $end
$var wire 1 4 R~inputclkctrl_outclk $end
$var wire 1 5 inst1|inst1~q $end
$var wire 1 6 S~input_o $end
$var wire 1 7 inst2|inst~0_combout $end
$var wire 1 8 inst2|inst~q $end
$var wire 1 9 inst1|inst~0_combout $end
$var wire 1 : inst1|inst~q $end
$upscope $end
$upscope $end
$enddefinitions $end
#0
$dumpvars
0!
1"
0#
x$
x%
x&
0'
1(
x)
1*
1+
1,
x-
x.
x/
00
x1
x2
13
x4
05
06
x7
08
x9
0:
$end
#378
01
#390
14
#432
07
#434
19
#436
02
#3089
0/
0&
#3114
0-
0$
#3892
0.
0%
#12500
1!
#13027
10
#13417
11
#25000
0"
0!
#25701
00
03
#26079
04
01
#37500
1!
#38027
10
#38417
11
#50000
0!
#50701
00
#51079
01
#52677
1:
#53046
09
#53052
12
#55871
1-
1$
#62500
1!
#63027
10
#63417
11
#75000
0!
#75701
00
#76079
01
#77677
15
0:
#78030
19
#80791
0-
0$
#81592
1.
1%
#87500
1!
#88027
10
#88417
11
#100000
0!
#100701
00
#101079
01
#102677
1:
#103042
02
#103046
09
#103049
17
#105871
1-
1$
#112500
1!
#113027
10
#113417
11
#125000
0!
#125701
00
#126079
01
#127677
05
18
0:
#128046
07
#130791
0-
0$
#130843
1/
1&
#131569
0.
0%
#137500
1!
#138027
10
#138417
11
#150000
0!
#150701
00
#151079
01
#152677
08
#153111
19
#155766
0/
0&
#162500
1!
#163027
10
#163417
11
#175000
1#
0!
#175517
16
#175701
00
#176079
01
#177677
1:
#178046
09
#178052
12
#180871
1-
1$
#187500
1!
#188027
10
#188417
11
#200000
0!
#200701
00
#201079
01
#202677
15
0:
#203030
19
#205791
0-
0$
#206592
1.
1%
#212500
1!
#213027
10
#213417
11
#225000
0!
#225701
00
#226079
01
#227677
1:
#228042
02
#228046
09
#230871
1-
1$
#237500
1!
#238027
10
#238417
11
#250000
0!
#250701
00
#251079
01
#252677
05
0:
#253030
19
#255791
0-
0$
#256569
0.
0%
#262500
1!
#263027
10
#263417
11
#275000
0!
#275701
00
#276079
01
#277677
1:
#278046
09
#278052
12
#280871
1-
1$
#287500
1!
#288027
10
#288417
11
#300000
0!
#300701
00
#301079
01
#302677
15
0:
#303030
19
#305791
0-
0$
#306592
1.
1%
#312500
1!
#313027
10
#313417
11
#325000
0!
#325701
00
#326079
01
#327677
1:
#328042
02
#328046
09
#330871
1-
1$
#337500
1!
#338027
10
#338417
11
#350000
0!
#350701
00
#351079
01
#352677
05
0:
#353030
19
#355791
0-
0$
#356569
0.
0%
#362500
1!
#363027
10
#363417
11
#375000
0!
#375701
00
#376079
01
#377677
1:
#378046
09
#378052
12
#380871
1-
1$
#387500
1!
#388027
10
#388417
11
#400000
0!
#400701
00
#401079
01
#402677
15
0:
#403030
19
#405791
0-
0$
#406592
1.
1%
#412500
1!
#413027
10
#413417
11
#425000
0!
#425701
00
#426079
01
#427677
1:
#428042
02
#428046
09
#430871
1-
1$
#437500
1!
#438027
10
#438417
11
#450000
0!
#450701
00
#451079
01
#452677
05
0:
#453030
19
#455791
0-
0$
#456569
0.
0%
#462500
1!
#463027
10
#463417
11
#475000
0!
#475701
00
#476079
01
#477677
1:
#478046
09
#478052
12
#480871
1-
1$
#487500
1!
#488027
10
#488417
11
#500000
0!
#500701
00
#501079
01
#502677
15
0:
#503030
19
#505791
0-
0$
#506592
1.
1%
#512500
1!
#513027
10
#513417
11
#525000
0!
#525701
00
#526079
01
#527677
1:
#528042
02
#528046
09
#530871
1-
1$
#537500
1!
#538027
10
#538417
11
#550000
0!
#550701
00
#551079
01
#552677
05
0:
#553030
19
#555791
0-
0$
#556569
0.
0%
#562500
1!
#563027
10
#563417
11
#575000
0!
#575701
00
#576079
01
#577677
1:
#578046
09
#578052
12
#580871
1-
1$
#587500
1!
#588027
10
#588417
11
#600000
0!
#600701
00
#601079
01
#602677
15
0:
#603030
19
#605791
0-
0$
#606592
1.
1%
#612500
1!
#613027
10
#613417
11
#625000
0!
#625701
00
#626079
01
#627677
1:
#628042
02
#628046
09
#630871
1-
1$
#637500
1!
#638027
10
#638417
11
#650000
0!
#650701
00
#651079
01
#652677
05
0:
#653030
19
#655791
0-
0$
#656569
0.
0%
#662500
1!
#663027
10
#663417
11
#675000
0!
#675701
00
#676079
01
#677677
1:
#678046
09
#678052
12
#680871
1-
1$
#687500
1!
#688027
10
#688417
11
#700000
0!
#700701
00
#701079
01
#702677
15
0:
#703030
19
#705791
0-
0$
#706592
1.
1%
#712500
1!
#713027
10
#713417
11
#725000
0!
#725701
00
#726079
01
#727677
1:
#728042
02
#728046
09
#730871
1-
1$
#737500
1!
#738027
10
#738417
11
#750000
0!
#750701
00
#751079
01
#752677
05
0:
#753030
19
#755791
0-
0$
#756569
0.
0%
#762500
1!
#763027
10
#763417
11
#775000
0!
#775701
00
#776079
01
#777677
1:
#778046
09
#778052
12
#780871
1-
1$
#787500
1!
#788027
10
#788417
11
#800000
0!
#800701
00
#801079
01
#802677
15
0:
#803030
19
#805791
0-
0$
#806592
1.
1%
#812500
1!
#813027
10
#813417
11
#825000
0!
#825701
00
#826079
01
#827677
1:
#828042
02
#828046
09
#830871
1-
1$
#837500
1!
#838027
10
#838417
11
#850000
0!
#850701
00
#851079
01
#852677
05
0:
#853030
19
#855791
0-
0$
#856569
0.
0%
#862500
1!
#863027
10
#863417
11
#875000
0!
#875701
00
#876079
01
#877677
1:
#878046
09
#878052
12
#880871
1-
1$
#887500
1!
#888027
10
#888417
11
#900000
0!
#900701
00
#901079
01
#902677
15
0:
#903030
19
#905791
0-
0$
#906592
1.
1%
#912500
1!
#913027
10
#913417
11
#925000
0!
#925701
00
#926079
01
#927677
1:
#928042
02
#928046
09
#930871
1-
1$
#937500
1!
#938027
10
#938417
11
#950000
0!
#950701
00
#951079
01
#952677
05
0:
#953030
19
#955791
0-
0$
#956569
0.
0%
#962500
1!
#963027
10
#963417
11
#975000
0!
#975701
00
#976079
01
#977677
1:
#978046
09
#978052
12
#980871
1-
1$
#987500
1!
#988027
10
