university/circuit-design/sem2/lab2/simulation/qsim/lab2.msim.vcd
$comment
	File created using the following command:
		vcd file lab2.msim.vcd -direction
$end
$date
	Mon Feb 22 14:50:19 2021
$end
$version
	ModelSim Version 10.5b
$end
$timescale
	1ps
$end

$scope module scheme_vlg_vec_tst $end
$var reg 1 ! C $end
$var reg 1 " R $end
$var wire 1 # Q1 $end
$var wire 1 $ Q2 $end
$var wire 1 % Q3 $end
$var wire 1 & Q4 $end
$var wire 1 ' Q5 $end

$scope module i1 $end
$var wire 1 ( gnd $end
$var wire 1 ) vcc $end
$var wire 1 * unknown $end
$var tri1 1 + devclrn $end
$var tri1 1 , devpor $end
$var tri1 1 - devoe $end
$var wire 1 . Q1~output_o $end
$var wire 1 / Q2~output_o $end
$var wire 1 0 Q3~output_o $end
$var wire 1 1 Q4~output_o $end
$var wire 1 2 Q5~output_o $end
$var wire 1 3 C~input_o $end
$var wire 1 4 inst1|inst~0_combout $end
$var wire 1 5 inst1|inst~feeder_combout $end
$var wire 1 6 R~input_o $end
$var wire 1 7 R~inputclkctrl_outclk $end
$var wire 1 8 inst1|inst~q $end
$var wire 1 9 inst2|inst~0_combout $end
$var wire 1 : inst2|inst~feeder_combout $end
$var wire 1 ; inst3|inst~0_combout $end
$var wire 1 < inst3|inst~feeder_combout $end
$var wire 1 = inst3|inst~q $end
$var wire 1 > inst3|inst1~0_combout $end
$var wire 1 ? inst3|inst1~q $end
$var wire 1 @ inst2|inst1~0_combout $end
$var wire 1 A inst2|inst1~q $end
$var wire 1 B inst|inst1~0_combout $end
$var wire 1 C inst8|inst1~combout $end
$var wire 1 D inst2|inst~q $end
$upscope $end
$upscope $end
$enddefinitions $end
#0
$dumpvars
1!
1"
x#
x$
x%
x&
x'
0(
1)
x*
1+
1,
1-
x.
x/
x0
x1
x2
13
x4
x5
16
x7
08
x9
x:
x;
x<
0=
x>
0?
1@
0A
xB
xC
0D
$end
#390
17
#674
0B
#757
1;
#885
19
#931
1>
#1391
1<
#1581
1:
#1617
1C
#2352
14
#3110
02
0'
#3346
01
0&
#3350
0/
0$
#4052
00
0%
#4365
0.
0#
#4418
15
#15000
0!
#15711
03
#30000
0"
1!
#30537
13
#30701
06
#31079
07
#32248
0C
#45000
0!
#45711
03
#47817
18
#49138
1D
#49969
09
#50074
04
#50103
1=
#50698
0:
#50809
0;
#51289
1?
#51440
0<
#52160
05
#52164
0>
#52203
1.
1#
#52273
1A
#52542
1/
1$
#52642
0@
#54152
10
1%
#54699
11
1&
#55440
12
1'
#60000
1!
#60537
13
#62238
1B
#62658
1C
#63757
0D
0=
#64431
0B
#64514
1;
#64642
19
#64877
0C
#65148
1<
#65338
1:
#67107
0/
0$
#67809
00
0%
#75000
0!
#75711
03
#77817
08
#80169
14
#82182
0.
0#
#82235
15
#90000
1!
#90537
13
#105000
0!
#105711
03
#107817
18
#109138
1D
#109969
09
#110074
04
#110103
1=
#110698
0:
#110809
0;
#111289
0?
#111440
0<
#112160
05
#112203
1.
1#
#112220
1>
#112542
1/
1$
#114152
10
1%
#114635
01
0&
#120000
1!
#120537
13
#135000
0!
#135711
03
#137817
08
#140169
14
#142182
0.
0#
#142235
15
#150000
1!
#150537
13
#165000
0!
#165711
03
#167817
18
#169138
0D
#170023
19
#170074
04
#170719
1:
#172160
05
#172203
1.
1#
#172488
0/
0$
#180000
1!
#180537
13
#195000
0!
#195711
03
#197817
08
#200169
14
#202182
0.
0#
#202235
15
#210000
1!
#210537
13
#225000
0!
#225711
03
#227817
18
#229138
1D
#229969
09
#230074
04
#230103
0=
#230698
0:
#230860
1;
#231494
1<
#232160
05
#232203
1.
1#
#232542
1/
1$
#234155
00
0%
#240000
1!
#240537
13
#255000
0!
#255711
03
#257817
08
#260169
14
#262182
0.
0#
#262235
15
#270000
1!
#270537
13
#285000
0!
#285711
03
#287817
18
#289138
0D
#290023
19
#290074
04
#290719
1:
#292160
05
#292203
1.
1#
#292488
0/
0$
#300000
1!
#300537
13
#315000
0!
#315711
03
#317817
08
#320169
14
#322182
0.
0#
#322235
15
#330000
1!
#330537
13
#345000
0!
#345711
03
#347817
18
#349138
1D
#349969
09
#350074
04
#350103
1=
#350698
0:
#350809
0;
#351289
1?
#351440
0<
#352160
05
#352164
0>
#352203
1.
1#
#352273
0A
#352542
1/
1$
#352626
1@
#354152
10
1%
#354699
11
1&
#355383
02
0'
#360000
1!
#360537
13
#375000
0!
#375711
03
#377817
08
#380169
14
#382182
0.
0#
#382235
15
#390000
1!
#390537
13
#405000
0!
#405711
03
#407817
18
#409138
0D
#410023
19
#410074
04
#410719
1:
#412160
05
#412203
1.
1#
#412488
0/
0$
#420000
1!
#420537
13
#435000
0!
#435711
03
#437817
08
#440169
14
#442182
0.
0#
#442235
15
#450000
1!
#450537
13
#465000
0!
#465711
03
#467817
18
#469138
1D
#469969
09
#470074
04
#470103
0=
#470698
0:
#470860
1;
#471494
1<
#472160
05
#472203
1.
1#
#472542
1/
1$
#474155
00
0%
#480000
1!
#480537
13
#495000
0!
#495711
03
#497817
08
#500169
14
#502182
0.
0#
#502235
15
#510000
1!
#510537
13
#525000
0!
#525711
03
#527817
18
#529138
0D
#530023
19
#530074
04
#530719
1:
#532160
05
#532203
1.
1#
#532488
0/
0$
#540000
1!
#540537
13
#555000
0!
#555711
03
#557817
08
#560169
14
#562182
0.
0#
#562235
15
#570000
1!
#570537
13
#585000
0!
#585711
03
#587817
18
#589138
1D
#589969
09
#590074
04
#590103
1=
#590698
0:
#590809
0;
#591289
0?
#591440
0<
#592160
05
#592203
1.
1#
#592220
1>
#592542
1/
1$
#594152
10
1%
#594635
01
0&
#600000
1!
#600537
13
#615000
0!
#615711
03
#617817
08
#620169
14
#622182
0.
0#
#622235
15
#630000
1!
#630537
13
#645000
0!
#645711
03
#647817
18
#649138
0D
#650023
19
#650074
04
#650719
1:
#652160
05
#652203
1.
1#
#652488
0/
0$
#660000
1!
#660537
13
#675000
0!
#675711
03
#677817
08
#680169
14
#682182
0.
0#
#682235
15
#690000
1!
#690537
13
#705000
0!
#705711
03
#707817
18
#709138
1D
#709969
09
#710074
04
#710103
0=
#710698
0:
#710860
1;
#711494
1<
#712160
05
#712203
1.
1#
#712542
1/
1$
#714155
00
0%
#720000
1!
#720537
13
#735000
0!
#735711
03
#737817
08
#740169
14
#742182
0.
0#
#742235
15
#750000
1!
#750537
13
#765000
0!
#765711
03
#767817
18
#769138
0D
#770023
19
#770074
04
#770719
1:
#772160
05
#772203
1.
1#
#772488
0/
0$
#780000
1!
#780537
13
#795000
0!
#795711
03
#797817
08
#800169
14
#802182
0.
0#
#802235
15
#810000
1!
#810537
13
#825000
0!
#825711
03
#827817
18
#829138
1D
#829969
09
#830074
04
#830103
1=
#830698
0:
#830809
0;
#831289
1?
#831440
0<
#832160
05
#832164
0>
#832203
1.
1#
#832273
1A
#832542
1/
1$
#832642
0@
#834152
10
1%
#834699
11
1&
#835440
12
1'
#840000
1"
1!
#840527
16
#840537
13
#840917
17
#842144
1C
#842238
1B
#842529
0A
0?
#842530
08
#842882
1@
#843063
0B
#843243
0D
0=
#843460
1>
#844000
1;
#844128
19
#844634
1<
#844824
1:
#844882
14
#845639
02
0'
#845875
01
0&
#846593
0/
0$
#846895
0.
0#
#846948
15
#847295
00
0%
#855000
0!
#855711
03
#870000
1!
#870537
13
#885000
0!
#885711
03
#900000
1!
#900537
13
#915000
0!
#915711
03
#930000
1!
#930537
13
#945000
0!
#945711
03
#960000
1!
#960537
13
#975000
0!
#975711
03
#990000
1!
#990537
13
