university/circuit-design/lab4/simulation/qsim/lab4.msim.vcd
$comment
	File created using the following command:
		vcd file lab4.msim.vcd -direction
$end
$date
	Sun Dec 06 13:57:03 2020
$end
$version
	ModelSim Version 10.5b
$end
$timescale
	1ps
$end

$scope module scheme_vlg_vec_tst $end
$var reg 1 ! b1 $end
$var reg 1 " b2 $end
$var reg 1 # b3 $end
$var reg 1 $ C $end
$var reg 1 % Dr $end
$var reg 1 & NRA $end
$var reg 1 ' NSA $end
$var reg 1 ( v1 $end
$var reg 1 ) v2 $end
$var wire 1 * q1 $end
$var wire 1 + q2 $end
$var wire 1 , q3 $end

$scope module i1 $end
$var wire 1 - gnd $end
$var wire 1 . vcc $end
$var wire 1 / unknown $end
$var tri1 1 0 devclrn $end
$var tri1 1 1 devpor $end
$var tri1 1 2 devoe $end
$var wire 1 3 q3~output_o $end
$var wire 1 4 q1~output_o $end
$var wire 1 5 q2~output_o $end
$var wire 1 6 v2~input_o $end
$var wire 1 7 v1~input_o $end
$var wire 1 8 Dr~input_o $end
$var wire 1 9 inst3|inst3~2_combout $end
$var wire 1 : b3~input_o $end
$var wire 1 ; NRA~input_o $end
$var wire 1 < C~input_o $end
$var wire 1 = inst3|inst3~1_combout $end
$var wire 1 > inst3|inst3~3_combout $end
$var wire 1 ? inst3|inst1~1_combout $end
$var wire 1 @ NSA~input_o $end
$var wire 1 A NSA~inputclkctrl_outclk $end
$var wire 1 B inst3|inst1~2_combout $end
$var wire 1 C inst3|inst4~1_combout $end
$var wire 1 D b1~input_o $end
$var wire 1 E inst4|inst3~1_combout $end
$var wire 1 F inst4|inst8~2_combout $end
$var wire 1 G b2~input_o $end
$var wire 1 H inst4|inst8~1_combout $end
$var wire 1 I inst4|inst8~3_combout $end
$var wire 1 J inst4|inst6~1_combout $end
$var wire 1 K inst4|inst9~1_combout $end
$var wire 1 L inst4|inst3~2_combout $end
$var wire 1 M inst4|inst3~3_combout $end
$var wire 1 N inst4|inst1~1_combout $end
$var wire 1 O inst4|inst4~1_combout $end
$upscope $end
$upscope $end
$enddefinitions $end
#0
$dumpvars
0!
0"
0#
0$
0%
0&
1'
1(
0)
x*
x+
x,
0-
1.
x/
10
11
12
x3
x4
x5
06
17
08
x9
0:
0;
0<
x=
x>
x?
1@
xA
xB
xC
0D
xE
xF
0G
xH
xI
xJ
xK
xL
xM
xN
xO
$end
#390
1A
#3742
09
#3890
0?
#4147
0L
#4148
0F
#4157
0H
#4179
0E
#4342
0=
#4482
0J
#4483
0B
#4485
0N
#4496
0I
#4635
0M
#4677
0>
#5083
1C
#5134
1K
#5258
1O
#8169
05
0+
#8588
04
0*
#8988
03
0,
#25000
1&
#25507
1;
#29398
1H
#29400
1E
#29601
1=
#29724
1I
#29827
1M
#29917
1>
#37500
1$
#38007
1<
#41628
1?
#42201
1J
#42202
1B
#42204
1N
#42769
0C
#42817
0K
#42965
0O
#45739
15
1+
#46165
14
1*
#46612
13
1,
#50000
0$
#50681
0<
#54571
0?
#55163
0J
#55164
0B
#55166
0N
#62500
1$
#63007
1<
#66628
1?
#67201
1J
#67202
1B
#67204
1N
#75000
0(
1)
0$
#75517
16
#75681
0<
07
#79353
0>
0I
#79384
1F
1L
#79413
0M
#79571
0?
#79689
1M
#79768
0L
#79771
0F
#79891
1I
#80087
0M
#80163
0J
#80164
0B
#80166
0N
#80322
0I
#112500
1$
#113007
1<
#116628
1?
#116629
0E
#116802
0=
#117084
1O
#117136
0H
#117354
1C
#117691
1L
#117724
1K
#117840
19
#118165
1F
#120414
04
0*
#120759
05
0+
#121259
03
0,
#125000
0$
#125681
0<
#129571
0?
1E
#129744
1=
#129998
1M
#130057
1H
#130060
1>
#130383
1I
#137500
1$
#138007
1<
#141628
1?
#142201
1J
#142202
1B
#142204
1N
#142769
0C
#142817
0K
#142965
0O
#143259
09
#143284
0F
#143578
0L
#143807
0>
#143835
0I
#143897
0M
#145739
15
1+
#146165
14
1*
#146612
13
1,
#150000
0$
#150681
0<
#154571
0?
#155163
0J
#155164
0B
#155166
0N
#162500
1$
#163007
1<
#166628
1?
#166629
0E
#166802
0=
#167084
1O
#167136
0H
#167354
1C
#167691
1L
#167724
1K
#167840
19
#168165
1F
#170414
04
0*
#170759
05
0+
#171259
03
0,
#175000
0)
0$
#175681
0<
#175691
06
#179571
0?
1E
#179744
1=
#180057
1H
#212500
1$
#213007
1<
#216628
1?
#216629
0E
#216802
0=
#217136
0H
#225000
1!
1"
1#
0$
#225507
1:
1G
1D
#225681
0<
#229571
0?
1E
#229744
1=
#229998
1M
#230057
1H
#230060
1>
#230383
1I
#262500
1$
#263007
1<
#266628
1?
#267201
1J
#267202
1B
#267204
1N
#267769
0C
#267817
0K
#267965
0O
#268259
09
#268284
0F
#268578
0L
#270739
15
1+
#271165
14
1*
#271612
13
1,
#275000
0!
0"
0#
0$
#275681
0<
0:
0G
0D
#279571
0?
#280163
0J
#280164
0B
#280166
0N
#312500
1$
#313007
1<
#316628
1?
#317201
1J
#317202
1B
#317204
1N
#325000
1!
1"
1#
0$
#325507
1:
1G
1D
#325681
0<
#329571
0?
#330163
0J
#330164
0B
#330166
0N
#362500
1$
#363007
1<
#366628
1?
#367201
1J
#367202
1B
#367204
1N
#375000
1(
1)
0!
0"
0#
0$
#375507
17
#375517
16
#375681
0<
0:
0G
0D
#379353
0>
0I
#379384
1F
1L
#379413
0M
#379571
0?
#379689
1M
#379891
1I
#380163
0J
#380164
0B
#380166
0N
#412500
1$
#413007
1<
#416628
1?
#416802
0=
#417201
1J
#417204
1N
#417354
1C
#417830
0F
#418381
0I
#421259
03
0,
#425000
0$
#425681
0<
#429571
0?
#429744
1=
#430163
0J
#430166
0N
#437500
1$
#438007
1<
#441628
1?
#441802
0=
#442136
0H
#442204
1N
#442724
1K
#443190
0L
#443509
0M
#445759
05
0+
#450000
0$
#450681
0<
#454571
0?
#454744
1=
#455057
1H
#455166
0N
#462500
1$
#463007
1<
#466628
1?
#466629
0E
#466802
0=
#467084
1O
#467136
0H
#470414
04
0*
#475000
0$
#475681
0<
#479571
0?
1E
#479744
1=
#480057
1H
#487500
1$
#488007
1<
#491628
1?
#491629
0E
#491802
0=
#492136
0H
#500000
1%
0$
#500517
18
#500681
0<
#504010
19
#504571
0?
1E
#504744
1=
#505057
1H
#505060
1>
#537500
1$
#538007
1<
#541628
1?
#541629
0E
#542136
0H
#542202
1B
#542769
0C
#543268
1F
#546612
13
1,
#550000
0%
0$
#550681
0<
#550691
08
#554433
09
#554571
0?
1E
#554981
0>
#555057
1H
#555164
0B
#555383
1I
#587500
1$
#588007
1<
#591628
1?
#591629
0E
#591802
0=
#592201
1J
#592354
1C
#592817
0K
#592830
0F
#593307
1L
#593381
0I
#595739
15
1+
#596259
03
0,
#600000
0$
#600681
0<
#604571
0?
1E
#604744
1=
#604998
1M
#605163
0J
#612500
1$
#613007
1<
#616628
1?
#616802
0=
#617136
0H
#617204
1N
#617724
1K
#617965
0O
#618190
0L
#618509
0M
#620759
05
0+
#621165
14
1*
#625000
1%
0$
#625517
18
#625681
0<
#629010
19
#629571
0?
#629744
1=
#630057
1H
#630060
1>
#630166
0N
#662500
1$
#663007
1<
#666628
1?
#666629
0E
#667084
1O
#667136
0H
#667202
1B
#667769
0C
#668268
1F
#670414
04
0*
#671612
13
1,
#675000
0$
#675681
0<
#679571
0?
1E
#680057
1H
#680164
0B
#680383
1I
#687500
1$
#688007
1<
#691628
1?
#691629
0E
#692201
1J
#692202
1B
#692817
0K
#693307
1L
#695739
15
1+
#700000
0%
0$
#700681
0<
#700691
08
#704433
09
#704571
0?
1E
#704981
0>
#704998
1M
#705163
0J
#705164
0B
#737500
1$
#738007
1<
#741628
1?
#741802
0=
#742201
1J
#742204
1N
#742354
1C
#742830
0F
#742965
0O
#743381
0I
#746165
14
1*
#746259
03
0,
#750000
1%
0$
#750517
18
#750681
0<
#754010
19
#754571
0?
#754744
1=
#755060
1>
#755163
0J
#755166
0N
#787500
1$
#788007
1<
#791628
1?
#792136
0H
#792202
1B
#792204
1N
#792724
1K
#792769
0C
#793190
0L
#793268
1F
#793509
0M
#795759
05
0+
#796612
13
1,
#800000
0%
0$
#800681
0<
#800691
08
#804433
09
#804571
0?
#804981
0>
#805057
1H
#805164
0B
#805166
0N
#805383
1I
#837500
1$
#838007
1<
#841628
1?
#841629
0E
#841802
0=
#842084
1O
#842201
1J
#842354
1C
#842817
0K
#842830
0F
#843307
1L
#843381
0I
#845414
04
0*
#845739
15
1+
#846259
03
0,
#850000
1%
0$
#850517
18
#850681
0<
#854010
19
#854571
0?
1E
#854744
1=
#854998
1M
#855060
1>
#855163
0J
#887500
1$
#888007
1<
#891628
1?
#892136
0H
#892202
1B
#892204
1N
#892724
1K
#892769
0C
#892965
0O
#893190
0L
#893268
1F
#893509
0M
#895759
05
0+
#896165
14
1*
#896612
13
1,
#900000
0$
#900681
0<
#904571
0?
#905057
1H
#905164
0B
#905166
0N
#905383
1I
#912500
1$
#913007
1<
#916628
1?
#916629
0E
#917084
1O
#917201
1J
#917202
1B
#917817
0K
#918307
1L
#920414
04
0*
#920739
15
1+
#925000
0$
#925681
0<
#929571
0?
1E
#929998
1M
#930163
0J
#930164
0B
#937500
1$
#938007
1<
#941628
1?
#942201
1J
#942202
1B
#942204
1N
#942965
0O
#946165
14
1*
#950000
0$
#950681
0<
#954571
0?
#955163
0J
#955164
0B
#955166
0N
#962500
1$
#963007
1<
#966628
1?
#967201
1J
#967202
1B
#967204
1N
#975000
0&
0(
0)
0%
0$
#975681
0<
07
0;
#975691
08
06
#979433
09
#979571
0?
#979768
0L
#979771
0F
#979779
0I
#979838
0H
#979839
0M
#979860
0E
#980023
0=
#980163
0J
#980164
0B
#980166
0N
#980358
0>
#980764
1C
#980815
1K
#980939
1O
#981250
19
#981256
1F
#981546
1L
#983850
05
0+
#984269
04
0*
#984669
03
0,
#1000000
0'
1&
#1000507
1;
#1000701
0@
#1001079
0A
#1001816
0C
#1002306
09
#1002412
0K
#1002818
0O
#1002879
0F
#1003431
0L
#1004398
1H
#1004400
1E
#1004601
1=
#1004724
1I
#1004827
1M
#1004917
1>
#1005334
15
1+
#1005659
13
1,
#1006018
14
1*
#1025000
1'
#1025527
1@
